(footprint "WSON-8-1EP_4x4mm_P0.8mm_EP1.98x3mm_ThermalVias"
	(version 20241229)
	(generator "kicad-footprint-generator")
	(layer "F.Cu")
	(descr "WSON, 8 Pin (https://www.ti.com/lit/ds/symlink/lm5017.pdf#page=34), generated with kicad-footprint-generator ipc_noLead_generator.py")
	(tags "WSON NoLead")
	(property "Reference" "REF**"
		(at 0 -2.95 0)
		(layer "F.SilkS")
		(effects
			(font
				(size 1 1)
				(thickness 0.15)
			)
		)
	)
	(property "Value" "WSON-8-1EP_4x4mm_P0.8mm_EP1.98x3mm_ThermalVias"
		(at 0 2.95 0)
		(layer "F.Fab")
		(effects
			(font
				(size 1 1)
				(thickness 0.15)
			)
		)
	)
	(attr smd)
	(fp_line
		(start -2 -2.11)
		(end 2 -2.11)
		(stroke
			(width 0.12)
			(type solid)
		)
		(layer "F.SilkS")
	)
	(fp_line
		(start -2 2.11)
		(end 2 2.11)
		(stroke
			(width 0.12)
			(type solid)
		)
		(layer "F.SilkS")
	)
	(fp_poly
		(pts
			(xy -2.54 -1.52)
			(xy -3.02 -1.52)
			(xy -2.54 -2)
		)
		(stroke
			(width 0.12)
			(type solid)
		)
		(fill yes)
		(layer "F.SilkS")
	)
	(fp_rect
		(start -2.63 -2.25)
		(end 2.63 2.25)
		(stroke
			(width 0.05)
			(type solid)
		)
		(fill no)
		(layer "F.CrtYd")
	)
	(fp_poly
		(pts
			(xy -2 -1)
			(xy -2 2)
			(xy 2 2)
			(xy 2 -2)
			(xy -1 -2)
		)
		(stroke
			(width 0.1)
			(type solid)
		)
		(fill no)
		(layer "F.Fab")
	)
	(fp_text user "${REFERENCE}"
		(at 0 0 0)
		(layer "F.Fab")
		(effects
			(font
				(size 1 1)
				(thickness 0.15)
			)
		)
	)
	(pad "" smd roundrect
		(at -0.495 -0.625)
		(size 0.798164 1.007782)
		(layers "F.Paste")
		(roundrect_rratio 0.25)
	)
	(pad "" smd roundrect
		(at -0.495 0.625)
		(size 0.798164 1.007782)
		(layers "F.Paste")
		(roundrect_rratio 0.25)
	)
	(pad "" smd roundrect
		(at 0.495 -0.625)
		(size 0.798164 1.007782)
		(layers "F.Paste")
		(roundrect_rratio 0.25)
	)
	(pad "" smd roundrect
		(at 0.495 0.625)
		(size 0.798164 1.007782)
		(layers "F.Paste")
		(roundrect_rratio 0.25)
	)
	(pad "1" smd roundrect
		(at -1.9375 -1.2)
		(size 0.875 0.3)
		(layers "F.Cu" "F.Mask" "F.Paste")
		(roundrect_rratio 0.25)
	)
	(pad "2" smd roundrect
		(at -1.9375 -0.4)
		(size 0.875 0.3)
		(layers "F.Cu" "F.Mask" "F.Paste")
		(roundrect_rratio 0.25)
	)
	(pad "3" smd roundrect
		(at -1.9375 0.4)
		(size 0.875 0.3)
		(layers "F.Cu" "F.Mask" "F.Paste")
		(roundrect_rratio 0.25)
	)
	(pad "4" smd roundrect
		(at -1.9375 1.2)
		(size 0.875 0.3)
		(layers "F.Cu" "F.Mask" "F.Paste")
		(roundrect_rratio 0.25)
	)
	(pad "5" smd roundrect
		(at 1.9375 1.2)
		(size 0.875 0.3)
		(layers "F.Cu" "F.Mask" "F.Paste")
		(roundrect_rratio 0.25)
	)
	(pad "6" smd roundrect
		(at 1.9375 0.4)
		(size 0.875 0.3)
		(layers "F.Cu" "F.Mask" "F.Paste")
		(roundrect_rratio 0.25)
	)
	(pad "7" smd roundrect
		(at 1.9375 -0.4)
		(size 0.875 0.3)
		(layers "F.Cu" "F.Mask" "F.Paste")
		(roundrect_rratio 0.25)
	)
	(pad "8" smd roundrect
		(at 1.9375 -1.2)
		(size 0.875 0.3)
		(layers "F.Cu" "F.Mask" "F.Paste")
		(roundrect_rratio 0.25)
	)
	(pad "9" thru_hole circle
		(at 0 -1.25)
		(size 0.5 0.5)
		(drill 0.2)
		(property pad_prop_heatsink)
		(layers "*.Cu")
		(remove_unused_layers no)
	)
	(pad "9" thru_hole circle
		(at 0 0)
		(size 0.5 0.5)
		(drill 0.2)
		(property pad_prop_heatsink)
		(layers "*.Cu")
		(remove_unused_layers no)
	)
	(pad "9" smd rect
		(at 0 0)
		(size 0.5 3)
		(property pad_prop_heatsink)
		(layers "B.Cu")
		(zone_connect 2)
	)
	(pad "9" smd rect
		(at 0 0)
		(size 1.98 3)
		(property pad_prop_heatsink)
		(layers "F.Cu" "F.Mask")
		(zone_connect 2)
	)
	(pad "9" thru_hole circle
		(at 0 1.25)
		(size 0.5 0.5)
		(drill 0.2)
		(property pad_prop_heatsink)
		(layers "*.Cu")
		(remove_unused_layers no)
	)
	(embedded_fonts no)
	(model "${KICAD9_3DMODEL_DIR}/Package_SON.3dshapes/WSON-8-1EP_4x4mm_P0.8mm_EP1.98x3mm.wrl"
		(offset
			(xyz 0 0 0)
		)
		(scale
			(xyz 1 1 1)
		)
		(rotate
			(xyz 0 0 0)
		)
	)
)
