(footprint "QFN-48-1EP_7x7mm_P0.5mm_EP5.45x5.45mm_ThermalVias"
	(version 20241229)
	(generator "kicad-footprint-generator")
	(layer "F.Cu")
	(descr "QFN, 48 Pin (http://www.thatcorp.com/datashts/THAT_626x_Datasheet.pdf), generated with kicad-footprint-generator ipc_noLead_generator.py")
	(tags "QFN NoLead")
	(property "Reference" "REF**"
		(at 0 -4.83 0)
		(layer "F.SilkS")
		(effects
			(font
				(size 1 1)
				(thickness 0.15)
			)
		)
	)
	(property "Value" "QFN-48-1EP_7x7mm_P0.5mm_EP5.45x5.45mm_ThermalVias"
		(at 0 4.83 0)
		(layer "F.Fab")
		(effects
			(font
				(size 1 1)
				(thickness 0.15)
			)
		)
	)
	(attr smd)
	(fp_line
		(start -3.61 -3.135)
		(end -3.61 -3.37)
		(stroke
			(width 0.12)
			(type solid)
		)
		(layer "F.SilkS")
	)
	(fp_line
		(start -3.61 3.61)
		(end -3.61 3.135)
		(stroke
			(width 0.12)
			(type solid)
		)
		(layer "F.SilkS")
	)
	(fp_line
		(start -3.135 -3.61)
		(end -3.31 -3.61)
		(stroke
			(width 0.12)
			(type solid)
		)
		(layer "F.SilkS")
	)
	(fp_line
		(start -3.135 3.61)
		(end -3.61 3.61)
		(stroke
			(width 0.12)
			(type solid)
		)
		(layer "F.SilkS")
	)
	(fp_line
		(start 3.135 -3.61)
		(end 3.61 -3.61)
		(stroke
			(width 0.12)
			(type solid)
		)
		(layer "F.SilkS")
	)
	(fp_line
		(start 3.135 3.61)
		(end 3.61 3.61)
		(stroke
			(width 0.12)
			(type solid)
		)
		(layer "F.SilkS")
	)
	(fp_line
		(start 3.61 -3.61)
		(end 3.61 -3.135)
		(stroke
			(width 0.12)
			(type solid)
		)
		(layer "F.SilkS")
	)
	(fp_line
		(start 3.61 3.61)
		(end 3.61 3.135)
		(stroke
			(width 0.12)
			(type solid)
		)
		(layer "F.SilkS")
	)
	(fp_poly
		(pts
			(xy -3.61 -3.61)
			(xy -3.85 -3.94)
			(xy -3.37 -3.94)
		)
		(stroke
			(width 0.12)
			(type solid)
		)
		(fill yes)
		(layer "F.SilkS")
	)
	(fp_rect
		(start -4.13 -4.13)
		(end 4.13 4.13)
		(stroke
			(width 0.05)
			(type solid)
		)
		(fill no)
		(layer "F.CrtYd")
	)
	(fp_poly
		(pts
			(xy -3.5 -2.5)
			(xy -3.5 3.5)
			(xy 3.5 3.5)
			(xy 3.5 -3.5)
			(xy -2.5 -3.5)
		)
		(stroke
			(width 0.1)
			(type solid)
		)
		(fill no)
		(layer "F.Fab")
	)
	(fp_text user "${REFERENCE}"
		(at 0 0 0)
		(layer "F.Fab")
		(effects
			(font
				(size 1 1)
				(thickness 0.15)
			)
		)
	)
	(pad "" smd roundrect
		(at -1.85625 -1.85625)
		(size 1.098483 1.098483)
		(layers "F.Paste")
		(roundrect_rratio 0.227587)
	)
	(pad "" smd roundrect
		(at -1.85625 -0.61875)
		(size 1.098483 1.098483)
		(layers "F.Paste")
		(roundrect_rratio 0.227587)
	)
	(pad "" smd roundrect
		(at -1.85625 0.61875)
		(size 1.098483 1.098483)
		(layers "F.Paste")
		(roundrect_rratio 0.227587)
	)
	(pad "" smd roundrect
		(at -1.85625 1.85625)
		(size 1.098483 1.098483)
		(layers "F.Paste")
		(roundrect_rratio 0.227587)
	)
	(pad "" smd roundrect
		(at -0.61875 -1.85625)
		(size 1.098483 1.098483)
		(layers "F.Paste")
		(roundrect_rratio 0.227587)
	)
	(pad "" smd roundrect
		(at -0.61875 -0.61875)
		(size 1.098483 1.098483)
		(layers "F.Paste")
		(roundrect_rratio 0.227587)
	)
	(pad "" smd roundrect
		(at -0.61875 0.61875)
		(size 1.098483 1.098483)
		(layers "F.Paste")
		(roundrect_rratio 0.227587)
	)
	(pad "" smd roundrect
		(at -0.61875 1.85625)
		(size 1.098483 1.098483)
		(layers "F.Paste")
		(roundrect_rratio 0.227587)
	)
	(pad "" smd roundrect
		(at 0.61875 -1.85625)
		(size 1.098483 1.098483)
		(layers "F.Paste")
		(roundrect_rratio 0.227587)
	)
	(pad "" smd roundrect
		(at 0.61875 -0.61875)
		(size 1.098483 1.098483)
		(layers "F.Paste")
		(roundrect_rratio 0.227587)
	)
	(pad "" smd roundrect
		(at 0.61875 0.61875)
		(size 1.098483 1.098483)
		(layers "F.Paste")
		(roundrect_rratio 0.227587)
	)
	(pad "" smd roundrect
		(at 0.61875 1.85625)
		(size 1.098483 1.098483)
		(layers "F.Paste")
		(roundrect_rratio 0.227587)
	)
	(pad "" smd roundrect
		(at 1.85625 -1.85625)
		(size 1.098483 1.098483)
		(layers "F.Paste")
		(roundrect_rratio 0.227587)
	)
	(pad "" smd roundrect
		(at 1.85625 -0.61875)
		(size 1.098483 1.098483)
		(layers "F.Paste")
		(roundrect_rratio 0.227587)
	)
	(pad "" smd roundrect
		(at 1.85625 0.61875)
		(size 1.098483 1.098483)
		(layers "F.Paste")
		(roundrect_rratio 0.227587)
	)
	(pad "" smd roundrect
		(at 1.85625 1.85625)
		(size 1.098483 1.098483)
		(layers "F.Paste")
		(roundrect_rratio 0.227587)
	)
	(pad "1" smd roundrect
		(at -3.45 -2.75)
		(size 0.85 0.25)
		(layers "F.Cu" "F.Mask" "F.Paste")
		(roundrect_rratio 0.25)
	)
	(pad "2" smd roundrect
		(at -3.45 -2.25)
		(size 0.85 0.25)
		(layers "F.Cu" "F.Mask" "F.Paste")
		(roundrect_rratio 0.25)
	)
	(pad "3" smd roundrect
		(at -3.45 -1.75)
		(size 0.85 0.25)
		(layers "F.Cu" "F.Mask" "F.Paste")
		(roundrect_rratio 0.25)
	)
	(pad "4" smd roundrect
		(at -3.45 -1.25)
		(size 0.85 0.25)
		(layers "F.Cu" "F.Mask" "F.Paste")
		(roundrect_rratio 0.25)
	)
	(pad "5" smd roundrect
		(at -3.45 -0.75)
		(size 0.85 0.25)
		(layers "F.Cu" "F.Mask" "F.Paste")
		(roundrect_rratio 0.25)
	)
	(pad "6" smd roundrect
		(at -3.45 -0.25)
		(size 0.85 0.25)
		(layers "F.Cu" "F.Mask" "F.Paste")
		(roundrect_rratio 0.25)
	)
	(pad "7" smd roundrect
		(at -3.45 0.25)
		(size 0.85 0.25)
		(layers "F.Cu" "F.Mask" "F.Paste")
		(roundrect_rratio 0.25)
	)
	(pad "8" smd roundrect
		(at -3.45 0.75)
		(size 0.85 0.25)
		(layers "F.Cu" "F.Mask" "F.Paste")
		(roundrect_rratio 0.25)
	)
	(pad "9" smd roundrect
		(at -3.45 1.25)
		(size 0.85 0.25)
		(layers "F.Cu" "F.Mask" "F.Paste")
		(roundrect_rratio 0.25)
	)
	(pad "10" smd roundrect
		(at -3.45 1.75)
		(size 0.85 0.25)
		(layers "F.Cu" "F.Mask" "F.Paste")
		(roundrect_rratio 0.25)
	)
	(pad "11" smd roundrect
		(at -3.45 2.25)
		(size 0.85 0.25)
		(layers "F.Cu" "F.Mask" "F.Paste")
		(roundrect_rratio 0.25)
	)
	(pad "12" smd roundrect
		(at -3.45 2.75)
		(size 0.85 0.25)
		(layers "F.Cu" "F.Mask" "F.Paste")
		(roundrect_rratio 0.25)
	)
	(pad "13" smd roundrect
		(at -2.75 3.45)
		(size 0.25 0.85)
		(layers "F.Cu" "F.Mask" "F.Paste")
		(roundrect_rratio 0.25)
	)
	(pad "14" smd roundrect
		(at -2.25 3.45)
		(size 0.25 0.85)
		(layers "F.Cu" "F.Mask" "F.Paste")
		(roundrect_rratio 0.25)
	)
	(pad "15" smd roundrect
		(at -1.75 3.45)
		(size 0.25 0.85)
		(layers "F.Cu" "F.Mask" "F.Paste")
		(roundrect_rratio 0.25)
	)
	(pad "16" smd roundrect
		(at -1.25 3.45)
		(size 0.25 0.85)
		(layers "F.Cu" "F.Mask" "F.Paste")
		(roundrect_rratio 0.25)
	)
	(pad "17" smd roundrect
		(at -0.75 3.45)
		(size 0.25 0.85)
		(layers "F.Cu" "F.Mask" "F.Paste")
		(roundrect_rratio 0.25)
	)
	(pad "18" smd roundrect
		(at -0.25 3.45)
		(size 0.25 0.85)
		(layers "F.Cu" "F.Mask" "F.Paste")
		(roundrect_rratio 0.25)
	)
	(pad "19" smd roundrect
		(at 0.25 3.45)
		(size 0.25 0.85)
		(layers "F.Cu" "F.Mask" "F.Paste")
		(roundrect_rratio 0.25)
	)
	(pad "20" smd roundrect
		(at 0.75 3.45)
		(size 0.25 0.85)
		(layers "F.Cu" "F.Mask" "F.Paste")
		(roundrect_rratio 0.25)
	)
	(pad "21" smd roundrect
		(at 1.25 3.45)
		(size 0.25 0.85)
		(layers "F.Cu" "F.Mask" "F.Paste")
		(roundrect_rratio 0.25)
	)
	(pad "22" smd roundrect
		(at 1.75 3.45)
		(size 0.25 0.85)
		(layers "F.Cu" "F.Mask" "F.Paste")
		(roundrect_rratio 0.25)
	)
	(pad "23" smd roundrect
		(at 2.25 3.45)
		(size 0.25 0.85)
		(layers "F.Cu" "F.Mask" "F.Paste")
		(roundrect_rratio 0.25)
	)
	(pad "24" smd roundrect
		(at 2.75 3.45)
		(size 0.25 0.85)
		(layers "F.Cu" "F.Mask" "F.Paste")
		(roundrect_rratio 0.25)
	)
	(pad "25" smd roundrect
		(at 3.45 2.75)
		(size 0.85 0.25)
		(layers "F.Cu" "F.Mask" "F.Paste")
		(roundrect_rratio 0.25)
	)
	(pad "26" smd roundrect
		(at 3.45 2.25)
		(size 0.85 0.25)
		(layers "F.Cu" "F.Mask" "F.Paste")
		(roundrect_rratio 0.25)
	)
	(pad "27" smd roundrect
		(at 3.45 1.75)
		(size 0.85 0.25)
		(layers "F.Cu" "F.Mask" "F.Paste")
		(roundrect_rratio 0.25)
	)
	(pad "28" smd roundrect
		(at 3.45 1.25)
		(size 0.85 0.25)
		(layers "F.Cu" "F.Mask" "F.Paste")
		(roundrect_rratio 0.25)
	)
	(pad "29" smd roundrect
		(at 3.45 0.75)
		(size 0.85 0.25)
		(layers "F.Cu" "F.Mask" "F.Paste")
		(roundrect_rratio 0.25)
	)
	(pad "30" smd roundrect
		(at 3.45 0.25)
		(size 0.85 0.25)
		(layers "F.Cu" "F.Mask" "F.Paste")
		(roundrect_rratio 0.25)
	)
	(pad "31" smd roundrect
		(at 3.45 -0.25)
		(size 0.85 0.25)
		(layers "F.Cu" "F.Mask" "F.Paste")
		(roundrect_rratio 0.25)
	)
	(pad "32" smd roundrect
		(at 3.45 -0.75)
		(size 0.85 0.25)
		(layers "F.Cu" "F.Mask" "F.Paste")
		(roundrect_rratio 0.25)
	)
	(pad "33" smd roundrect
		(at 3.45 -1.25)
		(size 0.85 0.25)
		(layers "F.Cu" "F.Mask" "F.Paste")
		(roundrect_rratio 0.25)
	)
	(pad "34" smd roundrect
		(at 3.45 -1.75)
		(size 0.85 0.25)
		(layers "F.Cu" "F.Mask" "F.Paste")
		(roundrect_rratio 0.25)
	)
	(pad "35" smd roundrect
		(at 3.45 -2.25)
		(size 0.85 0.25)
		(layers "F.Cu" "F.Mask" "F.Paste")
		(roundrect_rratio 0.25)
	)
	(pad "36" smd roundrect
		(at 3.45 -2.75)
		(size 0.85 0.25)
		(layers "F.Cu" "F.Mask" "F.Paste")
		(roundrect_rratio 0.25)
	)
	(pad "37" smd roundrect
		(at 2.75 -3.45)
		(size 0.25 0.85)
		(layers "F.Cu" "F.Mask" "F.Paste")
		(roundrect_rratio 0.25)
	)
	(pad "38" smd roundrect
		(at 2.25 -3.45)
		(size 0.25 0.85)
		(layers "F.Cu" "F.Mask" "F.Paste")
		(roundrect_rratio 0.25)
	)
	(pad "39" smd roundrect
		(at 1.75 -3.45)
		(size 0.25 0.85)
		(layers "F.Cu" "F.Mask" "F.Paste")
		(roundrect_rratio 0.25)
	)
	(pad "40" smd roundrect
		(at 1.25 -3.45)
		(size 0.25 0.85)
		(layers "F.Cu" "F.Mask" "F.Paste")
		(roundrect_rratio 0.25)
	)
	(pad "41" smd roundrect
		(at 0.75 -3.45)
		(size 0.25 0.85)
		(layers "F.Cu" "F.Mask" "F.Paste")
		(roundrect_rratio 0.25)
	)
	(pad "42" smd roundrect
		(at 0.25 -3.45)
		(size 0.25 0.85)
		(layers "F.Cu" "F.Mask" "F.Paste")
		(roundrect_rratio 0.25)
	)
	(pad "43" smd roundrect
		(at -0.25 -3.45)
		(size 0.25 0.85)
		(layers "F.Cu" "F.Mask" "F.Paste")
		(roundrect_rratio 0.25)
	)
	(pad "44" smd roundrect
		(at -0.75 -3.45)
		(size 0.25 0.85)
		(layers "F.Cu" "F.Mask" "F.Paste")
		(roundrect_rratio 0.25)
	)
	(pad "45" smd roundrect
		(at -1.25 -3.45)
		(size 0.25 0.85)
		(layers "F.Cu" "F.Mask" "F.Paste")
		(roundrect_rratio 0.25)
	)
	(pad "46" smd roundrect
		(at -1.75 -3.45)
		(size 0.25 0.85)
		(layers "F.Cu" "F.Mask" "F.Paste")
		(roundrect_rratio 0.25)
	)
	(pad "47" smd roundrect
		(at -2.25 -3.45)
		(size 0.25 0.85)
		(layers "F.Cu" "F.Mask" "F.Paste")
		(roundrect_rratio 0.25)
	)
	(pad "48" smd roundrect
		(at -2.75 -3.45)
		(size 0.25 0.85)
		(layers "F.Cu" "F.Mask" "F.Paste")
		(roundrect_rratio 0.25)
	)
	(pad "49" thru_hole circle
		(at -2.475 -2.475)
		(size 0.5 0.5)
		(drill 0.2)
		(property pad_prop_heatsink)
		(layers "*.Cu")
		(remove_unused_layers no)
	)
	(pad "49" thru_hole circle
		(at -2.475 -1.2375)
		(size 0.5 0.5)
		(drill 0.2)
		(property pad_prop_heatsink)
		(layers "*.Cu")
		(remove_unused_layers no)
	)
	(pad "49" thru_hole circle
		(at -2.475 0)
		(size 0.5 0.5)
		(drill 0.2)
		(property pad_prop_heatsink)
		(layers "*.Cu")
		(remove_unused_layers no)
	)
	(pad "49" thru_hole circle
		(at -2.475 1.2375)
		(size 0.5 0.5)
		(drill 0.2)
		(property pad_prop_heatsink)
		(layers "*.Cu")
		(remove_unused_layers no)
	)
	(pad "49" thru_hole circle
		(at -2.475 2.475)
		(size 0.5 0.5)
		(drill 0.2)
		(property pad_prop_heatsink)
		(layers "*.Cu")
		(remove_unused_layers no)
	)
	(pad "49" thru_hole circle
		(at -1.2375 -2.475)
		(size 0.5 0.5)
		(drill 0.2)
		(property pad_prop_heatsink)
		(layers "*.Cu")
		(remove_unused_layers no)
	)
	(pad "49" thru_hole circle
		(at -1.2375 -1.2375)
		(size 0.5 0.5)
		(drill 0.2)
		(property pad_prop_heatsink)
		(layers "*.Cu")
		(remove_unused_layers no)
	)
	(pad "49" thru_hole circle
		(at -1.2375 0)
		(size 0.5 0.5)
		(drill 0.2)
		(property pad_prop_heatsink)
		(layers "*.Cu")
		(remove_unused_layers no)
	)
	(pad "49" thru_hole circle
		(at -1.2375 1.2375)
		(size 0.5 0.5)
		(drill 0.2)
		(property pad_prop_heatsink)
		(layers "*.Cu")
		(remove_unused_layers no)
	)
	(pad "49" thru_hole circle
		(at -1.2375 2.475)
		(size 0.5 0.5)
		(drill 0.2)
		(property pad_prop_heatsink)
		(layers "*.Cu")
		(remove_unused_layers no)
	)
	(pad "49" thru_hole circle
		(at 0 -2.475)
		(size 0.5 0.5)
		(drill 0.2)
		(property pad_prop_heatsink)
		(layers "*.Cu")
		(remove_unused_layers no)
	)
	(pad "49" thru_hole circle
		(at 0 -1.2375)
		(size 0.5 0.5)
		(drill 0.2)
		(property pad_prop_heatsink)
		(layers "*.Cu")
		(remove_unused_layers no)
	)
	(pad "49" thru_hole circle
		(at 0 0)
		(size 0.5 0.5)
		(drill 0.2)
		(property pad_prop_heatsink)
		(layers "*.Cu")
		(remove_unused_layers no)
	)
	(pad "49" smd rect
		(at 0 0)
		(size 5.45 5.45)
		(property pad_prop_heatsink)
		(layers "F.Cu" "F.Mask")
		(zone_connect 2)
	)
	(pad "49" smd rect
		(at 0 0)
		(size 5.45 5.45)
		(property pad_prop_heatsink)
		(layers "B.Cu")
		(zone_connect 2)
	)
	(pad "49" thru_hole circle
		(at 0 1.2375)
		(size 0.5 0.5)
		(drill 0.2)
		(property pad_prop_heatsink)
		(layers "*.Cu")
		(remove_unused_layers no)
	)
	(pad "49" thru_hole circle
		(at 0 2.475)
		(size 0.5 0.5)
		(drill 0.2)
		(property pad_prop_heatsink)
		(layers "*.Cu")
		(remove_unused_layers no)
	)
	(pad "49" thru_hole circle
		(at 1.2375 -2.475)
		(size 0.5 0.5)
		(drill 0.2)
		(property pad_prop_heatsink)
		(layers "*.Cu")
		(remove_unused_layers no)
	)
	(pad "49" thru_hole circle
		(at 1.2375 -1.2375)
		(size 0.5 0.5)
		(drill 0.2)
		(property pad_prop_heatsink)
		(layers "*.Cu")
		(remove_unused_layers no)
	)
	(pad "49" thru_hole circle
		(at 1.2375 0)
		(size 0.5 0.5)
		(drill 0.2)
		(property pad_prop_heatsink)
		(layers "*.Cu")
		(remove_unused_layers no)
	)
	(pad "49" thru_hole circle
		(at 1.2375 1.2375)
		(size 0.5 0.5)
		(drill 0.2)
		(property pad_prop_heatsink)
		(layers "*.Cu")
		(remove_unused_layers no)
	)
	(pad "49" thru_hole circle
		(at 1.2375 2.475)
		(size 0.5 0.5)
		(drill 0.2)
		(property pad_prop_heatsink)
		(layers "*.Cu")
		(remove_unused_layers no)
	)
	(pad "49" thru_hole circle
		(at 2.475 -2.475)
		(size 0.5 0.5)
		(drill 0.2)
		(property pad_prop_heatsink)
		(layers "*.Cu")
		(remove_unused_layers no)
	)
	(pad "49" thru_hole circle
		(at 2.475 -1.2375)
		(size 0.5 0.5)
		(drill 0.2)
		(property pad_prop_heatsink)
		(layers "*.Cu")
		(remove_unused_layers no)
	)
	(pad "49" thru_hole circle
		(at 2.475 0)
		(size 0.5 0.5)
		(drill 0.2)
		(property pad_prop_heatsink)
		(layers "*.Cu")
		(remove_unused_layers no)
	)
	(pad "49" thru_hole circle
		(at 2.475 1.2375)
		(size 0.5 0.5)
		(drill 0.2)
		(property pad_prop_heatsink)
		(layers "*.Cu")
		(remove_unused_layers no)
	)
	(pad "49" thru_hole circle
		(at 2.475 2.475)
		(size 0.5 0.5)
		(drill 0.2)
		(property pad_prop_heatsink)
		(layers "*.Cu")
		(remove_unused_layers no)
	)
	(embedded_fonts no)
	(model "${KICAD9_3DMODEL_DIR}/Package_DFN_QFN.3dshapes/QFN-48-1EP_7x7mm_P0.5mm_EP5.45x5.45mm.wrl"
		(offset
			(xyz 0 0 0)
		)
		(scale
			(xyz 1 1 1)
		)
		(rotate
			(xyz 0 0 0)
		)
	)
)
