(footprint "QFN-24-1EP_5x5mm_P0.65mm_EP3.2x3.2mm_ThermalVias"
	(version 20241229)
	(generator "kicad-footprint-generator")
	(layer "F.Cu")
	(descr "QFN, 24 Pin (https://www.analog.com/media/en/package-pcb-resources/package/pkg_pdf/ltc-legacy-qfn/(UH24)%20QFN%2005-08-1747%20Rev%20A.pdf), generated with kicad-footprint-generator ipc_noLead_generator.py")
	(tags "QFN NoLead")
	(property "Reference" "REF**"
		(at 0 -3.83 0)
		(layer "F.SilkS")
		(effects
			(font
				(size 1 1)
				(thickness 0.15)
			)
		)
	)
	(property "Value" "QFN-24-1EP_5x5mm_P0.65mm_EP3.2x3.2mm_ThermalVias"
		(at 0 3.83 0)
		(layer "F.Fab")
		(effects
			(font
				(size 1 1)
				(thickness 0.15)
			)
		)
	)
	(attr smd)
	(fp_line
		(start -2.61 -2.035)
		(end -2.61 -2.37)
		(stroke
			(width 0.12)
			(type solid)
		)
		(layer "F.SilkS")
	)
	(fp_line
		(start -2.61 2.61)
		(end -2.61 2.035)
		(stroke
			(width 0.12)
			(type solid)
		)
		(layer "F.SilkS")
	)
	(fp_line
		(start -2.035 -2.61)
		(end -2.31 -2.61)
		(stroke
			(width 0.12)
			(type solid)
		)
		(layer "F.SilkS")
	)
	(fp_line
		(start -2.035 2.61)
		(end -2.61 2.61)
		(stroke
			(width 0.12)
			(type solid)
		)
		(layer "F.SilkS")
	)
	(fp_line
		(start 2.035 -2.61)
		(end 2.61 -2.61)
		(stroke
			(width 0.12)
			(type solid)
		)
		(layer "F.SilkS")
	)
	(fp_line
		(start 2.035 2.61)
		(end 2.61 2.61)
		(stroke
			(width 0.12)
			(type solid)
		)
		(layer "F.SilkS")
	)
	(fp_line
		(start 2.61 -2.61)
		(end 2.61 -2.035)
		(stroke
			(width 0.12)
			(type solid)
		)
		(layer "F.SilkS")
	)
	(fp_line
		(start 2.61 2.61)
		(end 2.61 2.035)
		(stroke
			(width 0.12)
			(type solid)
		)
		(layer "F.SilkS")
	)
	(fp_poly
		(pts
			(xy -2.61 -2.61)
			(xy -2.85 -2.94)
			(xy -2.37 -2.94)
		)
		(stroke
			(width 0.12)
			(type solid)
		)
		(fill yes)
		(layer "F.SilkS")
	)
	(fp_rect
		(start -3.13 -3.13)
		(end 3.13 3.13)
		(stroke
			(width 0.05)
			(type solid)
		)
		(fill no)
		(layer "F.CrtYd")
	)
	(fp_poly
		(pts
			(xy -2.5 -1.5)
			(xy -2.5 2.5)
			(xy 2.5 2.5)
			(xy 2.5 -2.5)
			(xy -1.5 -2.5)
		)
		(stroke
			(width 0.1)
			(type solid)
		)
		(fill no)
		(layer "F.Fab")
	)
	(fp_text user "${REFERENCE}"
		(at 0 0 0)
		(layer "F.Fab")
		(effects
			(font
				(size 1 1)
				(thickness 0.15)
			)
		)
	)
	(pad "" smd custom
		(at -1.35 -1.35)
		(size 0.271622 0.271622)
		(layers "F.Paste")
		(options
			(clearance outline)
			(anchor circle)
		)
		(primitives
			(gr_poly
				(pts
					(xy -0.100778 -0.100778)
					(xy 0.100778 -0.100778)
					(xy 0.100778 -0.026143)
					(xy -0.026143 0.100778)
					(xy -0.100778 0.100778)
				)
				(width 0.201556)
				(fill yes)
			)
		)
	)
	(pad "" smd custom
		(at -1.35 -0.55)
		(size 0.312728 0.312728)
		(layers "F.Paste")
		(options
			(clearance outline)
			(anchor circle)
		)
		(primitives
			(gr_poly
				(pts
					(xy -0.111172 -0.353039)
					(xy 0.036295 -0.353039)
					(xy 0.111172 -0.278162)
					(xy 0.111172 0.278162)
					(xy 0.036295 0.353039)
					(xy -0.111172 0.353039)
				)
				(width 0.180769)
				(fill yes)
			)
		)
	)
	(pad "" smd custom
		(at -1.35 0.55)
		(size 0.312728 0.312728)
		(layers "F.Paste")
		(options
			(clearance outline)
			(anchor circle)
		)
		(primitives
			(gr_poly
				(pts
					(xy -0.111172 -0.353039)
					(xy 0.036295 -0.353039)
					(xy 0.111172 -0.278162)
					(xy 0.111172 0.278162)
					(xy 0.036295 0.353039)
					(xy -0.111172 0.353039)
				)
				(width 0.180769)
				(fill yes)
			)
		)
	)
	(pad "" smd custom
		(at -1.35 1.35)
		(size 0.271622 0.271622)
		(layers "F.Paste")
		(options
			(clearance outline)
			(anchor circle)
		)
		(primitives
			(gr_poly
				(pts
					(xy -0.100778 -0.100778)
					(xy -0.026143 -0.100778)
					(xy 0.100778 0.026143)
					(xy 0.100778 0.100778)
					(xy -0.100778 0.100778)
				)
				(width 0.201556)
				(fill yes)
			)
		)
	)
	(pad "" smd custom
		(at -0.55 -1.35)
		(size 0.312728 0.312728)
		(layers "F.Paste")
		(options
			(clearance outline)
			(anchor circle)
		)
		(primitives
			(gr_poly
				(pts
					(xy -0.353039 -0.111172)
					(xy 0.353039 -0.111172)
					(xy 0.353039 0.036295)
					(xy 0.278162 0.111172)
					(xy -0.278162 0.111172)
					(xy -0.353039 0.036295)
				)
				(width 0.180769)
				(fill yes)
			)
		)
	)
	(pad "" smd roundrect
		(at -0.55 -0.55)
		(size 0.886848 0.886848)
		(layers "F.Paste")
		(roundrect_rratio 0.25)
	)
	(pad "" smd roundrect
		(at -0.55 0.55)
		(size 0.886848 0.886848)
		(layers "F.Paste")
		(roundrect_rratio 0.25)
	)
	(pad "" smd custom
		(at -0.55 1.35)
		(size 0.312728 0.312728)
		(layers "F.Paste")
		(options
			(clearance outline)
			(anchor circle)
		)
		(primitives
			(gr_poly
				(pts
					(xy -0.353039 -0.036295)
					(xy -0.278162 -0.111172)
					(xy 0.278162 -0.111172)
					(xy 0.353039 -0.036295)
					(xy 0.353039 0.111172)
					(xy -0.353039 0.111172)
				)
				(width 0.180769)
				(fill yes)
			)
		)
	)
	(pad "" smd custom
		(at 0.55 -1.35)
		(size 0.312728 0.312728)
		(layers "F.Paste")
		(options
			(clearance outline)
			(anchor circle)
		)
		(primitives
			(gr_poly
				(pts
					(xy -0.353039 -0.111172)
					(xy 0.353039 -0.111172)
					(xy 0.353039 0.036295)
					(xy 0.278162 0.111172)
					(xy -0.278162 0.111172)
					(xy -0.353039 0.036295)
				)
				(width 0.180769)
				(fill yes)
			)
		)
	)
	(pad "" smd roundrect
		(at 0.55 -0.55)
		(size 0.886848 0.886848)
		(layers "F.Paste")
		(roundrect_rratio 0.25)
	)
	(pad "" smd roundrect
		(at 0.55 0.55)
		(size 0.886848 0.886848)
		(layers "F.Paste")
		(roundrect_rratio 0.25)
	)
	(pad "" smd custom
		(at 0.55 1.35)
		(size 0.312728 0.312728)
		(layers "F.Paste")
		(options
			(clearance outline)
			(anchor circle)
		)
		(primitives
			(gr_poly
				(pts
					(xy -0.353039 -0.036295)
					(xy -0.278162 -0.111172)
					(xy 0.278162 -0.111172)
					(xy 0.353039 -0.036295)
					(xy 0.353039 0.111172)
					(xy -0.353039 0.111172)
				)
				(width 0.180769)
				(fill yes)
			)
		)
	)
	(pad "" smd custom
		(at 1.35 -1.35)
		(size 0.271622 0.271622)
		(layers "F.Paste")
		(options
			(clearance outline)
			(anchor circle)
		)
		(primitives
			(gr_poly
				(pts
					(xy -0.100778 -0.100778)
					(xy 0.100778 -0.100778)
					(xy 0.100778 0.100778)
					(xy 0.026143 0.100778)
					(xy -0.100778 -0.026143)
				)
				(width 0.201556)
				(fill yes)
			)
		)
	)
	(pad "" smd custom
		(at 1.35 -0.55)
		(size 0.312728 0.312728)
		(layers "F.Paste")
		(options
			(clearance outline)
			(anchor circle)
		)
		(primitives
			(gr_poly
				(pts
					(xy -0.111172 -0.278162)
					(xy -0.036295 -0.353039)
					(xy 0.111172 -0.353039)
					(xy 0.111172 0.353039)
					(xy -0.036295 0.353039)
					(xy -0.111172 0.278162)
				)
				(width 0.180769)
				(fill yes)
			)
		)
	)
	(pad "" smd custom
		(at 1.35 0.55)
		(size 0.312728 0.312728)
		(layers "F.Paste")
		(options
			(clearance outline)
			(anchor circle)
		)
		(primitives
			(gr_poly
				(pts
					(xy -0.111172 -0.278162)
					(xy -0.036295 -0.353039)
					(xy 0.111172 -0.353039)
					(xy 0.111172 0.353039)
					(xy -0.036295 0.353039)
					(xy -0.111172 0.278162)
				)
				(width 0.180769)
				(fill yes)
			)
		)
	)
	(pad "" smd custom
		(at 1.35 1.35)
		(size 0.271622 0.271622)
		(layers "F.Paste")
		(options
			(clearance outline)
			(anchor circle)
		)
		(primitives
			(gr_poly
				(pts
					(xy -0.100778 0.026143)
					(xy 0.026143 -0.100778)
					(xy 0.100778 -0.100778)
					(xy 0.100778 0.100778)
					(xy -0.100778 0.100778)
				)
				(width 0.201556)
				(fill yes)
			)
		)
	)
	(pad "1" smd custom
		(at -2.3625 -1.625)
		(size 0.193934 0.193934)
		(layers "F.Cu" "F.Mask" "F.Paste")
		(options
			(clearance outline)
			(anchor circle)
		)
		(primitives
			(gr_poly
				(pts
					(xy -0.4375 -0.075)
					(xy 0.331434 -0.075)
					(xy 0.4375 0.031066)
					(xy 0.4375 0.075)
					(xy -0.4375 0.075)
				)
				(width 0.15)
				(fill yes)
			)
		)
	)
	(pad "2" smd roundrect
		(at -2.3625 -0.975)
		(size 1.025 0.3)
		(layers "F.Cu" "F.Mask" "F.Paste")
		(roundrect_rratio 0.25)
	)
	(pad "3" smd roundrect
		(at -2.3625 -0.325)
		(size 1.025 0.3)
		(layers "F.Cu" "F.Mask" "F.Paste")
		(roundrect_rratio 0.25)
	)
	(pad "4" smd roundrect
		(at -2.3625 0.325)
		(size 1.025 0.3)
		(layers "F.Cu" "F.Mask" "F.Paste")
		(roundrect_rratio 0.25)
	)
	(pad "5" smd roundrect
		(at -2.3625 0.975)
		(size 1.025 0.3)
		(layers "F.Cu" "F.Mask" "F.Paste")
		(roundrect_rratio 0.25)
	)
	(pad "6" smd custom
		(at -2.3625 1.625)
		(size 0.193934 0.193934)
		(layers "F.Cu" "F.Mask" "F.Paste")
		(options
			(clearance outline)
			(anchor circle)
		)
		(primitives
			(gr_poly
				(pts
					(xy -0.4375 -0.075)
					(xy 0.4375 -0.075)
					(xy 0.4375 -0.031066)
					(xy 0.331434 0.075)
					(xy -0.4375 0.075)
				)
				(width 0.15)
				(fill yes)
			)
		)
	)
	(pad "7" smd custom
		(at -1.625 2.3625)
		(size 0.193934 0.193934)
		(layers "F.Cu" "F.Mask" "F.Paste")
		(options
			(clearance outline)
			(anchor circle)
		)
		(primitives
			(gr_poly
				(pts
					(xy -0.075 -0.331434)
					(xy 0.031066 -0.4375)
					(xy 0.075 -0.4375)
					(xy 0.075 0.4375)
					(xy -0.075 0.4375)
				)
				(width 0.15)
				(fill yes)
			)
		)
	)
	(pad "8" smd roundrect
		(at -0.975 2.3625)
		(size 0.3 1.025)
		(layers "F.Cu" "F.Mask" "F.Paste")
		(roundrect_rratio 0.25)
	)
	(pad "9" smd roundrect
		(at -0.325 2.3625)
		(size 0.3 1.025)
		(layers "F.Cu" "F.Mask" "F.Paste")
		(roundrect_rratio 0.25)
	)
	(pad "10" smd roundrect
		(at 0.325 2.3625)
		(size 0.3 1.025)
		(layers "F.Cu" "F.Mask" "F.Paste")
		(roundrect_rratio 0.25)
	)
	(pad "11" smd roundrect
		(at 0.975 2.3625)
		(size 0.3 1.025)
		(layers "F.Cu" "F.Mask" "F.Paste")
		(roundrect_rratio 0.25)
	)
	(pad "12" smd custom
		(at 1.625 2.3625)
		(size 0.193934 0.193934)
		(layers "F.Cu" "F.Mask" "F.Paste")
		(options
			(clearance outline)
			(anchor circle)
		)
		(primitives
			(gr_poly
				(pts
					(xy -0.075 -0.4375)
					(xy -0.031066 -0.4375)
					(xy 0.075 -0.331434)
					(xy 0.075 0.4375)
					(xy -0.075 0.4375)
				)
				(width 0.15)
				(fill yes)
			)
		)
	)
	(pad "13" smd custom
		(at 2.3625 1.625)
		(size 0.193934 0.193934)
		(layers "F.Cu" "F.Mask" "F.Paste")
		(options
			(clearance outline)
			(anchor circle)
		)
		(primitives
			(gr_poly
				(pts
					(xy -0.4375 -0.075)
					(xy 0.4375 -0.075)
					(xy 0.4375 0.075)
					(xy -0.331434 0.075)
					(xy -0.4375 -0.031066)
				)
				(width 0.15)
				(fill yes)
			)
		)
	)
	(pad "14" smd roundrect
		(at 2.3625 0.975)
		(size 1.025 0.3)
		(layers "F.Cu" "F.Mask" "F.Paste")
		(roundrect_rratio 0.25)
	)
	(pad "15" smd roundrect
		(at 2.3625 0.325)
		(size 1.025 0.3)
		(layers "F.Cu" "F.Mask" "F.Paste")
		(roundrect_rratio 0.25)
	)
	(pad "16" smd roundrect
		(at 2.3625 -0.325)
		(size 1.025 0.3)
		(layers "F.Cu" "F.Mask" "F.Paste")
		(roundrect_rratio 0.25)
	)
	(pad "17" smd roundrect
		(at 2.3625 -0.975)
		(size 1.025 0.3)
		(layers "F.Cu" "F.Mask" "F.Paste")
		(roundrect_rratio 0.25)
	)
	(pad "18" smd custom
		(at 2.3625 -1.625)
		(size 0.193934 0.193934)
		(layers "F.Cu" "F.Mask" "F.Paste")
		(options
			(clearance outline)
			(anchor circle)
		)
		(primitives
			(gr_poly
				(pts
					(xy -0.4375 0.031066)
					(xy -0.331434 -0.075)
					(xy 0.4375 -0.075)
					(xy 0.4375 0.075)
					(xy -0.4375 0.075)
				)
				(width 0.15)
				(fill yes)
			)
		)
	)
	(pad "19" smd custom
		(at 1.625 -2.3625)
		(size 0.193934 0.193934)
		(layers "F.Cu" "F.Mask" "F.Paste")
		(options
			(clearance outline)
			(anchor circle)
		)
		(primitives
			(gr_poly
				(pts
					(xy -0.075 -0.4375)
					(xy 0.075 -0.4375)
					(xy 0.075 0.331434)
					(xy -0.031066 0.4375)
					(xy -0.075 0.4375)
				)
				(width 0.15)
				(fill yes)
			)
		)
	)
	(pad "20" smd roundrect
		(at 0.975 -2.3625)
		(size 0.3 1.025)
		(layers "F.Cu" "F.Mask" "F.Paste")
		(roundrect_rratio 0.25)
	)
	(pad "21" smd roundrect
		(at 0.325 -2.3625)
		(size 0.3 1.025)
		(layers "F.Cu" "F.Mask" "F.Paste")
		(roundrect_rratio 0.25)
	)
	(pad "22" smd roundrect
		(at -0.325 -2.3625)
		(size 0.3 1.025)
		(layers "F.Cu" "F.Mask" "F.Paste")
		(roundrect_rratio 0.25)
	)
	(pad "23" smd roundrect
		(at -0.975 -2.3625)
		(size 0.3 1.025)
		(layers "F.Cu" "F.Mask" "F.Paste")
		(roundrect_rratio 0.25)
	)
	(pad "24" smd custom
		(at -1.625 -2.3625)
		(size 0.193934 0.193934)
		(layers "F.Cu" "F.Mask" "F.Paste")
		(options
			(clearance outline)
			(anchor circle)
		)
		(primitives
			(gr_poly
				(pts
					(xy -0.075 -0.4375)
					(xy 0.075 -0.4375)
					(xy 0.075 0.4375)
					(xy 0.031066 0.4375)
					(xy -0.075 0.331434)
				)
				(width 0.15)
				(fill yes)
			)
		)
	)
	(pad "25" thru_hole circle
		(at -1.1 -1.1)
		(size 0.5 0.5)
		(drill 0.2)
		(property pad_prop_heatsink)
		(layers "*.Cu")
		(remove_unused_layers no)
	)
	(pad "25" thru_hole circle
		(at -1.1 0)
		(size 0.5 0.5)
		(drill 0.2)
		(property pad_prop_heatsink)
		(layers "*.Cu")
		(remove_unused_layers no)
	)
	(pad "25" thru_hole circle
		(at -1.1 1.1)
		(size 0.5 0.5)
		(drill 0.2)
		(property pad_prop_heatsink)
		(layers "*.Cu")
		(remove_unused_layers no)
	)
	(pad "25" thru_hole circle
		(at 0 -1.1)
		(size 0.5 0.5)
		(drill 0.2)
		(property pad_prop_heatsink)
		(layers "*.Cu")
		(remove_unused_layers no)
	)
	(pad "25" thru_hole circle
		(at 0 0)
		(size 0.5 0.5)
		(drill 0.2)
		(property pad_prop_heatsink)
		(layers "*.Cu")
		(remove_unused_layers no)
	)
	(pad "25" smd rect
		(at 0 0)
		(size 2.7 2.7)
		(property pad_prop_heatsink)
		(layers "B.Cu")
		(zone_connect 2)
	)
	(pad "25" smd rect
		(at 0 0)
		(size 3.2 3.2)
		(property pad_prop_heatsink)
		(layers "F.Cu" "F.Mask")
		(zone_connect 2)
	)
	(pad "25" thru_hole circle
		(at 0 1.1)
		(size 0.5 0.5)
		(drill 0.2)
		(property pad_prop_heatsink)
		(layers "*.Cu")
		(remove_unused_layers no)
	)
	(pad "25" thru_hole circle
		(at 1.1 -1.1)
		(size 0.5 0.5)
		(drill 0.2)
		(property pad_prop_heatsink)
		(layers "*.Cu")
		(remove_unused_layers no)
	)
	(pad "25" thru_hole circle
		(at 1.1 0)
		(size 0.5 0.5)
		(drill 0.2)
		(property pad_prop_heatsink)
		(layers "*.Cu")
		(remove_unused_layers no)
	)
	(pad "25" thru_hole circle
		(at 1.1 1.1)
		(size 0.5 0.5)
		(drill 0.2)
		(property pad_prop_heatsink)
		(layers "*.Cu")
		(remove_unused_layers no)
	)
	(embedded_fonts no)
	(model "${KICAD9_3DMODEL_DIR}/Package_DFN_QFN.3dshapes/QFN-24-1EP_5x5mm_P0.65mm_EP3.2x3.2mm.wrl"
		(offset
			(xyz 0 0 0)
		)
		(scale
			(xyz 1 1 1)
		)
		(rotate
			(xyz 0 0 0)
		)
	)
)
