(footprint "QFN-28-1EP_5x6mm_P0.5mm_EP3.65x4.65mm_ThermalVias"
	(version 20241229)
	(generator "kicad-footprint-generator")
	(layer "F.Cu")
	(descr "QFN, 28 Pin (http://www.analog.com/media/en/package-pcb-resources/package/pkg_pdf/ltc-legacy-qfn/05081932_0_UHE28.pdf), generated with kicad-footprint-generator ipc_noLead_generator.py")
	(tags "QFN NoLead")
	(property "Reference" "REF**"
		(at 0 -4.33 0)
		(layer "F.SilkS")
		(effects
			(font
				(size 1 1)
				(thickness 0.15)
			)
		)
	)
	(property "Value" "QFN-28-1EP_5x6mm_P0.5mm_EP3.65x4.65mm_ThermalVias"
		(at 0 4.33 0)
		(layer "F.Fab")
		(effects
			(font
				(size 1 1)
				(thickness 0.15)
			)
		)
	)
	(attr smd)
	(fp_line
		(start -2.61 -2.135)
		(end -2.61 -2.87)
		(stroke
			(width 0.12)
			(type solid)
		)
		(layer "F.SilkS")
	)
	(fp_line
		(start -2.61 3.11)
		(end -2.61 2.135)
		(stroke
			(width 0.12)
			(type solid)
		)
		(layer "F.SilkS")
	)
	(fp_line
		(start -1.635 -3.11)
		(end -2.31 -3.11)
		(stroke
			(width 0.12)
			(type solid)
		)
		(layer "F.SilkS")
	)
	(fp_line
		(start -1.635 3.11)
		(end -2.61 3.11)
		(stroke
			(width 0.12)
			(type solid)
		)
		(layer "F.SilkS")
	)
	(fp_line
		(start 1.635 -3.11)
		(end 2.61 -3.11)
		(stroke
			(width 0.12)
			(type solid)
		)
		(layer "F.SilkS")
	)
	(fp_line
		(start 1.635 3.11)
		(end 2.61 3.11)
		(stroke
			(width 0.12)
			(type solid)
		)
		(layer "F.SilkS")
	)
	(fp_line
		(start 2.61 -3.11)
		(end 2.61 -2.135)
		(stroke
			(width 0.12)
			(type solid)
		)
		(layer "F.SilkS")
	)
	(fp_line
		(start 2.61 3.11)
		(end 2.61 2.135)
		(stroke
			(width 0.12)
			(type solid)
		)
		(layer "F.SilkS")
	)
	(fp_poly
		(pts
			(xy -2.61 -3.11)
			(xy -2.85 -3.44)
			(xy -2.37 -3.44)
		)
		(stroke
			(width 0.12)
			(type solid)
		)
		(fill yes)
		(layer "F.SilkS")
	)
	(fp_rect
		(start -3.13 -3.63)
		(end 3.13 3.63)
		(stroke
			(width 0.05)
			(type solid)
		)
		(fill no)
		(layer "F.CrtYd")
	)
	(fp_poly
		(pts
			(xy -2.5 -2)
			(xy -2.5 3)
			(xy 2.5 3)
			(xy 2.5 -3)
			(xy -1.5 -3)
		)
		(stroke
			(width 0.1)
			(type solid)
		)
		(fill no)
		(layer "F.Fab")
	)
	(fp_text user "${REFERENCE}"
		(at 0 0 0)
		(layer "F.Fab")
		(effects
			(font
				(size 1 1)
				(thickness 0.15)
			)
		)
	)
	(pad "" smd custom
		(at -1.4125 -1.9125)
		(size 0.578177 0.578177)
		(layers "F.Paste")
		(options
			(clearance outline)
			(anchor circle)
		)
		(primitives
			(gr_poly
				(pts
					(xy -0.245609 -0.245609)
					(xy 0.245609 -0.245609)
					(xy 0.245609 0.173569)
					(xy 0.173569 0.245609)
					(xy -0.245609 0.245609)
				)
				(width 0.173919)
				(fill yes)
			)
		)
	)
	(pad "" smd custom
		(at -1.4125 -1)
		(size 0.590166 0.590166)
		(layers "F.Paste")
		(options
			(clearance outline)
			(anchor circle)
		)
		(primitives
			(gr_poly
				(pts
					(xy -0.257598 -0.328143)
					(xy 0.195491 -0.328143)
					(xy 0.257598 -0.266036)
					(xy 0.257598 0.266036)
					(xy 0.195491 0.328143)
					(xy -0.257598 0.328143)
				)
				(width 0.14994)
				(fill yes)
			)
		)
	)
	(pad "" smd custom
		(at -1.4125 0)
		(size 0.590166 0.590166)
		(layers "F.Paste")
		(options
			(clearance outline)
			(anchor circle)
		)
		(primitives
			(gr_poly
				(pts
					(xy -0.257598 -0.328143)
					(xy 0.195491 -0.328143)
					(xy 0.257598 -0.266036)
					(xy 0.257598 0.266036)
					(xy 0.195491 0.328143)
					(xy -0.257598 0.328143)
				)
				(width 0.14994)
				(fill yes)
			)
		)
	)
	(pad "" smd custom
		(at -1.4125 1)
		(size 0.590166 0.590166)
		(layers "F.Paste")
		(options
			(clearance outline)
			(anchor circle)
		)
		(primitives
			(gr_poly
				(pts
					(xy -0.257598 -0.328143)
					(xy 0.195491 -0.328143)
					(xy 0.257598 -0.266036)
					(xy 0.257598 0.266036)
					(xy 0.195491 0.328143)
					(xy -0.257598 0.328143)
				)
				(width 0.14994)
				(fill yes)
			)
		)
	)
	(pad "" smd custom
		(at -1.4125 1.9125)
		(size 0.578177 0.578177)
		(layers "F.Paste")
		(options
			(clearance outline)
			(anchor circle)
		)
		(primitives
			(gr_poly
				(pts
					(xy -0.245609 -0.245609)
					(xy 0.173569 -0.245609)
					(xy 0.245609 -0.173569)
					(xy 0.245609 0.245609)
					(xy -0.245609 0.245609)
				)
				(width 0.173919)
				(fill yes)
			)
		)
	)
	(pad "" smd custom
		(at -0.5 -1.9125)
		(size 0.590166 0.590166)
		(layers "F.Paste")
		(options
			(clearance outline)
			(anchor circle)
		)
		(primitives
			(gr_poly
				(pts
					(xy -0.328143 -0.257598)
					(xy 0.328143 -0.257598)
					(xy 0.328143 0.195491)
					(xy 0.266036 0.257598)
					(xy -0.266036 0.257598)
					(xy -0.328143 0.195491)
				)
				(width 0.14994)
				(fill yes)
			)
		)
	)
	(pad "" smd roundrect
		(at -0.5 -1)
		(size 0.806226 0.806226)
		(layers "F.Paste")
		(roundrect_rratio 0.25)
	)
	(pad "" smd roundrect
		(at -0.5 0)
		(size 0.806226 0.806226)
		(layers "F.Paste")
		(roundrect_rratio 0.25)
	)
	(pad "" smd roundrect
		(at -0.5 1)
		(size 0.806226 0.806226)
		(layers "F.Paste")
		(roundrect_rratio 0.25)
	)
	(pad "" smd custom
		(at -0.5 1.9125)
		(size 0.590166 0.590166)
		(layers "F.Paste")
		(options
			(clearance outline)
			(anchor circle)
		)
		(primitives
			(gr_poly
				(pts
					(xy -0.328143 -0.195491)
					(xy -0.266036 -0.257598)
					(xy 0.266036 -0.257598)
					(xy 0.328143 -0.195491)
					(xy 0.328143 0.257598)
					(xy -0.328143 0.257598)
				)
				(width 0.14994)
				(fill yes)
			)
		)
	)
	(pad "" smd custom
		(at 0.5 -1.9125)
		(size 0.590166 0.590166)
		(layers "F.Paste")
		(options
			(clearance outline)
			(anchor circle)
		)
		(primitives
			(gr_poly
				(pts
					(xy -0.328143 -0.257598)
					(xy 0.328143 -0.257598)
					(xy 0.328143 0.195491)
					(xy 0.266036 0.257598)
					(xy -0.266036 0.257598)
					(xy -0.328143 0.195491)
				)
				(width 0.14994)
				(fill yes)
			)
		)
	)
	(pad "" smd roundrect
		(at 0.5 -1)
		(size 0.806226 0.806226)
		(layers "F.Paste")
		(roundrect_rratio 0.25)
	)
	(pad "" smd roundrect
		(at 0.5 0)
		(size 0.806226 0.806226)
		(layers "F.Paste")
		(roundrect_rratio 0.25)
	)
	(pad "" smd roundrect
		(at 0.5 1)
		(size 0.806226 0.806226)
		(layers "F.Paste")
		(roundrect_rratio 0.25)
	)
	(pad "" smd custom
		(at 0.5 1.9125)
		(size 0.590166 0.590166)
		(layers "F.Paste")
		(options
			(clearance outline)
			(anchor circle)
		)
		(primitives
			(gr_poly
				(pts
					(xy -0.328143 -0.195491)
					(xy -0.266036 -0.257598)
					(xy 0.266036 -0.257598)
					(xy 0.328143 -0.195491)
					(xy 0.328143 0.257598)
					(xy -0.328143 0.257598)
				)
				(width 0.14994)
				(fill yes)
			)
		)
	)
	(pad "" smd custom
		(at 1.4125 -1.9125)
		(size 0.578177 0.578177)
		(layers "F.Paste")
		(options
			(clearance outline)
			(anchor circle)
		)
		(primitives
			(gr_poly
				(pts
					(xy -0.245609 -0.245609)
					(xy 0.245609 -0.245609)
					(xy 0.245609 0.245609)
					(xy -0.173569 0.245609)
					(xy -0.245609 0.173569)
				)
				(width 0.173919)
				(fill yes)
			)
		)
	)
	(pad "" smd custom
		(at 1.4125 -1)
		(size 0.590166 0.590166)
		(layers "F.Paste")
		(options
			(clearance outline)
			(anchor circle)
		)
		(primitives
			(gr_poly
				(pts
					(xy -0.257598 -0.266036)
					(xy -0.195491 -0.328143)
					(xy 0.257598 -0.328143)
					(xy 0.257598 0.328143)
					(xy -0.195491 0.328143)
					(xy -0.257598 0.266036)
				)
				(width 0.14994)
				(fill yes)
			)
		)
	)
	(pad "" smd custom
		(at 1.4125 0)
		(size 0.590166 0.590166)
		(layers "F.Paste")
		(options
			(clearance outline)
			(anchor circle)
		)
		(primitives
			(gr_poly
				(pts
					(xy -0.257598 -0.266036)
					(xy -0.195491 -0.328143)
					(xy 0.257598 -0.328143)
					(xy 0.257598 0.328143)
					(xy -0.195491 0.328143)
					(xy -0.257598 0.266036)
				)
				(width 0.14994)
				(fill yes)
			)
		)
	)
	(pad "" smd custom
		(at 1.4125 1)
		(size 0.590166 0.590166)
		(layers "F.Paste")
		(options
			(clearance outline)
			(anchor circle)
		)
		(primitives
			(gr_poly
				(pts
					(xy -0.257598 -0.266036)
					(xy -0.195491 -0.328143)
					(xy 0.257598 -0.328143)
					(xy 0.257598 0.328143)
					(xy -0.195491 0.328143)
					(xy -0.257598 0.266036)
				)
				(width 0.14994)
				(fill yes)
			)
		)
	)
	(pad "" smd custom
		(at 1.4125 1.9125)
		(size 0.578177 0.578177)
		(layers "F.Paste")
		(options
			(clearance outline)
			(anchor circle)
		)
		(primitives
			(gr_poly
				(pts
					(xy -0.245609 -0.173569)
					(xy -0.173569 -0.245609)
					(xy 0.245609 -0.245609)
					(xy 0.245609 0.245609)
					(xy -0.245609 0.245609)
				)
				(width 0.173919)
				(fill yes)
			)
		)
	)
	(pad "1" smd roundrect
		(at -2.45 -1.75)
		(size 0.85 0.25)
		(layers "F.Cu" "F.Mask" "F.Paste")
		(roundrect_rratio 0.25)
	)
	(pad "2" smd roundrect
		(at -2.45 -1.25)
		(size 0.85 0.25)
		(layers "F.Cu" "F.Mask" "F.Paste")
		(roundrect_rratio 0.25)
	)
	(pad "3" smd roundrect
		(at -2.45 -0.75)
		(size 0.85 0.25)
		(layers "F.Cu" "F.Mask" "F.Paste")
		(roundrect_rratio 0.25)
	)
	(pad "4" smd roundrect
		(at -2.45 -0.25)
		(size 0.85 0.25)
		(layers "F.Cu" "F.Mask" "F.Paste")
		(roundrect_rratio 0.25)
	)
	(pad "5" smd roundrect
		(at -2.45 0.25)
		(size 0.85 0.25)
		(layers "F.Cu" "F.Mask" "F.Paste")
		(roundrect_rratio 0.25)
	)
	(pad "6" smd roundrect
		(at -2.45 0.75)
		(size 0.85 0.25)
		(layers "F.Cu" "F.Mask" "F.Paste")
		(roundrect_rratio 0.25)
	)
	(pad "7" smd roundrect
		(at -2.45 1.25)
		(size 0.85 0.25)
		(layers "F.Cu" "F.Mask" "F.Paste")
		(roundrect_rratio 0.25)
	)
	(pad "8" smd roundrect
		(at -2.45 1.75)
		(size 0.85 0.25)
		(layers "F.Cu" "F.Mask" "F.Paste")
		(roundrect_rratio 0.25)
	)
	(pad "9" smd roundrect
		(at -1.25 2.95)
		(size 0.25 0.85)
		(layers "F.Cu" "F.Mask" "F.Paste")
		(roundrect_rratio 0.25)
	)
	(pad "10" smd roundrect
		(at -0.75 2.95)
		(size 0.25 0.85)
		(layers "F.Cu" "F.Mask" "F.Paste")
		(roundrect_rratio 0.25)
	)
	(pad "11" smd roundrect
		(at -0.25 2.95)
		(size 0.25 0.85)
		(layers "F.Cu" "F.Mask" "F.Paste")
		(roundrect_rratio 0.25)
	)
	(pad "12" smd roundrect
		(at 0.25 2.95)
		(size 0.25 0.85)
		(layers "F.Cu" "F.Mask" "F.Paste")
		(roundrect_rratio 0.25)
	)
	(pad "13" smd roundrect
		(at 0.75 2.95)
		(size 0.25 0.85)
		(layers "F.Cu" "F.Mask" "F.Paste")
		(roundrect_rratio 0.25)
	)
	(pad "14" smd roundrect
		(at 1.25 2.95)
		(size 0.25 0.85)
		(layers "F.Cu" "F.Mask" "F.Paste")
		(roundrect_rratio 0.25)
	)
	(pad "15" smd roundrect
		(at 2.45 1.75)
		(size 0.85 0.25)
		(layers "F.Cu" "F.Mask" "F.Paste")
		(roundrect_rratio 0.25)
	)
	(pad "16" smd roundrect
		(at 2.45 1.25)
		(size 0.85 0.25)
		(layers "F.Cu" "F.Mask" "F.Paste")
		(roundrect_rratio 0.25)
	)
	(pad "17" smd roundrect
		(at 2.45 0.75)
		(size 0.85 0.25)
		(layers "F.Cu" "F.Mask" "F.Paste")
		(roundrect_rratio 0.25)
	)
	(pad "18" smd roundrect
		(at 2.45 0.25)
		(size 0.85 0.25)
		(layers "F.Cu" "F.Mask" "F.Paste")
		(roundrect_rratio 0.25)
	)
	(pad "19" smd roundrect
		(at 2.45 -0.25)
		(size 0.85 0.25)
		(layers "F.Cu" "F.Mask" "F.Paste")
		(roundrect_rratio 0.25)
	)
	(pad "20" smd roundrect
		(at 2.45 -0.75)
		(size 0.85 0.25)
		(layers "F.Cu" "F.Mask" "F.Paste")
		(roundrect_rratio 0.25)
	)
	(pad "21" smd roundrect
		(at 2.45 -1.25)
		(size 0.85 0.25)
		(layers "F.Cu" "F.Mask" "F.Paste")
		(roundrect_rratio 0.25)
	)
	(pad "22" smd roundrect
		(at 2.45 -1.75)
		(size 0.85 0.25)
		(layers "F.Cu" "F.Mask" "F.Paste")
		(roundrect_rratio 0.25)
	)
	(pad "23" smd roundrect
		(at 1.25 -2.95)
		(size 0.25 0.85)
		(layers "F.Cu" "F.Mask" "F.Paste")
		(roundrect_rratio 0.25)
	)
	(pad "24" smd roundrect
		(at 0.75 -2.95)
		(size 0.25 0.85)
		(layers "F.Cu" "F.Mask" "F.Paste")
		(roundrect_rratio 0.25)
	)
	(pad "25" smd roundrect
		(at 0.25 -2.95)
		(size 0.25 0.85)
		(layers "F.Cu" "F.Mask" "F.Paste")
		(roundrect_rratio 0.25)
	)
	(pad "26" smd roundrect
		(at -0.25 -2.95)
		(size 0.25 0.85)
		(layers "F.Cu" "F.Mask" "F.Paste")
		(roundrect_rratio 0.25)
	)
	(pad "27" smd roundrect
		(at -0.75 -2.95)
		(size 0.25 0.85)
		(layers "F.Cu" "F.Mask" "F.Paste")
		(roundrect_rratio 0.25)
	)
	(pad "28" smd roundrect
		(at -1.25 -2.95)
		(size 0.25 0.85)
		(layers "F.Cu" "F.Mask" "F.Paste")
		(roundrect_rratio 0.25)
	)
	(pad "29" thru_hole circle
		(at -1 -1.5)
		(size 0.5 0.5)
		(drill 0.2)
		(property pad_prop_heatsink)
		(layers "*.Cu")
		(remove_unused_layers no)
	)
	(pad "29" thru_hole circle
		(at -1 -0.5)
		(size 0.5 0.5)
		(drill 0.2)
		(property pad_prop_heatsink)
		(layers "*.Cu")
		(remove_unused_layers no)
	)
	(pad "29" thru_hole circle
		(at -1 0.5)
		(size 0.5 0.5)
		(drill 0.2)
		(property pad_prop_heatsink)
		(layers "*.Cu")
		(remove_unused_layers no)
	)
	(pad "29" thru_hole circle
		(at -1 1.5)
		(size 0.5 0.5)
		(drill 0.2)
		(property pad_prop_heatsink)
		(layers "*.Cu")
		(remove_unused_layers no)
	)
	(pad "29" thru_hole circle
		(at 0 -1.5)
		(size 0.5 0.5)
		(drill 0.2)
		(property pad_prop_heatsink)
		(layers "*.Cu")
		(remove_unused_layers no)
	)
	(pad "29" thru_hole circle
		(at 0 -0.5)
		(size 0.5 0.5)
		(drill 0.2)
		(property pad_prop_heatsink)
		(layers "*.Cu")
		(remove_unused_layers no)
	)
	(pad "29" smd rect
		(at 0 0)
		(size 2.5 3.5)
		(property pad_prop_heatsink)
		(layers "B.Cu")
		(zone_connect 2)
	)
	(pad "29" smd rect
		(at 0 0)
		(size 3.65 4.65)
		(property pad_prop_heatsink)
		(layers "F.Cu" "F.Mask")
		(zone_connect 2)
	)
	(pad "29" thru_hole circle
		(at 0 0.5)
		(size 0.5 0.5)
		(drill 0.2)
		(property pad_prop_heatsink)
		(layers "*.Cu")
		(remove_unused_layers no)
	)
	(pad "29" thru_hole circle
		(at 0 1.5)
		(size 0.5 0.5)
		(drill 0.2)
		(property pad_prop_heatsink)
		(layers "*.Cu")
		(remove_unused_layers no)
	)
	(pad "29" thru_hole circle
		(at 1 -1.5)
		(size 0.5 0.5)
		(drill 0.2)
		(property pad_prop_heatsink)
		(layers "*.Cu")
		(remove_unused_layers no)
	)
	(pad "29" thru_hole circle
		(at 1 -0.5)
		(size 0.5 0.5)
		(drill 0.2)
		(property pad_prop_heatsink)
		(layers "*.Cu")
		(remove_unused_layers no)
	)
	(pad "29" thru_hole circle
		(at 1 0.5)
		(size 0.5 0.5)
		(drill 0.2)
		(property pad_prop_heatsink)
		(layers "*.Cu")
		(remove_unused_layers no)
	)
	(pad "29" thru_hole circle
		(at 1 1.5)
		(size 0.5 0.5)
		(drill 0.2)
		(property pad_prop_heatsink)
		(layers "*.Cu")
		(remove_unused_layers no)
	)
	(embedded_fonts no)
	(model "${KICAD9_3DMODEL_DIR}/Package_DFN_QFN.3dshapes/QFN-28-1EP_5x6mm_P0.5mm_EP3.65x4.65mm.wrl"
		(offset
			(xyz 0 0 0)
		)
		(scale
			(xyz 1 1 1)
		)
		(rotate
			(xyz 0 0 0)
		)
	)
)
