(footprint "QFN-80-1EP_10x10mm_P0.4mm_EP3.4x3.4mm_ThermalVias"
	(version 20241229)
	(generator "kicad-footprint-generator")
	(layer "F.Cu")
	(descr "QFN, 80 Pin (https://datasheets.raspberrypi.com/rp2350/rp2350-datasheet.pdf), generated with kicad-footprint-generator ipc_noLead_generator.py")
	(tags "QFN NoLead")
	(property "Reference" "REF**"
		(at 0 -6.3 0)
		(layer "F.SilkS")
		(effects
			(font
				(size 1 1)
				(thickness 0.15)
			)
		)
	)
	(property "Value" "QFN-80-1EP_10x10mm_P0.4mm_EP3.4x3.4mm_ThermalVias"
		(at 0 6.3 0)
		(layer "F.Fab")
		(effects
			(font
				(size 1 1)
				(thickness 0.15)
			)
		)
	)
	(attr smd)
	(fp_line
		(start -5.11 -4.16)
		(end -5.11 -4.87)
		(stroke
			(width 0.12)
			(type solid)
		)
		(layer "F.SilkS")
	)
	(fp_line
		(start -5.11 5.11)
		(end -5.11 4.16)
		(stroke
			(width 0.12)
			(type solid)
		)
		(layer "F.SilkS")
	)
	(fp_line
		(start -4.16 -5.11)
		(end -4.81 -5.11)
		(stroke
			(width 0.12)
			(type solid)
		)
		(layer "F.SilkS")
	)
	(fp_line
		(start -4.16 5.11)
		(end -5.11 5.11)
		(stroke
			(width 0.12)
			(type solid)
		)
		(layer "F.SilkS")
	)
	(fp_line
		(start 4.16 -5.11)
		(end 5.11 -5.11)
		(stroke
			(width 0.12)
			(type solid)
		)
		(layer "F.SilkS")
	)
	(fp_line
		(start 4.16 5.11)
		(end 5.11 5.11)
		(stroke
			(width 0.12)
			(type solid)
		)
		(layer "F.SilkS")
	)
	(fp_line
		(start 5.11 -5.11)
		(end 5.11 -4.16)
		(stroke
			(width 0.12)
			(type solid)
		)
		(layer "F.SilkS")
	)
	(fp_line
		(start 5.11 5.11)
		(end 5.11 4.16)
		(stroke
			(width 0.12)
			(type solid)
		)
		(layer "F.SilkS")
	)
	(fp_poly
		(pts
			(xy -5.11 -5.11)
			(xy -5.35 -5.44)
			(xy -4.87 -5.44)
		)
		(stroke
			(width 0.12)
			(type solid)
		)
		(fill yes)
		(layer "F.SilkS")
	)
	(fp_rect
		(start -5.6 -5.6)
		(end 5.6 5.6)
		(stroke
			(width 0.05)
			(type solid)
		)
		(fill no)
		(layer "F.CrtYd")
	)
	(fp_poly
		(pts
			(xy -5 -4)
			(xy -5 5)
			(xy 5 5)
			(xy 5 -5)
			(xy -4 -5)
		)
		(stroke
			(width 0.1)
			(type solid)
		)
		(fill no)
		(layer "F.Fab")
	)
	(fp_text user "${REFERENCE}"
		(at 0 0 0)
		(layer "F.Fab")
		(effects
			(font
				(size 1 1)
				(thickness 0.15)
			)
		)
	)
	(pad "" smd custom
		(at -1.0875 -1.0875)
		(size 0.505495 0.505495)
		(layers "F.Paste")
		(options
			(clearance outline)
			(anchor circle)
		)
		(primitives
			(gr_poly
				(pts
					(xy -0.176292 -0.049616)
					(xy -0.049616 -0.176292)
					(xy 0.176292 -0.176292)
					(xy 0.176292 0.176292)
					(xy -0.176292 0.176292)
				)
				(width 0.305824)
				(fill yes)
			)
		)
	)
	(pad "" smd custom
		(at -1.0875 -0.3625)
		(size 0.505495 0.505495)
		(layers "F.Paste")
		(options
			(clearance outline)
			(anchor circle)
		)
		(primitives
			(gr_poly
				(pts
					(xy -0.176292 -0.176292)
					(xy 0.176292 -0.176292)
					(xy 0.176292 0.176292)
					(xy -0.049616 0.176292)
					(xy -0.176292 0.049616)
				)
				(width 0.305824)
				(fill yes)
			)
		)
	)
	(pad "" smd custom
		(at -1.0875 0.3625)
		(size 0.505495 0.505495)
		(layers "F.Paste")
		(options
			(clearance outline)
			(anchor circle)
		)
		(primitives
			(gr_poly
				(pts
					(xy -0.176292 -0.049616)
					(xy -0.049616 -0.176292)
					(xy 0.176292 -0.176292)
					(xy 0.176292 0.176292)
					(xy -0.176292 0.176292)
				)
				(width 0.305824)
				(fill yes)
			)
		)
	)
	(pad "" smd custom
		(at -1.0875 1.0875)
		(size 0.505495 0.505495)
		(layers "F.Paste")
		(options
			(clearance outline)
			(anchor circle)
		)
		(primitives
			(gr_poly
				(pts
					(xy -0.176292 -0.176292)
					(xy 0.176292 -0.176292)
					(xy 0.176292 0.176292)
					(xy -0.049616 0.176292)
					(xy -0.176292 0.049616)
				)
				(width 0.305824)
				(fill yes)
			)
		)
	)
	(pad "" smd custom
		(at -0.3625 -1.0875)
		(size 0.505495 0.505495)
		(layers "F.Paste")
		(options
			(clearance outline)
			(anchor circle)
		)
		(primitives
			(gr_poly
				(pts
					(xy -0.176292 -0.176292)
					(xy 0.049616 -0.176292)
					(xy 0.176292 -0.049616)
					(xy 0.176292 0.176292)
					(xy -0.176292 0.176292)
				)
				(width 0.305824)
				(fill yes)
			)
		)
	)
	(pad "" smd custom
		(at -0.3625 -0.3625)
		(size 0.505495 0.505495)
		(layers "F.Paste")
		(options
			(clearance outline)
			(anchor circle)
		)
		(primitives
			(gr_poly
				(pts
					(xy -0.176292 -0.176292)
					(xy 0.176292 -0.176292)
					(xy 0.176292 0.049616)
					(xy 0.049616 0.176292)
					(xy -0.176292 0.176292)
				)
				(width 0.305824)
				(fill yes)
			)
		)
	)
	(pad "" smd custom
		(at -0.3625 0.3625)
		(size 0.505495 0.505495)
		(layers "F.Paste")
		(options
			(clearance outline)
			(anchor circle)
		)
		(primitives
			(gr_poly
				(pts
					(xy -0.176292 -0.176292)
					(xy 0.049616 -0.176292)
					(xy 0.176292 -0.049616)
					(xy 0.176292 0.176292)
					(xy -0.176292 0.176292)
				)
				(width 0.305824)
				(fill yes)
			)
		)
	)
	(pad "" smd custom
		(at -0.3625 1.0875)
		(size 0.505495 0.505495)
		(layers "F.Paste")
		(options
			(clearance outline)
			(anchor circle)
		)
		(primitives
			(gr_poly
				(pts
					(xy -0.176292 -0.176292)
					(xy 0.176292 -0.176292)
					(xy 0.176292 0.049616)
					(xy 0.049616 0.176292)
					(xy -0.176292 0.176292)
				)
				(width 0.305824)
				(fill yes)
			)
		)
	)
	(pad "" smd custom
		(at 0.3625 -1.0875)
		(size 0.505495 0.505495)
		(layers "F.Paste")
		(options
			(clearance outline)
			(anchor circle)
		)
		(primitives
			(gr_poly
				(pts
					(xy -0.176292 -0.049616)
					(xy -0.049616 -0.176292)
					(xy 0.176292 -0.176292)
					(xy 0.176292 0.176292)
					(xy -0.176292 0.176292)
				)
				(width 0.305824)
				(fill yes)
			)
		)
	)
	(pad "" smd custom
		(at 0.3625 -0.3625)
		(size 0.505495 0.505495)
		(layers "F.Paste")
		(options
			(clearance outline)
			(anchor circle)
		)
		(primitives
			(gr_poly
				(pts
					(xy -0.176292 -0.176292)
					(xy 0.176292 -0.176292)
					(xy 0.176292 0.176292)
					(xy -0.049616 0.176292)
					(xy -0.176292 0.049616)
				)
				(width 0.305824)
				(fill yes)
			)
		)
	)
	(pad "" smd custom
		(at 0.3625 0.3625)
		(size 0.505495 0.505495)
		(layers "F.Paste")
		(options
			(clearance outline)
			(anchor circle)
		)
		(primitives
			(gr_poly
				(pts
					(xy -0.176292 -0.049616)
					(xy -0.049616 -0.176292)
					(xy 0.176292 -0.176292)
					(xy 0.176292 0.176292)
					(xy -0.176292 0.176292)
				)
				(width 0.305824)
				(fill yes)
			)
		)
	)
	(pad "" smd custom
		(at 0.3625 1.0875)
		(size 0.505495 0.505495)
		(layers "F.Paste")
		(options
			(clearance outline)
			(anchor circle)
		)
		(primitives
			(gr_poly
				(pts
					(xy -0.176292 -0.176292)
					(xy 0.176292 -0.176292)
					(xy 0.176292 0.176292)
					(xy -0.049616 0.176292)
					(xy -0.176292 0.049616)
				)
				(width 0.305824)
				(fill yes)
			)
		)
	)
	(pad "" smd custom
		(at 1.0875 -1.0875)
		(size 0.505495 0.505495)
		(layers "F.Paste")
		(options
			(clearance outline)
			(anchor circle)
		)
		(primitives
			(gr_poly
				(pts
					(xy -0.176292 -0.176292)
					(xy 0.049616 -0.176292)
					(xy 0.176292 -0.049616)
					(xy 0.176292 0.176292)
					(xy -0.176292 0.176292)
				)
				(width 0.305824)
				(fill yes)
			)
		)
	)
	(pad "" smd custom
		(at 1.0875 -0.3625)
		(size 0.505495 0.505495)
		(layers "F.Paste")
		(options
			(clearance outline)
			(anchor circle)
		)
		(primitives
			(gr_poly
				(pts
					(xy -0.176292 -0.176292)
					(xy 0.176292 -0.176292)
					(xy 0.176292 0.049616)
					(xy 0.049616 0.176292)
					(xy -0.176292 0.176292)
				)
				(width 0.305824)
				(fill yes)
			)
		)
	)
	(pad "" smd custom
		(at 1.0875 0.3625)
		(size 0.505495 0.505495)
		(layers "F.Paste")
		(options
			(clearance outline)
			(anchor circle)
		)
		(primitives
			(gr_poly
				(pts
					(xy -0.176292 -0.176292)
					(xy 0.049616 -0.176292)
					(xy 0.176292 -0.049616)
					(xy 0.176292 0.176292)
					(xy -0.176292 0.176292)
				)
				(width 0.305824)
				(fill yes)
			)
		)
	)
	(pad "" smd custom
		(at 1.0875 1.0875)
		(size 0.505495 0.505495)
		(layers "F.Paste")
		(options
			(clearance outline)
			(anchor circle)
		)
		(primitives
			(gr_poly
				(pts
					(xy -0.176292 -0.176292)
					(xy 0.176292 -0.176292)
					(xy 0.176292 0.049616)
					(xy 0.049616 0.176292)
					(xy -0.176292 0.176292)
				)
				(width 0.305824)
				(fill yes)
			)
		)
	)
	(pad "1" smd roundrect
		(at -4.95 -3.8)
		(size 0.8 0.2)
		(layers "F.Cu" "F.Mask" "F.Paste")
		(roundrect_rratio 0.25)
	)
	(pad "2" smd roundrect
		(at -4.95 -3.4)
		(size 0.8 0.2)
		(layers "F.Cu" "F.Mask" "F.Paste")
		(roundrect_rratio 0.25)
	)
	(pad "3" smd roundrect
		(at -4.95 -3)
		(size 0.8 0.2)
		(layers "F.Cu" "F.Mask" "F.Paste")
		(roundrect_rratio 0.25)
	)
	(pad "4" smd roundrect
		(at -4.95 -2.6)
		(size 0.8 0.2)
		(layers "F.Cu" "F.Mask" "F.Paste")
		(roundrect_rratio 0.25)
	)
	(pad "5" smd roundrect
		(at -4.95 -2.2)
		(size 0.8 0.2)
		(layers "F.Cu" "F.Mask" "F.Paste")
		(roundrect_rratio 0.25)
	)
	(pad "6" smd roundrect
		(at -4.95 -1.8)
		(size 0.8 0.2)
		(layers "F.Cu" "F.Mask" "F.Paste")
		(roundrect_rratio 0.25)
	)
	(pad "7" smd roundrect
		(at -4.95 -1.4)
		(size 0.8 0.2)
		(layers "F.Cu" "F.Mask" "F.Paste")
		(roundrect_rratio 0.25)
	)
	(pad "8" smd roundrect
		(at -4.95 -1)
		(size 0.8 0.2)
		(layers "F.Cu" "F.Mask" "F.Paste")
		(roundrect_rratio 0.25)
	)
	(pad "9" smd roundrect
		(at -4.95 -0.6)
		(size 0.8 0.2)
		(layers "F.Cu" "F.Mask" "F.Paste")
		(roundrect_rratio 0.25)
	)
	(pad "10" smd roundrect
		(at -4.95 -0.2)
		(size 0.8 0.2)
		(layers "F.Cu" "F.Mask" "F.Paste")
		(roundrect_rratio 0.25)
	)
	(pad "11" smd roundrect
		(at -4.95 0.2)
		(size 0.8 0.2)
		(layers "F.Cu" "F.Mask" "F.Paste")
		(roundrect_rratio 0.25)
	)
	(pad "12" smd roundrect
		(at -4.95 0.6)
		(size 0.8 0.2)
		(layers "F.Cu" "F.Mask" "F.Paste")
		(roundrect_rratio 0.25)
	)
	(pad "13" smd roundrect
		(at -4.95 1)
		(size 0.8 0.2)
		(layers "F.Cu" "F.Mask" "F.Paste")
		(roundrect_rratio 0.25)
	)
	(pad "14" smd roundrect
		(at -4.95 1.4)
		(size 0.8 0.2)
		(layers "F.Cu" "F.Mask" "F.Paste")
		(roundrect_rratio 0.25)
	)
	(pad "15" smd roundrect
		(at -4.95 1.8)
		(size 0.8 0.2)
		(layers "F.Cu" "F.Mask" "F.Paste")
		(roundrect_rratio 0.25)
	)
	(pad "16" smd roundrect
		(at -4.95 2.2)
		(size 0.8 0.2)
		(layers "F.Cu" "F.Mask" "F.Paste")
		(roundrect_rratio 0.25)
	)
	(pad "17" smd roundrect
		(at -4.95 2.6)
		(size 0.8 0.2)
		(layers "F.Cu" "F.Mask" "F.Paste")
		(roundrect_rratio 0.25)
	)
	(pad "18" smd roundrect
		(at -4.95 3)
		(size 0.8 0.2)
		(layers "F.Cu" "F.Mask" "F.Paste")
		(roundrect_rratio 0.25)
	)
	(pad "19" smd roundrect
		(at -4.95 3.4)
		(size 0.8 0.2)
		(layers "F.Cu" "F.Mask" "F.Paste")
		(roundrect_rratio 0.25)
	)
	(pad "20" smd roundrect
		(at -4.95 3.8)
		(size 0.8 0.2)
		(layers "F.Cu" "F.Mask" "F.Paste")
		(roundrect_rratio 0.25)
	)
	(pad "21" smd roundrect
		(at -3.8 4.95)
		(size 0.2 0.8)
		(layers "F.Cu" "F.Mask" "F.Paste")
		(roundrect_rratio 0.25)
	)
	(pad "22" smd roundrect
		(at -3.4 4.95)
		(size 0.2 0.8)
		(layers "F.Cu" "F.Mask" "F.Paste")
		(roundrect_rratio 0.25)
	)
	(pad "23" smd roundrect
		(at -3 4.95)
		(size 0.2 0.8)
		(layers "F.Cu" "F.Mask" "F.Paste")
		(roundrect_rratio 0.25)
	)
	(pad "24" smd roundrect
		(at -2.6 4.95)
		(size 0.2 0.8)
		(layers "F.Cu" "F.Mask" "F.Paste")
		(roundrect_rratio 0.25)
	)
	(pad "25" smd roundrect
		(at -2.2 4.95)
		(size 0.2 0.8)
		(layers "F.Cu" "F.Mask" "F.Paste")
		(roundrect_rratio 0.25)
	)
	(pad "26" smd roundrect
		(at -1.8 4.95)
		(size 0.2 0.8)
		(layers "F.Cu" "F.Mask" "F.Paste")
		(roundrect_rratio 0.25)
	)
	(pad "27" smd roundrect
		(at -1.4 4.95)
		(size 0.2 0.8)
		(layers "F.Cu" "F.Mask" "F.Paste")
		(roundrect_rratio 0.25)
	)
	(pad "28" smd roundrect
		(at -1 4.95)
		(size 0.2 0.8)
		(layers "F.Cu" "F.Mask" "F.Paste")
		(roundrect_rratio 0.25)
	)
	(pad "29" smd roundrect
		(at -0.6 4.95)
		(size 0.2 0.8)
		(layers "F.Cu" "F.Mask" "F.Paste")
		(roundrect_rratio 0.25)
	)
	(pad "30" smd roundrect
		(at -0.2 4.95)
		(size 0.2 0.8)
		(layers "F.Cu" "F.Mask" "F.Paste")
		(roundrect_rratio 0.25)
	)
	(pad "31" smd roundrect
		(at 0.2 4.95)
		(size 0.2 0.8)
		(layers "F.Cu" "F.Mask" "F.Paste")
		(roundrect_rratio 0.25)
	)
	(pad "32" smd roundrect
		(at 0.6 4.95)
		(size 0.2 0.8)
		(layers "F.Cu" "F.Mask" "F.Paste")
		(roundrect_rratio 0.25)
	)
	(pad "33" smd roundrect
		(at 1 4.95)
		(size 0.2 0.8)
		(layers "F.Cu" "F.Mask" "F.Paste")
		(roundrect_rratio 0.25)
	)
	(pad "34" smd roundrect
		(at 1.4 4.95)
		(size 0.2 0.8)
		(layers "F.Cu" "F.Mask" "F.Paste")
		(roundrect_rratio 0.25)
	)
	(pad "35" smd roundrect
		(at 1.8 4.95)
		(size 0.2 0.8)
		(layers "F.Cu" "F.Mask" "F.Paste")
		(roundrect_rratio 0.25)
	)
	(pad "36" smd roundrect
		(at 2.2 4.95)
		(size 0.2 0.8)
		(layers "F.Cu" "F.Mask" "F.Paste")
		(roundrect_rratio 0.25)
	)
	(pad "37" smd roundrect
		(at 2.6 4.95)
		(size 0.2 0.8)
		(layers "F.Cu" "F.Mask" "F.Paste")
		(roundrect_rratio 0.25)
	)
	(pad "38" smd roundrect
		(at 3 4.95)
		(size 0.2 0.8)
		(layers "F.Cu" "F.Mask" "F.Paste")
		(roundrect_rratio 0.25)
	)
	(pad "39" smd roundrect
		(at 3.4 4.95)
		(size 0.2 0.8)
		(layers "F.Cu" "F.Mask" "F.Paste")
		(roundrect_rratio 0.25)
	)
	(pad "40" smd roundrect
		(at 3.8 4.95)
		(size 0.2 0.8)
		(layers "F.Cu" "F.Mask" "F.Paste")
		(roundrect_rratio 0.25)
	)
	(pad "41" smd roundrect
		(at 4.95 3.8)
		(size 0.8 0.2)
		(layers "F.Cu" "F.Mask" "F.Paste")
		(roundrect_rratio 0.25)
	)
	(pad "42" smd roundrect
		(at 4.95 3.4)
		(size 0.8 0.2)
		(layers "F.Cu" "F.Mask" "F.Paste")
		(roundrect_rratio 0.25)
	)
	(pad "43" smd roundrect
		(at 4.95 3)
		(size 0.8 0.2)
		(layers "F.Cu" "F.Mask" "F.Paste")
		(roundrect_rratio 0.25)
	)
	(pad "44" smd roundrect
		(at 4.95 2.6)
		(size 0.8 0.2)
		(layers "F.Cu" "F.Mask" "F.Paste")
		(roundrect_rratio 0.25)
	)
	(pad "45" smd roundrect
		(at 4.95 2.2)
		(size 0.8 0.2)
		(layers "F.Cu" "F.Mask" "F.Paste")
		(roundrect_rratio 0.25)
	)
	(pad "46" smd roundrect
		(at 4.95 1.8)
		(size 0.8 0.2)
		(layers "F.Cu" "F.Mask" "F.Paste")
		(roundrect_rratio 0.25)
	)
	(pad "47" smd roundrect
		(at 4.95 1.4)
		(size 0.8 0.2)
		(layers "F.Cu" "F.Mask" "F.Paste")
		(roundrect_rratio 0.25)
	)
	(pad "48" smd roundrect
		(at 4.95 1)
		(size 0.8 0.2)
		(layers "F.Cu" "F.Mask" "F.Paste")
		(roundrect_rratio 0.25)
	)
	(pad "49" smd roundrect
		(at 4.95 0.6)
		(size 0.8 0.2)
		(layers "F.Cu" "F.Mask" "F.Paste")
		(roundrect_rratio 0.25)
	)
	(pad "50" smd roundrect
		(at 4.95 0.2)
		(size 0.8 0.2)
		(layers "F.Cu" "F.Mask" "F.Paste")
		(roundrect_rratio 0.25)
	)
	(pad "51" smd roundrect
		(at 4.95 -0.2)
		(size 0.8 0.2)
		(layers "F.Cu" "F.Mask" "F.Paste")
		(roundrect_rratio 0.25)
	)
	(pad "52" smd roundrect
		(at 4.95 -0.6)
		(size 0.8 0.2)
		(layers "F.Cu" "F.Mask" "F.Paste")
		(roundrect_rratio 0.25)
	)
	(pad "53" smd roundrect
		(at 4.95 -1)
		(size 0.8 0.2)
		(layers "F.Cu" "F.Mask" "F.Paste")
		(roundrect_rratio 0.25)
	)
	(pad "54" smd roundrect
		(at 4.95 -1.4)
		(size 0.8 0.2)
		(layers "F.Cu" "F.Mask" "F.Paste")
		(roundrect_rratio 0.25)
	)
	(pad "55" smd roundrect
		(at 4.95 -1.8)
		(size 0.8 0.2)
		(layers "F.Cu" "F.Mask" "F.Paste")
		(roundrect_rratio 0.25)
	)
	(pad "56" smd roundrect
		(at 4.95 -2.2)
		(size 0.8 0.2)
		(layers "F.Cu" "F.Mask" "F.Paste")
		(roundrect_rratio 0.25)
	)
	(pad "57" smd roundrect
		(at 4.95 -2.6)
		(size 0.8 0.2)
		(layers "F.Cu" "F.Mask" "F.Paste")
		(roundrect_rratio 0.25)
	)
	(pad "58" smd roundrect
		(at 4.95 -3)
		(size 0.8 0.2)
		(layers "F.Cu" "F.Mask" "F.Paste")
		(roundrect_rratio 0.25)
	)
	(pad "59" smd roundrect
		(at 4.95 -3.4)
		(size 0.8 0.2)
		(layers "F.Cu" "F.Mask" "F.Paste")
		(roundrect_rratio 0.25)
	)
	(pad "60" smd roundrect
		(at 4.95 -3.8)
		(size 0.8 0.2)
		(layers "F.Cu" "F.Mask" "F.Paste")
		(roundrect_rratio 0.25)
	)
	(pad "61" smd roundrect
		(at 3.8 -4.95)
		(size 0.2 0.8)
		(layers "F.Cu" "F.Mask" "F.Paste")
		(roundrect_rratio 0.25)
	)
	(pad "62" smd roundrect
		(at 3.4 -4.95)
		(size 0.2 0.8)
		(layers "F.Cu" "F.Mask" "F.Paste")
		(roundrect_rratio 0.25)
	)
	(pad "63" smd roundrect
		(at 3 -4.95)
		(size 0.2 0.8)
		(layers "F.Cu" "F.Mask" "F.Paste")
		(roundrect_rratio 0.25)
	)
	(pad "64" smd roundrect
		(at 2.6 -4.95)
		(size 0.2 0.8)
		(layers "F.Cu" "F.Mask" "F.Paste")
		(roundrect_rratio 0.25)
	)
	(pad "65" smd roundrect
		(at 2.2 -4.95)
		(size 0.2 0.8)
		(layers "F.Cu" "F.Mask" "F.Paste")
		(roundrect_rratio 0.25)
	)
	(pad "66" smd roundrect
		(at 1.8 -4.95)
		(size 0.2 0.8)
		(layers "F.Cu" "F.Mask" "F.Paste")
		(roundrect_rratio 0.25)
	)
	(pad "67" smd roundrect
		(at 1.4 -4.95)
		(size 0.2 0.8)
		(layers "F.Cu" "F.Mask" "F.Paste")
		(roundrect_rratio 0.25)
	)
	(pad "68" smd roundrect
		(at 1 -4.95)
		(size 0.2 0.8)
		(layers "F.Cu" "F.Mask" "F.Paste")
		(roundrect_rratio 0.25)
	)
	(pad "69" smd roundrect
		(at 0.6 -4.95)
		(size 0.2 0.8)
		(layers "F.Cu" "F.Mask" "F.Paste")
		(roundrect_rratio 0.25)
	)
	(pad "70" smd roundrect
		(at 0.2 -4.95)
		(size 0.2 0.8)
		(layers "F.Cu" "F.Mask" "F.Paste")
		(roundrect_rratio 0.25)
	)
	(pad "71" smd roundrect
		(at -0.2 -4.95)
		(size 0.2 0.8)
		(layers "F.Cu" "F.Mask" "F.Paste")
		(roundrect_rratio 0.25)
	)
	(pad "72" smd roundrect
		(at -0.6 -4.95)
		(size 0.2 0.8)
		(layers "F.Cu" "F.Mask" "F.Paste")
		(roundrect_rratio 0.25)
	)
	(pad "73" smd roundrect
		(at -1 -4.95)
		(size 0.2 0.8)
		(layers "F.Cu" "F.Mask" "F.Paste")
		(roundrect_rratio 0.25)
	)
	(pad "74" smd roundrect
		(at -1.4 -4.95)
		(size 0.2 0.8)
		(layers "F.Cu" "F.Mask" "F.Paste")
		(roundrect_rratio 0.25)
	)
	(pad "75" smd roundrect
		(at -1.8 -4.95)
		(size 0.2 0.8)
		(layers "F.Cu" "F.Mask" "F.Paste")
		(roundrect_rratio 0.25)
	)
	(pad "76" smd roundrect
		(at -2.2 -4.95)
		(size 0.2 0.8)
		(layers "F.Cu" "F.Mask" "F.Paste")
		(roundrect_rratio 0.25)
	)
	(pad "77" smd roundrect
		(at -2.6 -4.95)
		(size 0.2 0.8)
		(layers "F.Cu" "F.Mask" "F.Paste")
		(roundrect_rratio 0.25)
	)
	(pad "78" smd roundrect
		(at -3 -4.95)
		(size 0.2 0.8)
		(layers "F.Cu" "F.Mask" "F.Paste")
		(roundrect_rratio 0.25)
	)
	(pad "79" smd roundrect
		(at -3.4 -4.95)
		(size 0.2 0.8)
		(layers "F.Cu" "F.Mask" "F.Paste")
		(roundrect_rratio 0.25)
	)
	(pad "80" smd roundrect
		(at -3.8 -4.95)
		(size 0.2 0.8)
		(layers "F.Cu" "F.Mask" "F.Paste")
		(roundrect_rratio 0.25)
	)
	(pad "81" thru_hole circle
		(at -1.45 -1.45)
		(size 0.5 0.5)
		(drill 0.2)
		(property pad_prop_heatsink)
		(layers "*.Cu")
		(remove_unused_layers no)
	)
	(pad "81" thru_hole circle
		(at -1.45 0)
		(size 0.5 0.5)
		(drill 0.2)
		(property pad_prop_heatsink)
		(layers "*.Cu")
		(remove_unused_layers no)
	)
	(pad "81" thru_hole circle
		(at -1.45 1.45)
		(size 0.5 0.5)
		(drill 0.2)
		(property pad_prop_heatsink)
		(layers "*.Cu")
		(remove_unused_layers no)
	)
	(pad "81" thru_hole circle
		(at 0 -1.45)
		(size 0.5 0.5)
		(drill 0.2)
		(property pad_prop_heatsink)
		(layers "*.Cu")
		(remove_unused_layers no)
	)
	(pad "81" thru_hole circle
		(at 0 0)
		(size 0.5 0.5)
		(drill 0.2)
		(property pad_prop_heatsink)
		(layers "*.Cu")
		(remove_unused_layers no)
	)
	(pad "81" smd rect
		(at 0 0)
		(size 3.4 3.4)
		(property pad_prop_heatsink)
		(layers "F.Cu" "F.Mask")
		(zone_connect 2)
	)
	(pad "81" smd rect
		(at 0 0)
		(size 3.4 3.4)
		(property pad_prop_heatsink)
		(layers "B.Cu")
		(zone_connect 2)
	)
	(pad "81" thru_hole circle
		(at 0 1.45)
		(size 0.5 0.5)
		(drill 0.2)
		(property pad_prop_heatsink)
		(layers "*.Cu")
		(remove_unused_layers no)
	)
	(pad "81" thru_hole circle
		(at 1.45 -1.45)
		(size 0.5 0.5)
		(drill 0.2)
		(property pad_prop_heatsink)
		(layers "*.Cu")
		(remove_unused_layers no)
	)
	(pad "81" thru_hole circle
		(at 1.45 0)
		(size 0.5 0.5)
		(drill 0.2)
		(property pad_prop_heatsink)
		(layers "*.Cu")
		(remove_unused_layers no)
	)
	(pad "81" thru_hole circle
		(at 1.45 1.45)
		(size 0.5 0.5)
		(drill 0.2)
		(property pad_prop_heatsink)
		(layers "*.Cu")
		(remove_unused_layers no)
	)
	(embedded_fonts no)
	(model "${KICAD9_3DMODEL_DIR}/Package_DFN_QFN.3dshapes/QFN-80-1EP_10x10mm_P0.4mm_EP3.4x3.4mm.wrl"
		(offset
			(xyz 0 0 0)
		)
		(scale
			(xyz 1 1 1)
		)
		(rotate
			(xyz 0 0 0)
		)
	)
)
