(footprint "QFN-32-1EP_7x7mm_P0.65mm_EP4.7x4.7mm_ThermalVias"
	(version 20241229)
	(generator "kicad-footprint-generator")
	(layer "F.Cu")
	(descr "QFN, 32 Pin (https://www.nxp.com/docs/en/data-sheet/LPC111X.pdf#page=108), generated with kicad-footprint-generator ipc_noLead_generator.py")
	(tags "QFN NoLead")
	(property "Reference" "REF**"
		(at 0 -4.83 0)
		(layer "F.SilkS")
		(effects
			(font
				(size 1 1)
				(thickness 0.15)
			)
		)
	)
	(property "Value" "QFN-32-1EP_7x7mm_P0.65mm_EP4.7x4.7mm_ThermalVias"
		(at 0 4.83 0)
		(layer "F.Fab")
		(effects
			(font
				(size 1 1)
				(thickness 0.15)
			)
		)
	)
	(attr smd)
	(fp_line
		(start -3.61 -2.685)
		(end -3.61 -3.37)
		(stroke
			(width 0.12)
			(type solid)
		)
		(layer "F.SilkS")
	)
	(fp_line
		(start -3.61 3.61)
		(end -3.61 2.685)
		(stroke
			(width 0.12)
			(type solid)
		)
		(layer "F.SilkS")
	)
	(fp_line
		(start -2.685 -3.61)
		(end -3.31 -3.61)
		(stroke
			(width 0.12)
			(type solid)
		)
		(layer "F.SilkS")
	)
	(fp_line
		(start -2.685 3.61)
		(end -3.61 3.61)
		(stroke
			(width 0.12)
			(type solid)
		)
		(layer "F.SilkS")
	)
	(fp_line
		(start 2.685 -3.61)
		(end 3.61 -3.61)
		(stroke
			(width 0.12)
			(type solid)
		)
		(layer "F.SilkS")
	)
	(fp_line
		(start 2.685 3.61)
		(end 3.61 3.61)
		(stroke
			(width 0.12)
			(type solid)
		)
		(layer "F.SilkS")
	)
	(fp_line
		(start 3.61 -3.61)
		(end 3.61 -2.685)
		(stroke
			(width 0.12)
			(type solid)
		)
		(layer "F.SilkS")
	)
	(fp_line
		(start 3.61 3.61)
		(end 3.61 2.685)
		(stroke
			(width 0.12)
			(type solid)
		)
		(layer "F.SilkS")
	)
	(fp_poly
		(pts
			(xy -3.61 -3.61)
			(xy -3.85 -3.94)
			(xy -3.37 -3.94)
		)
		(stroke
			(width 0.12)
			(type solid)
		)
		(fill yes)
		(layer "F.SilkS")
	)
	(fp_rect
		(start -4.13 -4.13)
		(end 4.13 4.13)
		(stroke
			(width 0.05)
			(type solid)
		)
		(fill no)
		(layer "F.CrtYd")
	)
	(fp_poly
		(pts
			(xy -3.5 -2.5)
			(xy -3.5 3.5)
			(xy 3.5 3.5)
			(xy 3.5 -3.5)
			(xy -2.5 -3.5)
		)
		(stroke
			(width 0.1)
			(type solid)
		)
		(fill no)
		(layer "F.Fab")
	)
	(fp_text user "${REFERENCE}"
		(at 0 0 0)
		(layer "F.Fab")
		(effects
			(font
				(size 1 1)
				(thickness 0.15)
			)
		)
	)
	(pad "" smd custom
		(at -1.9625 -1.9625)
		(size 0.531015 0.531015)
		(layers "F.Paste")
		(options
			(clearance outline)
			(anchor circle)
		)
		(primitives
			(gr_poly
				(pts
					(xy -0.218602 -0.218602)
					(xy 0.218602 -0.218602)
					(xy 0.218602 0.140887)
					(xy 0.140887 0.218602)
					(xy -0.218602 0.218602)
				)
				(width 0.18762)
				(fill yes)
			)
		)
	)
	(pad "" smd custom
		(at -1.9625 -1.05)
		(size 0.549855 0.549855)
		(layers "F.Paste")
		(options
			(clearance outline)
			(anchor circle)
		)
		(primitives
			(gr_poly
				(pts
					(xy -0.237442 -0.348298)
					(xy 0.175335 -0.348298)
					(xy 0.237442 -0.286191)
					(xy 0.237442 0.286191)
					(xy 0.175335 0.348298)
					(xy -0.237442 0.348298)
				)
				(width 0.14994)
				(fill yes)
			)
		)
	)
	(pad "" smd custom
		(at -1.9625 0)
		(size 0.549855 0.549855)
		(layers "F.Paste")
		(options
			(clearance outline)
			(anchor circle)
		)
		(primitives
			(gr_poly
				(pts
					(xy -0.237442 -0.348298)
					(xy 0.175335 -0.348298)
					(xy 0.237442 -0.286191)
					(xy 0.237442 0.286191)
					(xy 0.175335 0.348298)
					(xy -0.237442 0.348298)
				)
				(width 0.14994)
				(fill yes)
			)
		)
	)
	(pad "" smd custom
		(at -1.9625 1.05)
		(size 0.549855 0.549855)
		(layers "F.Paste")
		(options
			(clearance outline)
			(anchor circle)
		)
		(primitives
			(gr_poly
				(pts
					(xy -0.237442 -0.348298)
					(xy 0.175335 -0.348298)
					(xy 0.237442 -0.286191)
					(xy 0.237442 0.286191)
					(xy 0.175335 0.348298)
					(xy -0.237442 0.348298)
				)
				(width 0.14994)
				(fill yes)
			)
		)
	)
	(pad "" smd custom
		(at -1.9625 1.9625)
		(size 0.531015 0.531015)
		(layers "F.Paste")
		(options
			(clearance outline)
			(anchor circle)
		)
		(primitives
			(gr_poly
				(pts
					(xy -0.218602 -0.218602)
					(xy 0.140887 -0.218602)
					(xy 0.218602 -0.140887)
					(xy 0.218602 0.218602)
					(xy -0.218602 0.218602)
				)
				(width 0.18762)
				(fill yes)
			)
		)
	)
	(pad "" smd custom
		(at -1.05 -1.9625)
		(size 0.549855 0.549855)
		(layers "F.Paste")
		(options
			(clearance outline)
			(anchor circle)
		)
		(primitives
			(gr_poly
				(pts
					(xy -0.348298 -0.237442)
					(xy 0.348298 -0.237442)
					(xy 0.348298 0.175335)
					(xy 0.286191 0.237442)
					(xy -0.286191 0.237442)
					(xy -0.348298 0.175335)
				)
				(width 0.14994)
				(fill yes)
			)
		)
	)
	(pad "" smd roundrect
		(at -1.05 -1.05)
		(size 0.846537 0.846537)
		(layers "F.Paste")
		(roundrect_rratio 0.25)
	)
	(pad "" smd roundrect
		(at -1.05 0)
		(size 0.846537 0.846537)
		(layers "F.Paste")
		(roundrect_rratio 0.25)
	)
	(pad "" smd roundrect
		(at -1.05 1.05)
		(size 0.846537 0.846537)
		(layers "F.Paste")
		(roundrect_rratio 0.25)
	)
	(pad "" smd custom
		(at -1.05 1.9625)
		(size 0.549855 0.549855)
		(layers "F.Paste")
		(options
			(clearance outline)
			(anchor circle)
		)
		(primitives
			(gr_poly
				(pts
					(xy -0.348298 -0.175335)
					(xy -0.286191 -0.237442)
					(xy 0.286191 -0.237442)
					(xy 0.348298 -0.175335)
					(xy 0.348298 0.237442)
					(xy -0.348298 0.237442)
				)
				(width 0.14994)
				(fill yes)
			)
		)
	)
	(pad "" smd custom
		(at 0 -1.9625)
		(size 0.549855 0.549855)
		(layers "F.Paste")
		(options
			(clearance outline)
			(anchor circle)
		)
		(primitives
			(gr_poly
				(pts
					(xy -0.348298 -0.237442)
					(xy 0.348298 -0.237442)
					(xy 0.348298 0.175335)
					(xy 0.286191 0.237442)
					(xy -0.286191 0.237442)
					(xy -0.348298 0.175335)
				)
				(width 0.14994)
				(fill yes)
			)
		)
	)
	(pad "" smd roundrect
		(at 0 -1.05)
		(size 0.846537 0.846537)
		(layers "F.Paste")
		(roundrect_rratio 0.25)
	)
	(pad "" smd roundrect
		(at 0 0)
		(size 0.846537 0.846537)
		(layers "F.Paste")
		(roundrect_rratio 0.25)
	)
	(pad "" smd roundrect
		(at 0 1.05)
		(size 0.846537 0.846537)
		(layers "F.Paste")
		(roundrect_rratio 0.25)
	)
	(pad "" smd custom
		(at 0 1.9625)
		(size 0.549855 0.549855)
		(layers "F.Paste")
		(options
			(clearance outline)
			(anchor circle)
		)
		(primitives
			(gr_poly
				(pts
					(xy -0.348298 -0.175335)
					(xy -0.286191 -0.237442)
					(xy 0.286191 -0.237442)
					(xy 0.348298 -0.175335)
					(xy 0.348298 0.237442)
					(xy -0.348298 0.237442)
				)
				(width 0.14994)
				(fill yes)
			)
		)
	)
	(pad "" smd custom
		(at 1.05 -1.9625)
		(size 0.549855 0.549855)
		(layers "F.Paste")
		(options
			(clearance outline)
			(anchor circle)
		)
		(primitives
			(gr_poly
				(pts
					(xy -0.348298 -0.237442)
					(xy 0.348298 -0.237442)
					(xy 0.348298 0.175335)
					(xy 0.286191 0.237442)
					(xy -0.286191 0.237442)
					(xy -0.348298 0.175335)
				)
				(width 0.14994)
				(fill yes)
			)
		)
	)
	(pad "" smd roundrect
		(at 1.05 -1.05)
		(size 0.846537 0.846537)
		(layers "F.Paste")
		(roundrect_rratio 0.25)
	)
	(pad "" smd roundrect
		(at 1.05 0)
		(size 0.846537 0.846537)
		(layers "F.Paste")
		(roundrect_rratio 0.25)
	)
	(pad "" smd roundrect
		(at 1.05 1.05)
		(size 0.846537 0.846537)
		(layers "F.Paste")
		(roundrect_rratio 0.25)
	)
	(pad "" smd custom
		(at 1.05 1.9625)
		(size 0.549855 0.549855)
		(layers "F.Paste")
		(options
			(clearance outline)
			(anchor circle)
		)
		(primitives
			(gr_poly
				(pts
					(xy -0.348298 -0.175335)
					(xy -0.286191 -0.237442)
					(xy 0.286191 -0.237442)
					(xy 0.348298 -0.175335)
					(xy 0.348298 0.237442)
					(xy -0.348298 0.237442)
				)
				(width 0.14994)
				(fill yes)
			)
		)
	)
	(pad "" smd custom
		(at 1.9625 -1.9625)
		(size 0.531015 0.531015)
		(layers "F.Paste")
		(options
			(clearance outline)
			(anchor circle)
		)
		(primitives
			(gr_poly
				(pts
					(xy -0.218602 -0.218602)
					(xy 0.218602 -0.218602)
					(xy 0.218602 0.218602)
					(xy -0.140887 0.218602)
					(xy -0.218602 0.140887)
				)
				(width 0.18762)
				(fill yes)
			)
		)
	)
	(pad "" smd custom
		(at 1.9625 -1.05)
		(size 0.549855 0.549855)
		(layers "F.Paste")
		(options
			(clearance outline)
			(anchor circle)
		)
		(primitives
			(gr_poly
				(pts
					(xy -0.237442 -0.286191)
					(xy -0.175335 -0.348298)
					(xy 0.237442 -0.348298)
					(xy 0.237442 0.348298)
					(xy -0.175335 0.348298)
					(xy -0.237442 0.286191)
				)
				(width 0.14994)
				(fill yes)
			)
		)
	)
	(pad "" smd custom
		(at 1.9625 0)
		(size 0.549855 0.549855)
		(layers "F.Paste")
		(options
			(clearance outline)
			(anchor circle)
		)
		(primitives
			(gr_poly
				(pts
					(xy -0.237442 -0.286191)
					(xy -0.175335 -0.348298)
					(xy 0.237442 -0.348298)
					(xy 0.237442 0.348298)
					(xy -0.175335 0.348298)
					(xy -0.237442 0.286191)
				)
				(width 0.14994)
				(fill yes)
			)
		)
	)
	(pad "" smd custom
		(at 1.9625 1.05)
		(size 0.549855 0.549855)
		(layers "F.Paste")
		(options
			(clearance outline)
			(anchor circle)
		)
		(primitives
			(gr_poly
				(pts
					(xy -0.237442 -0.286191)
					(xy -0.175335 -0.348298)
					(xy 0.237442 -0.348298)
					(xy 0.237442 0.348298)
					(xy -0.175335 0.348298)
					(xy -0.237442 0.286191)
				)
				(width 0.14994)
				(fill yes)
			)
		)
	)
	(pad "" smd custom
		(at 1.9625 1.9625)
		(size 0.531015 0.531015)
		(layers "F.Paste")
		(options
			(clearance outline)
			(anchor circle)
		)
		(primitives
			(gr_poly
				(pts
					(xy -0.218602 -0.140887)
					(xy -0.140887 -0.218602)
					(xy 0.218602 -0.218602)
					(xy 0.218602 0.218602)
					(xy -0.218602 0.218602)
				)
				(width 0.18762)
				(fill yes)
			)
		)
	)
	(pad "1" smd roundrect
		(at -3.325 -2.275)
		(size 1.1 0.3)
		(layers "F.Cu" "F.Mask" "F.Paste")
		(roundrect_rratio 0.25)
	)
	(pad "2" smd roundrect
		(at -3.325 -1.625)
		(size 1.1 0.3)
		(layers "F.Cu" "F.Mask" "F.Paste")
		(roundrect_rratio 0.25)
	)
	(pad "3" smd roundrect
		(at -3.325 -0.975)
		(size 1.1 0.3)
		(layers "F.Cu" "F.Mask" "F.Paste")
		(roundrect_rratio 0.25)
	)
	(pad "4" smd roundrect
		(at -3.325 -0.325)
		(size 1.1 0.3)
		(layers "F.Cu" "F.Mask" "F.Paste")
		(roundrect_rratio 0.25)
	)
	(pad "5" smd roundrect
		(at -3.325 0.325)
		(size 1.1 0.3)
		(layers "F.Cu" "F.Mask" "F.Paste")
		(roundrect_rratio 0.25)
	)
	(pad "6" smd roundrect
		(at -3.325 0.975)
		(size 1.1 0.3)
		(layers "F.Cu" "F.Mask" "F.Paste")
		(roundrect_rratio 0.25)
	)
	(pad "7" smd roundrect
		(at -3.325 1.625)
		(size 1.1 0.3)
		(layers "F.Cu" "F.Mask" "F.Paste")
		(roundrect_rratio 0.25)
	)
	(pad "8" smd roundrect
		(at -3.325 2.275)
		(size 1.1 0.3)
		(layers "F.Cu" "F.Mask" "F.Paste")
		(roundrect_rratio 0.25)
	)
	(pad "9" smd roundrect
		(at -2.275 3.325)
		(size 0.3 1.1)
		(layers "F.Cu" "F.Mask" "F.Paste")
		(roundrect_rratio 0.25)
	)
	(pad "10" smd roundrect
		(at -1.625 3.325)
		(size 0.3 1.1)
		(layers "F.Cu" "F.Mask" "F.Paste")
		(roundrect_rratio 0.25)
	)
	(pad "11" smd roundrect
		(at -0.975 3.325)
		(size 0.3 1.1)
		(layers "F.Cu" "F.Mask" "F.Paste")
		(roundrect_rratio 0.25)
	)
	(pad "12" smd roundrect
		(at -0.325 3.325)
		(size 0.3 1.1)
		(layers "F.Cu" "F.Mask" "F.Paste")
		(roundrect_rratio 0.25)
	)
	(pad "13" smd roundrect
		(at 0.325 3.325)
		(size 0.3 1.1)
		(layers "F.Cu" "F.Mask" "F.Paste")
		(roundrect_rratio 0.25)
	)
	(pad "14" smd roundrect
		(at 0.975 3.325)
		(size 0.3 1.1)
		(layers "F.Cu" "F.Mask" "F.Paste")
		(roundrect_rratio 0.25)
	)
	(pad "15" smd roundrect
		(at 1.625 3.325)
		(size 0.3 1.1)
		(layers "F.Cu" "F.Mask" "F.Paste")
		(roundrect_rratio 0.25)
	)
	(pad "16" smd roundrect
		(at 2.275 3.325)
		(size 0.3 1.1)
		(layers "F.Cu" "F.Mask" "F.Paste")
		(roundrect_rratio 0.25)
	)
	(pad "17" smd roundrect
		(at 3.325 2.275)
		(size 1.1 0.3)
		(layers "F.Cu" "F.Mask" "F.Paste")
		(roundrect_rratio 0.25)
	)
	(pad "18" smd roundrect
		(at 3.325 1.625)
		(size 1.1 0.3)
		(layers "F.Cu" "F.Mask" "F.Paste")
		(roundrect_rratio 0.25)
	)
	(pad "19" smd roundrect
		(at 3.325 0.975)
		(size 1.1 0.3)
		(layers "F.Cu" "F.Mask" "F.Paste")
		(roundrect_rratio 0.25)
	)
	(pad "20" smd roundrect
		(at 3.325 0.325)
		(size 1.1 0.3)
		(layers "F.Cu" "F.Mask" "F.Paste")
		(roundrect_rratio 0.25)
	)
	(pad "21" smd roundrect
		(at 3.325 -0.325)
		(size 1.1 0.3)
		(layers "F.Cu" "F.Mask" "F.Paste")
		(roundrect_rratio 0.25)
	)
	(pad "22" smd roundrect
		(at 3.325 -0.975)
		(size 1.1 0.3)
		(layers "F.Cu" "F.Mask" "F.Paste")
		(roundrect_rratio 0.25)
	)
	(pad "23" smd roundrect
		(at 3.325 -1.625)
		(size 1.1 0.3)
		(layers "F.Cu" "F.Mask" "F.Paste")
		(roundrect_rratio 0.25)
	)
	(pad "24" smd roundrect
		(at 3.325 -2.275)
		(size 1.1 0.3)
		(layers "F.Cu" "F.Mask" "F.Paste")
		(roundrect_rratio 0.25)
	)
	(pad "25" smd roundrect
		(at 2.275 -3.325)
		(size 0.3 1.1)
		(layers "F.Cu" "F.Mask" "F.Paste")
		(roundrect_rratio 0.25)
	)
	(pad "26" smd roundrect
		(at 1.625 -3.325)
		(size 0.3 1.1)
		(layers "F.Cu" "F.Mask" "F.Paste")
		(roundrect_rratio 0.25)
	)
	(pad "27" smd roundrect
		(at 0.975 -3.325)
		(size 0.3 1.1)
		(layers "F.Cu" "F.Mask" "F.Paste")
		(roundrect_rratio 0.25)
	)
	(pad "28" smd roundrect
		(at 0.325 -3.325)
		(size 0.3 1.1)
		(layers "F.Cu" "F.Mask" "F.Paste")
		(roundrect_rratio 0.25)
	)
	(pad "29" smd roundrect
		(at -0.325 -3.325)
		(size 0.3 1.1)
		(layers "F.Cu" "F.Mask" "F.Paste")
		(roundrect_rratio 0.25)
	)
	(pad "30" smd roundrect
		(at -0.975 -3.325)
		(size 0.3 1.1)
		(layers "F.Cu" "F.Mask" "F.Paste")
		(roundrect_rratio 0.25)
	)
	(pad "31" smd roundrect
		(at -1.625 -3.325)
		(size 0.3 1.1)
		(layers "F.Cu" "F.Mask" "F.Paste")
		(roundrect_rratio 0.25)
	)
	(pad "32" smd roundrect
		(at -2.275 -3.325)
		(size 0.3 1.1)
		(layers "F.Cu" "F.Mask" "F.Paste")
		(roundrect_rratio 0.25)
	)
	(pad "33" thru_hole circle
		(at -1.575 -1.575)
		(size 0.5 0.5)
		(drill 0.2)
		(property pad_prop_heatsink)
		(layers "*.Cu")
		(remove_unused_layers no)
	)
	(pad "33" thru_hole circle
		(at -1.575 -0.525)
		(size 0.5 0.5)
		(drill 0.2)
		(property pad_prop_heatsink)
		(layers "*.Cu")
		(remove_unused_layers no)
	)
	(pad "33" thru_hole circle
		(at -1.575 0.525)
		(size 0.5 0.5)
		(drill 0.2)
		(property pad_prop_heatsink)
		(layers "*.Cu")
		(remove_unused_layers no)
	)
	(pad "33" thru_hole circle
		(at -1.575 1.575)
		(size 0.5 0.5)
		(drill 0.2)
		(property pad_prop_heatsink)
		(layers "*.Cu")
		(remove_unused_layers no)
	)
	(pad "33" thru_hole circle
		(at -0.525 -1.575)
		(size 0.5 0.5)
		(drill 0.2)
		(property pad_prop_heatsink)
		(layers "*.Cu")
		(remove_unused_layers no)
	)
	(pad "33" thru_hole circle
		(at -0.525 -0.525)
		(size 0.5 0.5)
		(drill 0.2)
		(property pad_prop_heatsink)
		(layers "*.Cu")
		(remove_unused_layers no)
	)
	(pad "33" thru_hole circle
		(at -0.525 0.525)
		(size 0.5 0.5)
		(drill 0.2)
		(property pad_prop_heatsink)
		(layers "*.Cu")
		(remove_unused_layers no)
	)
	(pad "33" thru_hole circle
		(at -0.525 1.575)
		(size 0.5 0.5)
		(drill 0.2)
		(property pad_prop_heatsink)
		(layers "*.Cu")
		(remove_unused_layers no)
	)
	(pad "33" smd rect
		(at 0 0)
		(size 3.65 3.65)
		(property pad_prop_heatsink)
		(layers "B.Cu")
		(zone_connect 2)
	)
	(pad "33" smd rect
		(at 0 0)
		(size 4.7 4.7)
		(property pad_prop_heatsink)
		(layers "F.Cu" "F.Mask")
		(zone_connect 2)
	)
	(pad "33" thru_hole circle
		(at 0.525 -1.575)
		(size 0.5 0.5)
		(drill 0.2)
		(property pad_prop_heatsink)
		(layers "*.Cu")
		(remove_unused_layers no)
	)
	(pad "33" thru_hole circle
		(at 0.525 -0.525)
		(size 0.5 0.5)
		(drill 0.2)
		(property pad_prop_heatsink)
		(layers "*.Cu")
		(remove_unused_layers no)
	)
	(pad "33" thru_hole circle
		(at 0.525 0.525)
		(size 0.5 0.5)
		(drill 0.2)
		(property pad_prop_heatsink)
		(layers "*.Cu")
		(remove_unused_layers no)
	)
	(pad "33" thru_hole circle
		(at 0.525 1.575)
		(size 0.5 0.5)
		(drill 0.2)
		(property pad_prop_heatsink)
		(layers "*.Cu")
		(remove_unused_layers no)
	)
	(pad "33" thru_hole circle
		(at 1.575 -1.575)
		(size 0.5 0.5)
		(drill 0.2)
		(property pad_prop_heatsink)
		(layers "*.Cu")
		(remove_unused_layers no)
	)
	(pad "33" thru_hole circle
		(at 1.575 -0.525)
		(size 0.5 0.5)
		(drill 0.2)
		(property pad_prop_heatsink)
		(layers "*.Cu")
		(remove_unused_layers no)
	)
	(pad "33" thru_hole circle
		(at 1.575 0.525)
		(size 0.5 0.5)
		(drill 0.2)
		(property pad_prop_heatsink)
		(layers "*.Cu")
		(remove_unused_layers no)
	)
	(pad "33" thru_hole circle
		(at 1.575 1.575)
		(size 0.5 0.5)
		(drill 0.2)
		(property pad_prop_heatsink)
		(layers "*.Cu")
		(remove_unused_layers no)
	)
	(embedded_fonts no)
	(model "${KICAD9_3DMODEL_DIR}/Package_DFN_QFN.3dshapes/QFN-32-1EP_7x7mm_P0.65mm_EP4.7x4.7mm.wrl"
		(offset
			(xyz 0 0 0)
		)
		(scale
			(xyz 1 1 1)
		)
		(rotate
			(xyz 0 0 0)
		)
	)
)
