(footprint "QFN-64-1EP_9x9mm_P0.5mm_EP6x6mm_ThermalVias"
	(version 20241229)
	(generator "kicad-footprint-generator")
	(layer "F.Cu")
	(descr "QFN, 64 Pin (http://www.ti.com/lit/ds/symlink/tusb8041.pdf#page=42), generated with kicad-footprint-generator ipc_noLead_generator.py")
	(tags "QFN NoLead")
	(property "Reference" "REF**"
		(at 0 -5.83 0)
		(layer "F.SilkS")
		(effects
			(font
				(size 1 1)
				(thickness 0.15)
			)
		)
	)
	(property "Value" "QFN-64-1EP_9x9mm_P0.5mm_EP6x6mm_ThermalVias"
		(at 0 5.83 0)
		(layer "F.Fab")
		(effects
			(font
				(size 1 1)
				(thickness 0.15)
			)
		)
	)
	(attr smd)
	(fp_line
		(start -4.61 -4.135)
		(end -4.61 -4.37)
		(stroke
			(width 0.12)
			(type solid)
		)
		(layer "F.SilkS")
	)
	(fp_line
		(start -4.61 4.61)
		(end -4.61 4.135)
		(stroke
			(width 0.12)
			(type solid)
		)
		(layer "F.SilkS")
	)
	(fp_line
		(start -4.135 -4.61)
		(end -4.31 -4.61)
		(stroke
			(width 0.12)
			(type solid)
		)
		(layer "F.SilkS")
	)
	(fp_line
		(start -4.135 4.61)
		(end -4.61 4.61)
		(stroke
			(width 0.12)
			(type solid)
		)
		(layer "F.SilkS")
	)
	(fp_line
		(start 4.135 -4.61)
		(end 4.61 -4.61)
		(stroke
			(width 0.12)
			(type solid)
		)
		(layer "F.SilkS")
	)
	(fp_line
		(start 4.135 4.61)
		(end 4.61 4.61)
		(stroke
			(width 0.12)
			(type solid)
		)
		(layer "F.SilkS")
	)
	(fp_line
		(start 4.61 -4.61)
		(end 4.61 -4.135)
		(stroke
			(width 0.12)
			(type solid)
		)
		(layer "F.SilkS")
	)
	(fp_line
		(start 4.61 4.61)
		(end 4.61 4.135)
		(stroke
			(width 0.12)
			(type solid)
		)
		(layer "F.SilkS")
	)
	(fp_poly
		(pts
			(xy -4.61 -4.61)
			(xy -4.85 -4.94)
			(xy -4.37 -4.94)
		)
		(stroke
			(width 0.12)
			(type solid)
		)
		(fill yes)
		(layer "F.SilkS")
	)
	(fp_rect
		(start -5.13 -5.13)
		(end 5.13 5.13)
		(stroke
			(width 0.05)
			(type solid)
		)
		(fill no)
		(layer "F.CrtYd")
	)
	(fp_poly
		(pts
			(xy -4.5 -3.5)
			(xy -4.5 4.5)
			(xy 4.5 4.5)
			(xy 4.5 -4.5)
			(xy -3.5 -4.5)
		)
		(stroke
			(width 0.1)
			(type solid)
		)
		(fill no)
		(layer "F.Fab")
	)
	(fp_text user "${REFERENCE}"
		(at 0 0 0)
		(layer "F.Fab")
		(effects
			(font
				(size 1 1)
				(thickness 0.15)
			)
		)
	)
	(pad "" smd roundrect
		(at -2.0625 -2.0625)
		(size 1.209339 1.209339)
		(layers "F.Paste")
		(roundrect_rratio 0.206725)
	)
	(pad "" smd roundrect
		(at -2.0625 -0.6875)
		(size 1.209339 1.209339)
		(layers "F.Paste")
		(roundrect_rratio 0.206725)
	)
	(pad "" smd roundrect
		(at -2.0625 0.6875)
		(size 1.209339 1.209339)
		(layers "F.Paste")
		(roundrect_rratio 0.206725)
	)
	(pad "" smd roundrect
		(at -2.0625 2.0625)
		(size 1.209339 1.209339)
		(layers "F.Paste")
		(roundrect_rratio 0.206725)
	)
	(pad "" smd roundrect
		(at -0.6875 -2.0625)
		(size 1.209339 1.209339)
		(layers "F.Paste")
		(roundrect_rratio 0.206725)
	)
	(pad "" smd roundrect
		(at -0.6875 -0.6875)
		(size 1.209339 1.209339)
		(layers "F.Paste")
		(roundrect_rratio 0.206725)
	)
	(pad "" smd roundrect
		(at -0.6875 0.6875)
		(size 1.209339 1.209339)
		(layers "F.Paste")
		(roundrect_rratio 0.206725)
	)
	(pad "" smd roundrect
		(at -0.6875 2.0625)
		(size 1.209339 1.209339)
		(layers "F.Paste")
		(roundrect_rratio 0.206725)
	)
	(pad "" smd roundrect
		(at 0.6875 -2.0625)
		(size 1.209339 1.209339)
		(layers "F.Paste")
		(roundrect_rratio 0.206725)
	)
	(pad "" smd roundrect
		(at 0.6875 -0.6875)
		(size 1.209339 1.209339)
		(layers "F.Paste")
		(roundrect_rratio 0.206725)
	)
	(pad "" smd roundrect
		(at 0.6875 0.6875)
		(size 1.209339 1.209339)
		(layers "F.Paste")
		(roundrect_rratio 0.206725)
	)
	(pad "" smd roundrect
		(at 0.6875 2.0625)
		(size 1.209339 1.209339)
		(layers "F.Paste")
		(roundrect_rratio 0.206725)
	)
	(pad "" smd roundrect
		(at 2.0625 -2.0625)
		(size 1.209339 1.209339)
		(layers "F.Paste")
		(roundrect_rratio 0.206725)
	)
	(pad "" smd roundrect
		(at 2.0625 -0.6875)
		(size 1.209339 1.209339)
		(layers "F.Paste")
		(roundrect_rratio 0.206725)
	)
	(pad "" smd roundrect
		(at 2.0625 0.6875)
		(size 1.209339 1.209339)
		(layers "F.Paste")
		(roundrect_rratio 0.206725)
	)
	(pad "" smd roundrect
		(at 2.0625 2.0625)
		(size 1.209339 1.209339)
		(layers "F.Paste")
		(roundrect_rratio 0.206725)
	)
	(pad "1" smd roundrect
		(at -4.4375 -3.75)
		(size 0.875 0.25)
		(layers "F.Cu" "F.Mask" "F.Paste")
		(roundrect_rratio 0.25)
	)
	(pad "2" smd roundrect
		(at -4.4375 -3.25)
		(size 0.875 0.25)
		(layers "F.Cu" "F.Mask" "F.Paste")
		(roundrect_rratio 0.25)
	)
	(pad "3" smd roundrect
		(at -4.4375 -2.75)
		(size 0.875 0.25)
		(layers "F.Cu" "F.Mask" "F.Paste")
		(roundrect_rratio 0.25)
	)
	(pad "4" smd roundrect
		(at -4.4375 -2.25)
		(size 0.875 0.25)
		(layers "F.Cu" "F.Mask" "F.Paste")
		(roundrect_rratio 0.25)
	)
	(pad "5" smd roundrect
		(at -4.4375 -1.75)
		(size 0.875 0.25)
		(layers "F.Cu" "F.Mask" "F.Paste")
		(roundrect_rratio 0.25)
	)
	(pad "6" smd roundrect
		(at -4.4375 -1.25)
		(size 0.875 0.25)
		(layers "F.Cu" "F.Mask" "F.Paste")
		(roundrect_rratio 0.25)
	)
	(pad "7" smd roundrect
		(at -4.4375 -0.75)
		(size 0.875 0.25)
		(layers "F.Cu" "F.Mask" "F.Paste")
		(roundrect_rratio 0.25)
	)
	(pad "8" smd roundrect
		(at -4.4375 -0.25)
		(size 0.875 0.25)
		(layers "F.Cu" "F.Mask" "F.Paste")
		(roundrect_rratio 0.25)
	)
	(pad "9" smd roundrect
		(at -4.4375 0.25)
		(size 0.875 0.25)
		(layers "F.Cu" "F.Mask" "F.Paste")
		(roundrect_rratio 0.25)
	)
	(pad "10" smd roundrect
		(at -4.4375 0.75)
		(size 0.875 0.25)
		(layers "F.Cu" "F.Mask" "F.Paste")
		(roundrect_rratio 0.25)
	)
	(pad "11" smd roundrect
		(at -4.4375 1.25)
		(size 0.875 0.25)
		(layers "F.Cu" "F.Mask" "F.Paste")
		(roundrect_rratio 0.25)
	)
	(pad "12" smd roundrect
		(at -4.4375 1.75)
		(size 0.875 0.25)
		(layers "F.Cu" "F.Mask" "F.Paste")
		(roundrect_rratio 0.25)
	)
	(pad "13" smd roundrect
		(at -4.4375 2.25)
		(size 0.875 0.25)
		(layers "F.Cu" "F.Mask" "F.Paste")
		(roundrect_rratio 0.25)
	)
	(pad "14" smd roundrect
		(at -4.4375 2.75)
		(size 0.875 0.25)
		(layers "F.Cu" "F.Mask" "F.Paste")
		(roundrect_rratio 0.25)
	)
	(pad "15" smd roundrect
		(at -4.4375 3.25)
		(size 0.875 0.25)
		(layers "F.Cu" "F.Mask" "F.Paste")
		(roundrect_rratio 0.25)
	)
	(pad "16" smd roundrect
		(at -4.4375 3.75)
		(size 0.875 0.25)
		(layers "F.Cu" "F.Mask" "F.Paste")
		(roundrect_rratio 0.25)
	)
	(pad "17" smd roundrect
		(at -3.75 4.4375)
		(size 0.25 0.875)
		(layers "F.Cu" "F.Mask" "F.Paste")
		(roundrect_rratio 0.25)
	)
	(pad "18" smd roundrect
		(at -3.25 4.4375)
		(size 0.25 0.875)
		(layers "F.Cu" "F.Mask" "F.Paste")
		(roundrect_rratio 0.25)
	)
	(pad "19" smd roundrect
		(at -2.75 4.4375)
		(size 0.25 0.875)
		(layers "F.Cu" "F.Mask" "F.Paste")
		(roundrect_rratio 0.25)
	)
	(pad "20" smd roundrect
		(at -2.25 4.4375)
		(size 0.25 0.875)
		(layers "F.Cu" "F.Mask" "F.Paste")
		(roundrect_rratio 0.25)
	)
	(pad "21" smd roundrect
		(at -1.75 4.4375)
		(size 0.25 0.875)
		(layers "F.Cu" "F.Mask" "F.Paste")
		(roundrect_rratio 0.25)
	)
	(pad "22" smd roundrect
		(at -1.25 4.4375)
		(size 0.25 0.875)
		(layers "F.Cu" "F.Mask" "F.Paste")
		(roundrect_rratio 0.25)
	)
	(pad "23" smd roundrect
		(at -0.75 4.4375)
		(size 0.25 0.875)
		(layers "F.Cu" "F.Mask" "F.Paste")
		(roundrect_rratio 0.25)
	)
	(pad "24" smd roundrect
		(at -0.25 4.4375)
		(size 0.25 0.875)
		(layers "F.Cu" "F.Mask" "F.Paste")
		(roundrect_rratio 0.25)
	)
	(pad "25" smd roundrect
		(at 0.25 4.4375)
		(size 0.25 0.875)
		(layers "F.Cu" "F.Mask" "F.Paste")
		(roundrect_rratio 0.25)
	)
	(pad "26" smd roundrect
		(at 0.75 4.4375)
		(size 0.25 0.875)
		(layers "F.Cu" "F.Mask" "F.Paste")
		(roundrect_rratio 0.25)
	)
	(pad "27" smd roundrect
		(at 1.25 4.4375)
		(size 0.25 0.875)
		(layers "F.Cu" "F.Mask" "F.Paste")
		(roundrect_rratio 0.25)
	)
	(pad "28" smd roundrect
		(at 1.75 4.4375)
		(size 0.25 0.875)
		(layers "F.Cu" "F.Mask" "F.Paste")
		(roundrect_rratio 0.25)
	)
	(pad "29" smd roundrect
		(at 2.25 4.4375)
		(size 0.25 0.875)
		(layers "F.Cu" "F.Mask" "F.Paste")
		(roundrect_rratio 0.25)
	)
	(pad "30" smd roundrect
		(at 2.75 4.4375)
		(size 0.25 0.875)
		(layers "F.Cu" "F.Mask" "F.Paste")
		(roundrect_rratio 0.25)
	)
	(pad "31" smd roundrect
		(at 3.25 4.4375)
		(size 0.25 0.875)
		(layers "F.Cu" "F.Mask" "F.Paste")
		(roundrect_rratio 0.25)
	)
	(pad "32" smd roundrect
		(at 3.75 4.4375)
		(size 0.25 0.875)
		(layers "F.Cu" "F.Mask" "F.Paste")
		(roundrect_rratio 0.25)
	)
	(pad "33" smd roundrect
		(at 4.4375 3.75)
		(size 0.875 0.25)
		(layers "F.Cu" "F.Mask" "F.Paste")
		(roundrect_rratio 0.25)
	)
	(pad "34" smd roundrect
		(at 4.4375 3.25)
		(size 0.875 0.25)
		(layers "F.Cu" "F.Mask" "F.Paste")
		(roundrect_rratio 0.25)
	)
	(pad "35" smd roundrect
		(at 4.4375 2.75)
		(size 0.875 0.25)
		(layers "F.Cu" "F.Mask" "F.Paste")
		(roundrect_rratio 0.25)
	)
	(pad "36" smd roundrect
		(at 4.4375 2.25)
		(size 0.875 0.25)
		(layers "F.Cu" "F.Mask" "F.Paste")
		(roundrect_rratio 0.25)
	)
	(pad "37" smd roundrect
		(at 4.4375 1.75)
		(size 0.875 0.25)
		(layers "F.Cu" "F.Mask" "F.Paste")
		(roundrect_rratio 0.25)
	)
	(pad "38" smd roundrect
		(at 4.4375 1.25)
		(size 0.875 0.25)
		(layers "F.Cu" "F.Mask" "F.Paste")
		(roundrect_rratio 0.25)
	)
	(pad "39" smd roundrect
		(at 4.4375 0.75)
		(size 0.875 0.25)
		(layers "F.Cu" "F.Mask" "F.Paste")
		(roundrect_rratio 0.25)
	)
	(pad "40" smd roundrect
		(at 4.4375 0.25)
		(size 0.875 0.25)
		(layers "F.Cu" "F.Mask" "F.Paste")
		(roundrect_rratio 0.25)
	)
	(pad "41" smd roundrect
		(at 4.4375 -0.25)
		(size 0.875 0.25)
		(layers "F.Cu" "F.Mask" "F.Paste")
		(roundrect_rratio 0.25)
	)
	(pad "42" smd roundrect
		(at 4.4375 -0.75)
		(size 0.875 0.25)
		(layers "F.Cu" "F.Mask" "F.Paste")
		(roundrect_rratio 0.25)
	)
	(pad "43" smd roundrect
		(at 4.4375 -1.25)
		(size 0.875 0.25)
		(layers "F.Cu" "F.Mask" "F.Paste")
		(roundrect_rratio 0.25)
	)
	(pad "44" smd roundrect
		(at 4.4375 -1.75)
		(size 0.875 0.25)
		(layers "F.Cu" "F.Mask" "F.Paste")
		(roundrect_rratio 0.25)
	)
	(pad "45" smd roundrect
		(at 4.4375 -2.25)
		(size 0.875 0.25)
		(layers "F.Cu" "F.Mask" "F.Paste")
		(roundrect_rratio 0.25)
	)
	(pad "46" smd roundrect
		(at 4.4375 -2.75)
		(size 0.875 0.25)
		(layers "F.Cu" "F.Mask" "F.Paste")
		(roundrect_rratio 0.25)
	)
	(pad "47" smd roundrect
		(at 4.4375 -3.25)
		(size 0.875 0.25)
		(layers "F.Cu" "F.Mask" "F.Paste")
		(roundrect_rratio 0.25)
	)
	(pad "48" smd roundrect
		(at 4.4375 -3.75)
		(size 0.875 0.25)
		(layers "F.Cu" "F.Mask" "F.Paste")
		(roundrect_rratio 0.25)
	)
	(pad "49" smd roundrect
		(at 3.75 -4.4375)
		(size 0.25 0.875)
		(layers "F.Cu" "F.Mask" "F.Paste")
		(roundrect_rratio 0.25)
	)
	(pad "50" smd roundrect
		(at 3.25 -4.4375)
		(size 0.25 0.875)
		(layers "F.Cu" "F.Mask" "F.Paste")
		(roundrect_rratio 0.25)
	)
	(pad "51" smd roundrect
		(at 2.75 -4.4375)
		(size 0.25 0.875)
		(layers "F.Cu" "F.Mask" "F.Paste")
		(roundrect_rratio 0.25)
	)
	(pad "52" smd roundrect
		(at 2.25 -4.4375)
		(size 0.25 0.875)
		(layers "F.Cu" "F.Mask" "F.Paste")
		(roundrect_rratio 0.25)
	)
	(pad "53" smd roundrect
		(at 1.75 -4.4375)
		(size 0.25 0.875)
		(layers "F.Cu" "F.Mask" "F.Paste")
		(roundrect_rratio 0.25)
	)
	(pad "54" smd roundrect
		(at 1.25 -4.4375)
		(size 0.25 0.875)
		(layers "F.Cu" "F.Mask" "F.Paste")
		(roundrect_rratio 0.25)
	)
	(pad "55" smd roundrect
		(at 0.75 -4.4375)
		(size 0.25 0.875)
		(layers "F.Cu" "F.Mask" "F.Paste")
		(roundrect_rratio 0.25)
	)
	(pad "56" smd roundrect
		(at 0.25 -4.4375)
		(size 0.25 0.875)
		(layers "F.Cu" "F.Mask" "F.Paste")
		(roundrect_rratio 0.25)
	)
	(pad "57" smd roundrect
		(at -0.25 -4.4375)
		(size 0.25 0.875)
		(layers "F.Cu" "F.Mask" "F.Paste")
		(roundrect_rratio 0.25)
	)
	(pad "58" smd roundrect
		(at -0.75 -4.4375)
		(size 0.25 0.875)
		(layers "F.Cu" "F.Mask" "F.Paste")
		(roundrect_rratio 0.25)
	)
	(pad "59" smd roundrect
		(at -1.25 -4.4375)
		(size 0.25 0.875)
		(layers "F.Cu" "F.Mask" "F.Paste")
		(roundrect_rratio 0.25)
	)
	(pad "60" smd roundrect
		(at -1.75 -4.4375)
		(size 0.25 0.875)
		(layers "F.Cu" "F.Mask" "F.Paste")
		(roundrect_rratio 0.25)
	)
	(pad "61" smd roundrect
		(at -2.25 -4.4375)
		(size 0.25 0.875)
		(layers "F.Cu" "F.Mask" "F.Paste")
		(roundrect_rratio 0.25)
	)
	(pad "62" smd roundrect
		(at -2.75 -4.4375)
		(size 0.25 0.875)
		(layers "F.Cu" "F.Mask" "F.Paste")
		(roundrect_rratio 0.25)
	)
	(pad "63" smd roundrect
		(at -3.25 -4.4375)
		(size 0.25 0.875)
		(layers "F.Cu" "F.Mask" "F.Paste")
		(roundrect_rratio 0.25)
	)
	(pad "64" smd roundrect
		(at -3.75 -4.4375)
		(size 0.25 0.875)
		(layers "F.Cu" "F.Mask" "F.Paste")
		(roundrect_rratio 0.25)
	)
	(pad "65" thru_hole circle
		(at -2.75 -2.75)
		(size 0.5 0.5)
		(drill 0.2)
		(property pad_prop_heatsink)
		(layers "*.Cu")
		(remove_unused_layers no)
	)
	(pad "65" thru_hole circle
		(at -2.75 -1.375)
		(size 0.5 0.5)
		(drill 0.2)
		(property pad_prop_heatsink)
		(layers "*.Cu")
		(remove_unused_layers no)
	)
	(pad "65" thru_hole circle
		(at -2.75 0)
		(size 0.5 0.5)
		(drill 0.2)
		(property pad_prop_heatsink)
		(layers "*.Cu")
		(remove_unused_layers no)
	)
	(pad "65" thru_hole circle
		(at -2.75 1.375)
		(size 0.5 0.5)
		(drill 0.2)
		(property pad_prop_heatsink)
		(layers "*.Cu")
		(remove_unused_layers no)
	)
	(pad "65" thru_hole circle
		(at -2.75 2.75)
		(size 0.5 0.5)
		(drill 0.2)
		(property pad_prop_heatsink)
		(layers "*.Cu")
		(remove_unused_layers no)
	)
	(pad "65" thru_hole circle
		(at -1.375 -2.75)
		(size 0.5 0.5)
		(drill 0.2)
		(property pad_prop_heatsink)
		(layers "*.Cu")
		(remove_unused_layers no)
	)
	(pad "65" thru_hole circle
		(at -1.375 -1.375)
		(size 0.5 0.5)
		(drill 0.2)
		(property pad_prop_heatsink)
		(layers "*.Cu")
		(remove_unused_layers no)
	)
	(pad "65" thru_hole circle
		(at -1.375 0)
		(size 0.5 0.5)
		(drill 0.2)
		(property pad_prop_heatsink)
		(layers "*.Cu")
		(remove_unused_layers no)
	)
	(pad "65" thru_hole circle
		(at -1.375 1.375)
		(size 0.5 0.5)
		(drill 0.2)
		(property pad_prop_heatsink)
		(layers "*.Cu")
		(remove_unused_layers no)
	)
	(pad "65" thru_hole circle
		(at -1.375 2.75)
		(size 0.5 0.5)
		(drill 0.2)
		(property pad_prop_heatsink)
		(layers "*.Cu")
		(remove_unused_layers no)
	)
	(pad "65" thru_hole circle
		(at 0 -2.75)
		(size 0.5 0.5)
		(drill 0.2)
		(property pad_prop_heatsink)
		(layers "*.Cu")
		(remove_unused_layers no)
	)
	(pad "65" thru_hole circle
		(at 0 -1.375)
		(size 0.5 0.5)
		(drill 0.2)
		(property pad_prop_heatsink)
		(layers "*.Cu")
		(remove_unused_layers no)
	)
	(pad "65" thru_hole circle
		(at 0 0)
		(size 0.5 0.5)
		(drill 0.2)
		(property pad_prop_heatsink)
		(layers "*.Cu")
		(remove_unused_layers no)
	)
	(pad "65" smd rect
		(at 0 0)
		(size 6 6)
		(property pad_prop_heatsink)
		(layers "F.Cu" "F.Mask")
		(zone_connect 2)
	)
	(pad "65" smd rect
		(at 0 0)
		(size 6 6)
		(property pad_prop_heatsink)
		(layers "B.Cu")
		(zone_connect 2)
	)
	(pad "65" thru_hole circle
		(at 0 1.375)
		(size 0.5 0.5)
		(drill 0.2)
		(property pad_prop_heatsink)
		(layers "*.Cu")
		(remove_unused_layers no)
	)
	(pad "65" thru_hole circle
		(at 0 2.75)
		(size 0.5 0.5)
		(drill 0.2)
		(property pad_prop_heatsink)
		(layers "*.Cu")
		(remove_unused_layers no)
	)
	(pad "65" thru_hole circle
		(at 1.375 -2.75)
		(size 0.5 0.5)
		(drill 0.2)
		(property pad_prop_heatsink)
		(layers "*.Cu")
		(remove_unused_layers no)
	)
	(pad "65" thru_hole circle
		(at 1.375 -1.375)
		(size 0.5 0.5)
		(drill 0.2)
		(property pad_prop_heatsink)
		(layers "*.Cu")
		(remove_unused_layers no)
	)
	(pad "65" thru_hole circle
		(at 1.375 0)
		(size 0.5 0.5)
		(drill 0.2)
		(property pad_prop_heatsink)
		(layers "*.Cu")
		(remove_unused_layers no)
	)
	(pad "65" thru_hole circle
		(at 1.375 1.375)
		(size 0.5 0.5)
		(drill 0.2)
		(property pad_prop_heatsink)
		(layers "*.Cu")
		(remove_unused_layers no)
	)
	(pad "65" thru_hole circle
		(at 1.375 2.75)
		(size 0.5 0.5)
		(drill 0.2)
		(property pad_prop_heatsink)
		(layers "*.Cu")
		(remove_unused_layers no)
	)
	(pad "65" thru_hole circle
		(at 2.75 -2.75)
		(size 0.5 0.5)
		(drill 0.2)
		(property pad_prop_heatsink)
		(layers "*.Cu")
		(remove_unused_layers no)
	)
	(pad "65" thru_hole circle
		(at 2.75 -1.375)
		(size 0.5 0.5)
		(drill 0.2)
		(property pad_prop_heatsink)
		(layers "*.Cu")
		(remove_unused_layers no)
	)
	(pad "65" thru_hole circle
		(at 2.75 0)
		(size 0.5 0.5)
		(drill 0.2)
		(property pad_prop_heatsink)
		(layers "*.Cu")
		(remove_unused_layers no)
	)
	(pad "65" thru_hole circle
		(at 2.75 1.375)
		(size 0.5 0.5)
		(drill 0.2)
		(property pad_prop_heatsink)
		(layers "*.Cu")
		(remove_unused_layers no)
	)
	(pad "65" thru_hole circle
		(at 2.75 2.75)
		(size 0.5 0.5)
		(drill 0.2)
		(property pad_prop_heatsink)
		(layers "*.Cu")
		(remove_unused_layers no)
	)
	(embedded_fonts no)
	(model "${KICAD9_3DMODEL_DIR}/Package_DFN_QFN.3dshapes/QFN-64-1EP_9x9mm_P0.5mm_EP6x6mm.wrl"
		(offset
			(xyz 0 0 0)
		)
		(scale
			(xyz 1 1 1)
		)
		(rotate
			(xyz 0 0 0)
		)
	)
)
