(footprint "QFN-28-1EP_5x5mm_P0.5mm_EP3.35x3.35mm_ThermalVias"
	(version 20241229)
	(generator "kicad-footprint-generator")
	(layer "F.Cu")
	(descr "QFN, 28 Pin (http://ww1.microchip.com/downloads/en/PackagingSpec/00000049BQ.pdf#page=283), generated with kicad-footprint-generator ipc_noLead_generator.py")
	(tags "QFN NoLead")
	(property "Reference" "REF**"
		(at 0 -3.8 0)
		(layer "F.SilkS")
		(effects
			(font
				(size 1 1)
				(thickness 0.15)
			)
		)
	)
	(property "Value" "QFN-28-1EP_5x5mm_P0.5mm_EP3.35x3.35mm_ThermalVias"
		(at 0 3.8 0)
		(layer "F.Fab")
		(effects
			(font
				(size 1 1)
				(thickness 0.15)
			)
		)
	)
	(attr smd)
	(fp_line
		(start -2.61 -1.885)
		(end -2.61 -2.37)
		(stroke
			(width 0.12)
			(type solid)
		)
		(layer "F.SilkS")
	)
	(fp_line
		(start -2.61 2.61)
		(end -2.61 1.885)
		(stroke
			(width 0.12)
			(type solid)
		)
		(layer "F.SilkS")
	)
	(fp_line
		(start -1.885 -2.61)
		(end -2.31 -2.61)
		(stroke
			(width 0.12)
			(type solid)
		)
		(layer "F.SilkS")
	)
	(fp_line
		(start -1.885 2.61)
		(end -2.61 2.61)
		(stroke
			(width 0.12)
			(type solid)
		)
		(layer "F.SilkS")
	)
	(fp_line
		(start 1.885 -2.61)
		(end 2.61 -2.61)
		(stroke
			(width 0.12)
			(type solid)
		)
		(layer "F.SilkS")
	)
	(fp_line
		(start 1.885 2.61)
		(end 2.61 2.61)
		(stroke
			(width 0.12)
			(type solid)
		)
		(layer "F.SilkS")
	)
	(fp_line
		(start 2.61 -2.61)
		(end 2.61 -1.885)
		(stroke
			(width 0.12)
			(type solid)
		)
		(layer "F.SilkS")
	)
	(fp_line
		(start 2.61 2.61)
		(end 2.61 1.885)
		(stroke
			(width 0.12)
			(type solid)
		)
		(layer "F.SilkS")
	)
	(fp_poly
		(pts
			(xy -2.61 -2.61)
			(xy -2.85 -2.94)
			(xy -2.37 -2.94)
		)
		(stroke
			(width 0.12)
			(type solid)
		)
		(fill yes)
		(layer "F.SilkS")
	)
	(fp_rect
		(start -3.1 -3.1)
		(end 3.1 3.1)
		(stroke
			(width 0.05)
			(type solid)
		)
		(fill no)
		(layer "F.CrtYd")
	)
	(fp_poly
		(pts
			(xy -2.5 -1.5)
			(xy -2.5 2.5)
			(xy 2.5 2.5)
			(xy 2.5 -2.5)
			(xy -1.5 -2.5)
		)
		(stroke
			(width 0.1)
			(type solid)
		)
		(fill no)
		(layer "F.Fab")
	)
	(fp_text user "${REFERENCE}"
		(at 0 0 0)
		(layer "F.Fab")
		(effects
			(font
				(size 1 1)
				(thickness 0.15)
			)
		)
	)
	(pad "" smd custom
		(at -1.3375 -1.3375)
		(size 0.43669 0.43669)
		(layers "F.Paste")
		(options
			(clearance outline)
			(anchor circle)
		)
		(primitives
			(gr_poly
				(pts
					(xy -0.164589 -0.164589)
					(xy 0.164589 -0.164589)
					(xy 0.164589 0.075523)
					(xy 0.075523 0.164589)
					(xy -0.164589 0.164589)
				)
				(width 0.215024)
				(fill yes)
			)
		)
	)
	(pad "" smd custom
		(at -1.3375 -0.5)
		(size 0.458956 0.458956)
		(layers "F.Paste")
		(options
			(clearance outline)
			(anchor circle)
		)
		(primitives
			(gr_poly
				(pts
					(xy -0.186855 -0.317866)
					(xy 0.116234 -0.317866)
					(xy 0.186855 -0.247246)
					(xy 0.186855 0.247246)
					(xy 0.116234 0.317866)
					(xy -0.186855 0.317866)
				)
				(width 0.170493)
				(fill yes)
			)
		)
	)
	(pad "" smd custom
		(at -1.3375 0.5)
		(size 0.458956 0.458956)
		(layers "F.Paste")
		(options
			(clearance outline)
			(anchor circle)
		)
		(primitives
			(gr_poly
				(pts
					(xy -0.186855 -0.317866)
					(xy 0.116234 -0.317866)
					(xy 0.186855 -0.247246)
					(xy 0.186855 0.247246)
					(xy 0.116234 0.317866)
					(xy -0.186855 0.317866)
				)
				(width 0.170493)
				(fill yes)
			)
		)
	)
	(pad "" smd custom
		(at -1.3375 1.3375)
		(size 0.43669 0.43669)
		(layers "F.Paste")
		(options
			(clearance outline)
			(anchor circle)
		)
		(primitives
			(gr_poly
				(pts
					(xy -0.164589 -0.164589)
					(xy 0.075523 -0.164589)
					(xy 0.164589 -0.075523)
					(xy 0.164589 0.164589)
					(xy -0.164589 0.164589)
				)
				(width 0.215024)
				(fill yes)
			)
		)
	)
	(pad "" smd custom
		(at -0.5 -1.3375)
		(size 0.458956 0.458956)
		(layers "F.Paste")
		(options
			(clearance outline)
			(anchor circle)
		)
		(primitives
			(gr_poly
				(pts
					(xy -0.317866 -0.186855)
					(xy 0.317866 -0.186855)
					(xy 0.317866 0.116234)
					(xy 0.247246 0.186855)
					(xy -0.247246 0.186855)
					(xy -0.317866 0.116234)
				)
				(width 0.170493)
				(fill yes)
			)
		)
	)
	(pad "" smd roundrect
		(at -0.5 -0.5)
		(size 0.806226 0.806226)
		(layers "F.Paste")
		(roundrect_rratio 0.25)
	)
	(pad "" smd roundrect
		(at -0.5 0.5)
		(size 0.806226 0.806226)
		(layers "F.Paste")
		(roundrect_rratio 0.25)
	)
	(pad "" smd custom
		(at -0.5 1.3375)
		(size 0.458956 0.458956)
		(layers "F.Paste")
		(options
			(clearance outline)
			(anchor circle)
		)
		(primitives
			(gr_poly
				(pts
					(xy -0.317866 -0.116234)
					(xy -0.247246 -0.186855)
					(xy 0.247246 -0.186855)
					(xy 0.317866 -0.116234)
					(xy 0.317866 0.186855)
					(xy -0.317866 0.186855)
				)
				(width 0.170493)
				(fill yes)
			)
		)
	)
	(pad "" smd custom
		(at 0.5 -1.3375)
		(size 0.458956 0.458956)
		(layers "F.Paste")
		(options
			(clearance outline)
			(anchor circle)
		)
		(primitives
			(gr_poly
				(pts
					(xy -0.317866 -0.186855)
					(xy 0.317866 -0.186855)
					(xy 0.317866 0.116234)
					(xy 0.247246 0.186855)
					(xy -0.247246 0.186855)
					(xy -0.317866 0.116234)
				)
				(width 0.170493)
				(fill yes)
			)
		)
	)
	(pad "" smd roundrect
		(at 0.5 -0.5)
		(size 0.806226 0.806226)
		(layers "F.Paste")
		(roundrect_rratio 0.25)
	)
	(pad "" smd roundrect
		(at 0.5 0.5)
		(size 0.806226 0.806226)
		(layers "F.Paste")
		(roundrect_rratio 0.25)
	)
	(pad "" smd custom
		(at 0.5 1.3375)
		(size 0.458956 0.458956)
		(layers "F.Paste")
		(options
			(clearance outline)
			(anchor circle)
		)
		(primitives
			(gr_poly
				(pts
					(xy -0.317866 -0.116234)
					(xy -0.247246 -0.186855)
					(xy 0.247246 -0.186855)
					(xy 0.317866 -0.116234)
					(xy 0.317866 0.186855)
					(xy -0.317866 0.186855)
				)
				(width 0.170493)
				(fill yes)
			)
		)
	)
	(pad "" smd custom
		(at 1.3375 -1.3375)
		(size 0.43669 0.43669)
		(layers "F.Paste")
		(options
			(clearance outline)
			(anchor circle)
		)
		(primitives
			(gr_poly
				(pts
					(xy -0.164589 -0.164589)
					(xy 0.164589 -0.164589)
					(xy 0.164589 0.164589)
					(xy -0.075523 0.164589)
					(xy -0.164589 0.075523)
				)
				(width 0.215024)
				(fill yes)
			)
		)
	)
	(pad "" smd custom
		(at 1.3375 -0.5)
		(size 0.458956 0.458956)
		(layers "F.Paste")
		(options
			(clearance outline)
			(anchor circle)
		)
		(primitives
			(gr_poly
				(pts
					(xy -0.186855 -0.247246)
					(xy -0.116234 -0.317866)
					(xy 0.186855 -0.317866)
					(xy 0.186855 0.317866)
					(xy -0.116234 0.317866)
					(xy -0.186855 0.247246)
				)
				(width 0.170493)
				(fill yes)
			)
		)
	)
	(pad "" smd custom
		(at 1.3375 0.5)
		(size 0.458956 0.458956)
		(layers "F.Paste")
		(options
			(clearance outline)
			(anchor circle)
		)
		(primitives
			(gr_poly
				(pts
					(xy -0.186855 -0.247246)
					(xy -0.116234 -0.317866)
					(xy 0.186855 -0.317866)
					(xy 0.186855 0.317866)
					(xy -0.116234 0.317866)
					(xy -0.186855 0.247246)
				)
				(width 0.170493)
				(fill yes)
			)
		)
	)
	(pad "" smd custom
		(at 1.3375 1.3375)
		(size 0.43669 0.43669)
		(layers "F.Paste")
		(options
			(clearance outline)
			(anchor circle)
		)
		(primitives
			(gr_poly
				(pts
					(xy -0.164589 -0.075523)
					(xy -0.075523 -0.164589)
					(xy 0.164589 -0.164589)
					(xy 0.164589 0.164589)
					(xy -0.164589 0.164589)
				)
				(width 0.215024)
				(fill yes)
			)
		)
	)
	(pad "1" smd roundrect
		(at -2.45 -1.5)
		(size 0.8 0.25)
		(layers "F.Cu" "F.Mask" "F.Paste")
		(roundrect_rratio 0.25)
	)
	(pad "2" smd roundrect
		(at -2.45 -1)
		(size 0.8 0.25)
		(layers "F.Cu" "F.Mask" "F.Paste")
		(roundrect_rratio 0.25)
	)
	(pad "3" smd roundrect
		(at -2.45 -0.5)
		(size 0.8 0.25)
		(layers "F.Cu" "F.Mask" "F.Paste")
		(roundrect_rratio 0.25)
	)
	(pad "4" smd roundrect
		(at -2.45 0)
		(size 0.8 0.25)
		(layers "F.Cu" "F.Mask" "F.Paste")
		(roundrect_rratio 0.25)
	)
	(pad "5" smd roundrect
		(at -2.45 0.5)
		(size 0.8 0.25)
		(layers "F.Cu" "F.Mask" "F.Paste")
		(roundrect_rratio 0.25)
	)
	(pad "6" smd roundrect
		(at -2.45 1)
		(size 0.8 0.25)
		(layers "F.Cu" "F.Mask" "F.Paste")
		(roundrect_rratio 0.25)
	)
	(pad "7" smd roundrect
		(at -2.45 1.5)
		(size 0.8 0.25)
		(layers "F.Cu" "F.Mask" "F.Paste")
		(roundrect_rratio 0.25)
	)
	(pad "8" smd roundrect
		(at -1.5 2.45)
		(size 0.25 0.8)
		(layers "F.Cu" "F.Mask" "F.Paste")
		(roundrect_rratio 0.25)
	)
	(pad "9" smd roundrect
		(at -1 2.45)
		(size 0.25 0.8)
		(layers "F.Cu" "F.Mask" "F.Paste")
		(roundrect_rratio 0.25)
	)
	(pad "10" smd roundrect
		(at -0.5 2.45)
		(size 0.25 0.8)
		(layers "F.Cu" "F.Mask" "F.Paste")
		(roundrect_rratio 0.25)
	)
	(pad "11" smd roundrect
		(at 0 2.45)
		(size 0.25 0.8)
		(layers "F.Cu" "F.Mask" "F.Paste")
		(roundrect_rratio 0.25)
	)
	(pad "12" smd roundrect
		(at 0.5 2.45)
		(size 0.25 0.8)
		(layers "F.Cu" "F.Mask" "F.Paste")
		(roundrect_rratio 0.25)
	)
	(pad "13" smd roundrect
		(at 1 2.45)
		(size 0.25 0.8)
		(layers "F.Cu" "F.Mask" "F.Paste")
		(roundrect_rratio 0.25)
	)
	(pad "14" smd roundrect
		(at 1.5 2.45)
		(size 0.25 0.8)
		(layers "F.Cu" "F.Mask" "F.Paste")
		(roundrect_rratio 0.25)
	)
	(pad "15" smd roundrect
		(at 2.45 1.5)
		(size 0.8 0.25)
		(layers "F.Cu" "F.Mask" "F.Paste")
		(roundrect_rratio 0.25)
	)
	(pad "16" smd roundrect
		(at 2.45 1)
		(size 0.8 0.25)
		(layers "F.Cu" "F.Mask" "F.Paste")
		(roundrect_rratio 0.25)
	)
	(pad "17" smd roundrect
		(at 2.45 0.5)
		(size 0.8 0.25)
		(layers "F.Cu" "F.Mask" "F.Paste")
		(roundrect_rratio 0.25)
	)
	(pad "18" smd roundrect
		(at 2.45 0)
		(size 0.8 0.25)
		(layers "F.Cu" "F.Mask" "F.Paste")
		(roundrect_rratio 0.25)
	)
	(pad "19" smd roundrect
		(at 2.45 -0.5)
		(size 0.8 0.25)
		(layers "F.Cu" "F.Mask" "F.Paste")
		(roundrect_rratio 0.25)
	)
	(pad "20" smd roundrect
		(at 2.45 -1)
		(size 0.8 0.25)
		(layers "F.Cu" "F.Mask" "F.Paste")
		(roundrect_rratio 0.25)
	)
	(pad "21" smd roundrect
		(at 2.45 -1.5)
		(size 0.8 0.25)
		(layers "F.Cu" "F.Mask" "F.Paste")
		(roundrect_rratio 0.25)
	)
	(pad "22" smd roundrect
		(at 1.5 -2.45)
		(size 0.25 0.8)
		(layers "F.Cu" "F.Mask" "F.Paste")
		(roundrect_rratio 0.25)
	)
	(pad "23" smd roundrect
		(at 1 -2.45)
		(size 0.25 0.8)
		(layers "F.Cu" "F.Mask" "F.Paste")
		(roundrect_rratio 0.25)
	)
	(pad "24" smd roundrect
		(at 0.5 -2.45)
		(size 0.25 0.8)
		(layers "F.Cu" "F.Mask" "F.Paste")
		(roundrect_rratio 0.25)
	)
	(pad "25" smd roundrect
		(at 0 -2.45)
		(size 0.25 0.8)
		(layers "F.Cu" "F.Mask" "F.Paste")
		(roundrect_rratio 0.25)
	)
	(pad "26" smd roundrect
		(at -0.5 -2.45)
		(size 0.25 0.8)
		(layers "F.Cu" "F.Mask" "F.Paste")
		(roundrect_rratio 0.25)
	)
	(pad "27" smd roundrect
		(at -1 -2.45)
		(size 0.25 0.8)
		(layers "F.Cu" "F.Mask" "F.Paste")
		(roundrect_rratio 0.25)
	)
	(pad "28" smd roundrect
		(at -1.5 -2.45)
		(size 0.25 0.8)
		(layers "F.Cu" "F.Mask" "F.Paste")
		(roundrect_rratio 0.25)
	)
	(pad "29" thru_hole circle
		(at -1 -1)
		(size 0.5 0.5)
		(drill 0.2)
		(property pad_prop_heatsink)
		(layers "*.Cu")
		(remove_unused_layers no)
	)
	(pad "29" thru_hole circle
		(at -1 0)
		(size 0.5 0.5)
		(drill 0.2)
		(property pad_prop_heatsink)
		(layers "*.Cu")
		(remove_unused_layers no)
	)
	(pad "29" thru_hole circle
		(at -1 1)
		(size 0.5 0.5)
		(drill 0.2)
		(property pad_prop_heatsink)
		(layers "*.Cu")
		(remove_unused_layers no)
	)
	(pad "29" thru_hole circle
		(at 0 -1)
		(size 0.5 0.5)
		(drill 0.2)
		(property pad_prop_heatsink)
		(layers "*.Cu")
		(remove_unused_layers no)
	)
	(pad "29" thru_hole circle
		(at 0 0)
		(size 0.5 0.5)
		(drill 0.2)
		(property pad_prop_heatsink)
		(layers "*.Cu")
		(remove_unused_layers no)
	)
	(pad "29" smd rect
		(at 0 0)
		(size 2.5 2.5)
		(property pad_prop_heatsink)
		(layers "B.Cu")
		(zone_connect 2)
	)
	(pad "29" smd rect
		(at 0 0)
		(size 3.35 3.35)
		(property pad_prop_heatsink)
		(layers "F.Cu" "F.Mask")
		(zone_connect 2)
	)
	(pad "29" thru_hole circle
		(at 0 1)
		(size 0.5 0.5)
		(drill 0.2)
		(property pad_prop_heatsink)
		(layers "*.Cu")
		(remove_unused_layers no)
	)
	(pad "29" thru_hole circle
		(at 1 -1)
		(size 0.5 0.5)
		(drill 0.2)
		(property pad_prop_heatsink)
		(layers "*.Cu")
		(remove_unused_layers no)
	)
	(pad "29" thru_hole circle
		(at 1 0)
		(size 0.5 0.5)
		(drill 0.2)
		(property pad_prop_heatsink)
		(layers "*.Cu")
		(remove_unused_layers no)
	)
	(pad "29" thru_hole circle
		(at 1 1)
		(size 0.5 0.5)
		(drill 0.2)
		(property pad_prop_heatsink)
		(layers "*.Cu")
		(remove_unused_layers no)
	)
	(embedded_fonts no)
	(model "${KICAD9_3DMODEL_DIR}/Package_DFN_QFN.3dshapes/QFN-28-1EP_5x5mm_P0.5mm_EP3.35x3.35mm.wrl"
		(offset
			(xyz 0 0 0)
		)
		(scale
			(xyz 1 1 1)
		)
		(rotate
			(xyz 0 0 0)
		)
	)
)
