(footprint "QFN-32-1EP_5x5mm_P0.5mm_EP3.45x3.45mm_ThermalVias"
	(version 20241229)
	(generator "kicad-footprint-generator")
	(layer "F.Cu")
	(descr "QFN, 32 Pin (http://www.analog.com/media/en/package-pcb-resources/package/pkg_pdf/ltc-legacy-qfn/QFN_32_05-08-1693.pdf), generated with kicad-footprint-generator ipc_noLead_generator.py")
	(tags "QFN NoLead")
	(property "Reference" "REF**"
		(at 0 -3.83 0)
		(layer "F.SilkS")
		(effects
			(font
				(size 1 1)
				(thickness 0.15)
			)
		)
	)
	(property "Value" "QFN-32-1EP_5x5mm_P0.5mm_EP3.45x3.45mm_ThermalVias"
		(at 0 3.83 0)
		(layer "F.Fab")
		(effects
			(font
				(size 1 1)
				(thickness 0.15)
			)
		)
	)
	(attr smd)
	(fp_line
		(start -2.61 -2.135)
		(end -2.61 -2.37)
		(stroke
			(width 0.12)
			(type solid)
		)
		(layer "F.SilkS")
	)
	(fp_line
		(start -2.61 2.61)
		(end -2.61 2.135)
		(stroke
			(width 0.12)
			(type solid)
		)
		(layer "F.SilkS")
	)
	(fp_line
		(start -2.135 -2.61)
		(end -2.31 -2.61)
		(stroke
			(width 0.12)
			(type solid)
		)
		(layer "F.SilkS")
	)
	(fp_line
		(start -2.135 2.61)
		(end -2.61 2.61)
		(stroke
			(width 0.12)
			(type solid)
		)
		(layer "F.SilkS")
	)
	(fp_line
		(start 2.135 -2.61)
		(end 2.61 -2.61)
		(stroke
			(width 0.12)
			(type solid)
		)
		(layer "F.SilkS")
	)
	(fp_line
		(start 2.135 2.61)
		(end 2.61 2.61)
		(stroke
			(width 0.12)
			(type solid)
		)
		(layer "F.SilkS")
	)
	(fp_line
		(start 2.61 -2.61)
		(end 2.61 -2.135)
		(stroke
			(width 0.12)
			(type solid)
		)
		(layer "F.SilkS")
	)
	(fp_line
		(start 2.61 2.61)
		(end 2.61 2.135)
		(stroke
			(width 0.12)
			(type solid)
		)
		(layer "F.SilkS")
	)
	(fp_poly
		(pts
			(xy -2.61 -2.61)
			(xy -2.85 -2.94)
			(xy -2.37 -2.94)
		)
		(stroke
			(width 0.12)
			(type solid)
		)
		(fill yes)
		(layer "F.SilkS")
	)
	(fp_rect
		(start -3.13 -3.13)
		(end 3.13 3.13)
		(stroke
			(width 0.05)
			(type solid)
		)
		(fill no)
		(layer "F.CrtYd")
	)
	(fp_poly
		(pts
			(xy -2.5 -1.5)
			(xy -2.5 2.5)
			(xy 2.5 2.5)
			(xy 2.5 -2.5)
			(xy -1.5 -2.5)
		)
		(stroke
			(width 0.1)
			(type solid)
		)
		(fill no)
		(layer "F.Fab")
	)
	(fp_text user "${REFERENCE}"
		(at 0 0 0)
		(layer "F.Fab")
		(effects
			(font
				(size 1 1)
				(thickness 0.15)
			)
		)
	)
	(pad "" smd custom
		(at -1.3625 -1.3625)
		(size 0.483853 0.483853)
		(layers "F.Paste")
		(options
			(clearance outline)
			(anchor circle)
		)
		(primitives
			(gr_poly
				(pts
					(xy -0.191596 -0.191596)
					(xy 0.191596 -0.191596)
					(xy 0.191596 0.108205)
					(xy 0.108205 0.191596)
					(xy -0.191596 0.191596)
				)
				(width 0.201322)
				(fill yes)
			)
		)
	)
	(pad "" smd custom
		(at -1.3625 -0.5)
		(size 0.502693 0.502693)
		(layers "F.Paste")
		(options
			(clearance outline)
			(anchor circle)
		)
		(primitives
			(gr_poly
				(pts
					(xy -0.210436 -0.321292)
					(xy 0.142653 -0.321292)
					(xy 0.210436 -0.253509)
					(xy 0.210436 0.253509)
					(xy 0.142653 0.321292)
					(xy -0.210436 0.321292)
				)
				(width 0.163642)
				(fill yes)
			)
		)
	)
	(pad "" smd custom
		(at -1.3625 0.5)
		(size 0.502693 0.502693)
		(layers "F.Paste")
		(options
			(clearance outline)
			(anchor circle)
		)
		(primitives
			(gr_poly
				(pts
					(xy -0.210436 -0.321292)
					(xy 0.142653 -0.321292)
					(xy 0.210436 -0.253509)
					(xy 0.210436 0.253509)
					(xy 0.142653 0.321292)
					(xy -0.210436 0.321292)
				)
				(width 0.163642)
				(fill yes)
			)
		)
	)
	(pad "" smd custom
		(at -1.3625 1.3625)
		(size 0.483853 0.483853)
		(layers "F.Paste")
		(options
			(clearance outline)
			(anchor circle)
		)
		(primitives
			(gr_poly
				(pts
					(xy -0.191596 -0.191596)
					(xy 0.108205 -0.191596)
					(xy 0.191596 -0.108205)
					(xy 0.191596 0.191596)
					(xy -0.191596 0.191596)
				)
				(width 0.201322)
				(fill yes)
			)
		)
	)
	(pad "" smd custom
		(at -0.5 -1.3625)
		(size 0.502693 0.502693)
		(layers "F.Paste")
		(options
			(clearance outline)
			(anchor circle)
		)
		(primitives
			(gr_poly
				(pts
					(xy -0.321292 -0.210436)
					(xy 0.321292 -0.210436)
					(xy 0.321292 0.142653)
					(xy 0.253509 0.210436)
					(xy -0.253509 0.210436)
					(xy -0.321292 0.142653)
				)
				(width 0.163642)
				(fill yes)
			)
		)
	)
	(pad "" smd roundrect
		(at -0.5 -0.5)
		(size 0.806226 0.806226)
		(layers "F.Paste")
		(roundrect_rratio 0.25)
	)
	(pad "" smd roundrect
		(at -0.5 0.5)
		(size 0.806226 0.806226)
		(layers "F.Paste")
		(roundrect_rratio 0.25)
	)
	(pad "" smd custom
		(at -0.5 1.3625)
		(size 0.502693 0.502693)
		(layers "F.Paste")
		(options
			(clearance outline)
			(anchor circle)
		)
		(primitives
			(gr_poly
				(pts
					(xy -0.321292 -0.142653)
					(xy -0.253509 -0.210436)
					(xy 0.253509 -0.210436)
					(xy 0.321292 -0.142653)
					(xy 0.321292 0.210436)
					(xy -0.321292 0.210436)
				)
				(width 0.163642)
				(fill yes)
			)
		)
	)
	(pad "" smd custom
		(at 0.5 -1.3625)
		(size 0.502693 0.502693)
		(layers "F.Paste")
		(options
			(clearance outline)
			(anchor circle)
		)
		(primitives
			(gr_poly
				(pts
					(xy -0.321292 -0.210436)
					(xy 0.321292 -0.210436)
					(xy 0.321292 0.142653)
					(xy 0.253509 0.210436)
					(xy -0.253509 0.210436)
					(xy -0.321292 0.142653)
				)
				(width 0.163642)
				(fill yes)
			)
		)
	)
	(pad "" smd roundrect
		(at 0.5 -0.5)
		(size 0.806226 0.806226)
		(layers "F.Paste")
		(roundrect_rratio 0.25)
	)
	(pad "" smd roundrect
		(at 0.5 0.5)
		(size 0.806226 0.806226)
		(layers "F.Paste")
		(roundrect_rratio 0.25)
	)
	(pad "" smd custom
		(at 0.5 1.3625)
		(size 0.502693 0.502693)
		(layers "F.Paste")
		(options
			(clearance outline)
			(anchor circle)
		)
		(primitives
			(gr_poly
				(pts
					(xy -0.321292 -0.142653)
					(xy -0.253509 -0.210436)
					(xy 0.253509 -0.210436)
					(xy 0.321292 -0.142653)
					(xy 0.321292 0.210436)
					(xy -0.321292 0.210436)
				)
				(width 0.163642)
				(fill yes)
			)
		)
	)
	(pad "" smd custom
		(at 1.3625 -1.3625)
		(size 0.483853 0.483853)
		(layers "F.Paste")
		(options
			(clearance outline)
			(anchor circle)
		)
		(primitives
			(gr_poly
				(pts
					(xy -0.191596 -0.191596)
					(xy 0.191596 -0.191596)
					(xy 0.191596 0.191596)
					(xy -0.108205 0.191596)
					(xy -0.191596 0.108205)
				)
				(width 0.201322)
				(fill yes)
			)
		)
	)
	(pad "" smd custom
		(at 1.3625 -0.5)
		(size 0.502693 0.502693)
		(layers "F.Paste")
		(options
			(clearance outline)
			(anchor circle)
		)
		(primitives
			(gr_poly
				(pts
					(xy -0.210436 -0.253509)
					(xy -0.142653 -0.321292)
					(xy 0.210436 -0.321292)
					(xy 0.210436 0.321292)
					(xy -0.142653 0.321292)
					(xy -0.210436 0.253509)
				)
				(width 0.163642)
				(fill yes)
			)
		)
	)
	(pad "" smd custom
		(at 1.3625 0.5)
		(size 0.502693 0.502693)
		(layers "F.Paste")
		(options
			(clearance outline)
			(anchor circle)
		)
		(primitives
			(gr_poly
				(pts
					(xy -0.210436 -0.253509)
					(xy -0.142653 -0.321292)
					(xy 0.210436 -0.321292)
					(xy 0.210436 0.321292)
					(xy -0.142653 0.321292)
					(xy -0.210436 0.253509)
				)
				(width 0.163642)
				(fill yes)
			)
		)
	)
	(pad "" smd custom
		(at 1.3625 1.3625)
		(size 0.483853 0.483853)
		(layers "F.Paste")
		(options
			(clearance outline)
			(anchor circle)
		)
		(primitives
			(gr_poly
				(pts
					(xy -0.191596 -0.108205)
					(xy -0.108205 -0.191596)
					(xy 0.191596 -0.191596)
					(xy 0.191596 0.191596)
					(xy -0.191596 0.191596)
				)
				(width 0.201322)
				(fill yes)
			)
		)
	)
	(pad "1" smd roundrect
		(at -2.4375 -1.75)
		(size 0.875 0.25)
		(layers "F.Cu" "F.Mask" "F.Paste")
		(roundrect_rratio 0.25)
	)
	(pad "2" smd roundrect
		(at -2.4375 -1.25)
		(size 0.875 0.25)
		(layers "F.Cu" "F.Mask" "F.Paste")
		(roundrect_rratio 0.25)
	)
	(pad "3" smd roundrect
		(at -2.4375 -0.75)
		(size 0.875 0.25)
		(layers "F.Cu" "F.Mask" "F.Paste")
		(roundrect_rratio 0.25)
	)
	(pad "4" smd roundrect
		(at -2.4375 -0.25)
		(size 0.875 0.25)
		(layers "F.Cu" "F.Mask" "F.Paste")
		(roundrect_rratio 0.25)
	)
	(pad "5" smd roundrect
		(at -2.4375 0.25)
		(size 0.875 0.25)
		(layers "F.Cu" "F.Mask" "F.Paste")
		(roundrect_rratio 0.25)
	)
	(pad "6" smd roundrect
		(at -2.4375 0.75)
		(size 0.875 0.25)
		(layers "F.Cu" "F.Mask" "F.Paste")
		(roundrect_rratio 0.25)
	)
	(pad "7" smd roundrect
		(at -2.4375 1.25)
		(size 0.875 0.25)
		(layers "F.Cu" "F.Mask" "F.Paste")
		(roundrect_rratio 0.25)
	)
	(pad "8" smd roundrect
		(at -2.4375 1.75)
		(size 0.875 0.25)
		(layers "F.Cu" "F.Mask" "F.Paste")
		(roundrect_rratio 0.25)
	)
	(pad "9" smd roundrect
		(at -1.75 2.4375)
		(size 0.25 0.875)
		(layers "F.Cu" "F.Mask" "F.Paste")
		(roundrect_rratio 0.25)
	)
	(pad "10" smd roundrect
		(at -1.25 2.4375)
		(size 0.25 0.875)
		(layers "F.Cu" "F.Mask" "F.Paste")
		(roundrect_rratio 0.25)
	)
	(pad "11" smd roundrect
		(at -0.75 2.4375)
		(size 0.25 0.875)
		(layers "F.Cu" "F.Mask" "F.Paste")
		(roundrect_rratio 0.25)
	)
	(pad "12" smd roundrect
		(at -0.25 2.4375)
		(size 0.25 0.875)
		(layers "F.Cu" "F.Mask" "F.Paste")
		(roundrect_rratio 0.25)
	)
	(pad "13" smd roundrect
		(at 0.25 2.4375)
		(size 0.25 0.875)
		(layers "F.Cu" "F.Mask" "F.Paste")
		(roundrect_rratio 0.25)
	)
	(pad "14" smd roundrect
		(at 0.75 2.4375)
		(size 0.25 0.875)
		(layers "F.Cu" "F.Mask" "F.Paste")
		(roundrect_rratio 0.25)
	)
	(pad "15" smd roundrect
		(at 1.25 2.4375)
		(size 0.25 0.875)
		(layers "F.Cu" "F.Mask" "F.Paste")
		(roundrect_rratio 0.25)
	)
	(pad "16" smd roundrect
		(at 1.75 2.4375)
		(size 0.25 0.875)
		(layers "F.Cu" "F.Mask" "F.Paste")
		(roundrect_rratio 0.25)
	)
	(pad "17" smd roundrect
		(at 2.4375 1.75)
		(size 0.875 0.25)
		(layers "F.Cu" "F.Mask" "F.Paste")
		(roundrect_rratio 0.25)
	)
	(pad "18" smd roundrect
		(at 2.4375 1.25)
		(size 0.875 0.25)
		(layers "F.Cu" "F.Mask" "F.Paste")
		(roundrect_rratio 0.25)
	)
	(pad "19" smd roundrect
		(at 2.4375 0.75)
		(size 0.875 0.25)
		(layers "F.Cu" "F.Mask" "F.Paste")
		(roundrect_rratio 0.25)
	)
	(pad "20" smd roundrect
		(at 2.4375 0.25)
		(size 0.875 0.25)
		(layers "F.Cu" "F.Mask" "F.Paste")
		(roundrect_rratio 0.25)
	)
	(pad "21" smd roundrect
		(at 2.4375 -0.25)
		(size 0.875 0.25)
		(layers "F.Cu" "F.Mask" "F.Paste")
		(roundrect_rratio 0.25)
	)
	(pad "22" smd roundrect
		(at 2.4375 -0.75)
		(size 0.875 0.25)
		(layers "F.Cu" "F.Mask" "F.Paste")
		(roundrect_rratio 0.25)
	)
	(pad "23" smd roundrect
		(at 2.4375 -1.25)
		(size 0.875 0.25)
		(layers "F.Cu" "F.Mask" "F.Paste")
		(roundrect_rratio 0.25)
	)
	(pad "24" smd roundrect
		(at 2.4375 -1.75)
		(size 0.875 0.25)
		(layers "F.Cu" "F.Mask" "F.Paste")
		(roundrect_rratio 0.25)
	)
	(pad "25" smd roundrect
		(at 1.75 -2.4375)
		(size 0.25 0.875)
		(layers "F.Cu" "F.Mask" "F.Paste")
		(roundrect_rratio 0.25)
	)
	(pad "26" smd roundrect
		(at 1.25 -2.4375)
		(size 0.25 0.875)
		(layers "F.Cu" "F.Mask" "F.Paste")
		(roundrect_rratio 0.25)
	)
	(pad "27" smd roundrect
		(at 0.75 -2.4375)
		(size 0.25 0.875)
		(layers "F.Cu" "F.Mask" "F.Paste")
		(roundrect_rratio 0.25)
	)
	(pad "28" smd roundrect
		(at 0.25 -2.4375)
		(size 0.25 0.875)
		(layers "F.Cu" "F.Mask" "F.Paste")
		(roundrect_rratio 0.25)
	)
	(pad "29" smd roundrect
		(at -0.25 -2.4375)
		(size 0.25 0.875)
		(layers "F.Cu" "F.Mask" "F.Paste")
		(roundrect_rratio 0.25)
	)
	(pad "30" smd roundrect
		(at -0.75 -2.4375)
		(size 0.25 0.875)
		(layers "F.Cu" "F.Mask" "F.Paste")
		(roundrect_rratio 0.25)
	)
	(pad "31" smd roundrect
		(at -1.25 -2.4375)
		(size 0.25 0.875)
		(layers "F.Cu" "F.Mask" "F.Paste")
		(roundrect_rratio 0.25)
	)
	(pad "32" smd roundrect
		(at -1.75 -2.4375)
		(size 0.25 0.875)
		(layers "F.Cu" "F.Mask" "F.Paste")
		(roundrect_rratio 0.25)
	)
	(pad "33" thru_hole circle
		(at -1 -1)
		(size 0.5 0.5)
		(drill 0.2)
		(property pad_prop_heatsink)
		(layers "*.Cu")
		(remove_unused_layers no)
	)
	(pad "33" thru_hole circle
		(at -1 0)
		(size 0.5 0.5)
		(drill 0.2)
		(property pad_prop_heatsink)
		(layers "*.Cu")
		(remove_unused_layers no)
	)
	(pad "33" thru_hole circle
		(at -1 1)
		(size 0.5 0.5)
		(drill 0.2)
		(property pad_prop_heatsink)
		(layers "*.Cu")
		(remove_unused_layers no)
	)
	(pad "33" thru_hole circle
		(at 0 -1)
		(size 0.5 0.5)
		(drill 0.2)
		(property pad_prop_heatsink)
		(layers "*.Cu")
		(remove_unused_layers no)
	)
	(pad "33" thru_hole circle
		(at 0 0)
		(size 0.5 0.5)
		(drill 0.2)
		(property pad_prop_heatsink)
		(layers "*.Cu")
		(remove_unused_layers no)
	)
	(pad "33" smd rect
		(at 0 0)
		(size 2.5 2.5)
		(property pad_prop_heatsink)
		(layers "B.Cu")
		(zone_connect 2)
	)
	(pad "33" smd rect
		(at 0 0)
		(size 3.45 3.45)
		(property pad_prop_heatsink)
		(layers "F.Cu" "F.Mask")
		(zone_connect 2)
	)
	(pad "33" thru_hole circle
		(at 0 1)
		(size 0.5 0.5)
		(drill 0.2)
		(property pad_prop_heatsink)
		(layers "*.Cu")
		(remove_unused_layers no)
	)
	(pad "33" thru_hole circle
		(at 1 -1)
		(size 0.5 0.5)
		(drill 0.2)
		(property pad_prop_heatsink)
		(layers "*.Cu")
		(remove_unused_layers no)
	)
	(pad "33" thru_hole circle
		(at 1 0)
		(size 0.5 0.5)
		(drill 0.2)
		(property pad_prop_heatsink)
		(layers "*.Cu")
		(remove_unused_layers no)
	)
	(pad "33" thru_hole circle
		(at 1 1)
		(size 0.5 0.5)
		(drill 0.2)
		(property pad_prop_heatsink)
		(layers "*.Cu")
		(remove_unused_layers no)
	)
	(embedded_fonts no)
	(model "${KICAD9_3DMODEL_DIR}/Package_DFN_QFN.3dshapes/QFN-32-1EP_5x5mm_P0.5mm_EP3.45x3.45mm.wrl"
		(offset
			(xyz 0 0 0)
		)
		(scale
			(xyz 1 1 1)
		)
		(rotate
			(xyz 0 0 0)
		)
	)
)
