(footprint "Texas_RGP0020H_VQFN-20-1EP_4x4mm_P0.5mm_EP2.4x2.4mm_ThermalVias"
	(version 20241229)
	(generator "kicad-footprint-generator")
	(layer "F.Cu")
	(descr "Texas RGP0020H VQFN, 20 Pin (http://www.ti.com/lit/ds/symlink/cc1101.pdf#page=101), generated with kicad-footprint-generator ipc_noLead_generator.py")
	(tags "Texas VQFN NoLead")
	(property "Reference" "REF**"
		(at 0 -3.33 0)
		(layer "F.SilkS")
		(effects
			(font
				(size 1 1)
				(thickness 0.15)
			)
		)
	)
	(property "Value" "Texas_RGP0020H_VQFN-20-1EP_4x4mm_P0.5mm_EP2.4x2.4mm_ThermalVias"
		(at 0 3.33 0)
		(layer "F.Fab")
		(effects
			(font
				(size 1 1)
				(thickness 0.15)
			)
		)
	)
	(attr smd)
	(fp_line
		(start -2.11 -1.385)
		(end -2.11 -1.87)
		(stroke
			(width 0.12)
			(type solid)
		)
		(layer "F.SilkS")
	)
	(fp_line
		(start -2.11 2.11)
		(end -2.11 1.385)
		(stroke
			(width 0.12)
			(type solid)
		)
		(layer "F.SilkS")
	)
	(fp_line
		(start -1.385 -2.11)
		(end -1.81 -2.11)
		(stroke
			(width 0.12)
			(type solid)
		)
		(layer "F.SilkS")
	)
	(fp_line
		(start -1.385 2.11)
		(end -2.11 2.11)
		(stroke
			(width 0.12)
			(type solid)
		)
		(layer "F.SilkS")
	)
	(fp_line
		(start 1.385 -2.11)
		(end 2.11 -2.11)
		(stroke
			(width 0.12)
			(type solid)
		)
		(layer "F.SilkS")
	)
	(fp_line
		(start 1.385 2.11)
		(end 2.11 2.11)
		(stroke
			(width 0.12)
			(type solid)
		)
		(layer "F.SilkS")
	)
	(fp_line
		(start 2.11 -2.11)
		(end 2.11 -1.385)
		(stroke
			(width 0.12)
			(type solid)
		)
		(layer "F.SilkS")
	)
	(fp_line
		(start 2.11 2.11)
		(end 2.11 1.385)
		(stroke
			(width 0.12)
			(type solid)
		)
		(layer "F.SilkS")
	)
	(fp_poly
		(pts
			(xy -2.11 -2.11)
			(xy -2.35 -2.44)
			(xy -1.87 -2.44)
		)
		(stroke
			(width 0.12)
			(type solid)
		)
		(fill yes)
		(layer "F.SilkS")
	)
	(fp_rect
		(start -2.63 -2.63)
		(end 2.63 2.63)
		(stroke
			(width 0.05)
			(type solid)
		)
		(fill no)
		(layer "F.CrtYd")
	)
	(fp_poly
		(pts
			(xy -2 -1)
			(xy -2 2)
			(xy 2 2)
			(xy 2 -2)
			(xy -1 -2)
		)
		(stroke
			(width 0.1)
			(type solid)
		)
		(fill no)
		(layer "F.Fab")
	)
	(fp_text user "${REFERENCE}"
		(at 0 0 0)
		(layer "F.Fab")
		(effects
			(font
				(size 1 1)
				(thickness 0.15)
			)
		)
	)
	(pad "" smd custom
		(at -0.475 -0.475)
		(size 0.72028 0.72028)
		(layers "F.Paste")
		(options
			(clearance outline)
			(anchor circle)
		)
		(primitives
			(gr_poly
				(pts
					(xy -0.296016 -0.189771)
					(xy -0.189771 -0.296016)
					(xy 0.189771 -0.296016)
					(xy 0.296016 -0.189771)
					(xy 0.296016 0.189771)
					(xy 0.189771 0.296016)
					(xy -0.189771 0.296016)
					(xy -0.296016 0.189771)
				)
				(width 0.256497)
				(fill yes)
			)
		)
	)
	(pad "" smd custom
		(at -0.475 0.475)
		(size 0.72028 0.72028)
		(layers "F.Paste")
		(options
			(clearance outline)
			(anchor circle)
		)
		(primitives
			(gr_poly
				(pts
					(xy -0.296016 -0.189771)
					(xy -0.189771 -0.296016)
					(xy 0.189771 -0.296016)
					(xy 0.296016 -0.189771)
					(xy 0.296016 0.189771)
					(xy 0.189771 0.296016)
					(xy -0.189771 0.296016)
					(xy -0.296016 0.189771)
				)
				(width 0.256497)
				(fill yes)
			)
		)
	)
	(pad "" smd custom
		(at 0.475 -0.475)
		(size 0.72028 0.72028)
		(layers "F.Paste")
		(options
			(clearance outline)
			(anchor circle)
		)
		(primitives
			(gr_poly
				(pts
					(xy -0.296016 -0.189771)
					(xy -0.189771 -0.296016)
					(xy 0.189771 -0.296016)
					(xy 0.296016 -0.189771)
					(xy 0.296016 0.189771)
					(xy 0.189771 0.296016)
					(xy -0.189771 0.296016)
					(xy -0.296016 0.189771)
				)
				(width 0.256497)
				(fill yes)
			)
		)
	)
	(pad "" smd custom
		(at 0.475 0.475)
		(size 0.72028 0.72028)
		(layers "F.Paste")
		(options
			(clearance outline)
			(anchor circle)
		)
		(primitives
			(gr_poly
				(pts
					(xy -0.296016 -0.189771)
					(xy -0.189771 -0.296016)
					(xy 0.189771 -0.296016)
					(xy 0.296016 -0.189771)
					(xy 0.296016 0.189771)
					(xy 0.189771 0.296016)
					(xy -0.189771 0.296016)
					(xy -0.296016 0.189771)
				)
				(width 0.256497)
				(fill yes)
			)
		)
	)
	(pad "1" smd roundrect
		(at -1.8875 -1)
		(size 0.975 0.25)
		(layers "F.Cu" "F.Mask" "F.Paste")
		(roundrect_rratio 0.25)
	)
	(pad "2" smd roundrect
		(at -1.8875 -0.5)
		(size 0.975 0.25)
		(layers "F.Cu" "F.Mask" "F.Paste")
		(roundrect_rratio 0.25)
	)
	(pad "3" smd roundrect
		(at -1.8875 0)
		(size 0.975 0.25)
		(layers "F.Cu" "F.Mask" "F.Paste")
		(roundrect_rratio 0.25)
	)
	(pad "4" smd roundrect
		(at -1.8875 0.5)
		(size 0.975 0.25)
		(layers "F.Cu" "F.Mask" "F.Paste")
		(roundrect_rratio 0.25)
	)
	(pad "5" smd roundrect
		(at -1.8875 1)
		(size 0.975 0.25)
		(layers "F.Cu" "F.Mask" "F.Paste")
		(roundrect_rratio 0.25)
	)
	(pad "6" smd roundrect
		(at -1 1.8875)
		(size 0.25 0.975)
		(layers "F.Cu" "F.Mask" "F.Paste")
		(roundrect_rratio 0.25)
	)
	(pad "7" smd roundrect
		(at -0.5 1.8875)
		(size 0.25 0.975)
		(layers "F.Cu" "F.Mask" "F.Paste")
		(roundrect_rratio 0.25)
	)
	(pad "8" smd roundrect
		(at 0 1.8875)
		(size 0.25 0.975)
		(layers "F.Cu" "F.Mask" "F.Paste")
		(roundrect_rratio 0.25)
	)
	(pad "9" smd roundrect
		(at 0.5 1.8875)
		(size 0.25 0.975)
		(layers "F.Cu" "F.Mask" "F.Paste")
		(roundrect_rratio 0.25)
	)
	(pad "10" smd roundrect
		(at 1 1.8875)
		(size 0.25 0.975)
		(layers "F.Cu" "F.Mask" "F.Paste")
		(roundrect_rratio 0.25)
	)
	(pad "11" smd roundrect
		(at 1.8875 1)
		(size 0.975 0.25)
		(layers "F.Cu" "F.Mask" "F.Paste")
		(roundrect_rratio 0.25)
	)
	(pad "12" smd roundrect
		(at 1.8875 0.5)
		(size 0.975 0.25)
		(layers "F.Cu" "F.Mask" "F.Paste")
		(roundrect_rratio 0.25)
	)
	(pad "13" smd roundrect
		(at 1.8875 0)
		(size 0.975 0.25)
		(layers "F.Cu" "F.Mask" "F.Paste")
		(roundrect_rratio 0.25)
	)
	(pad "14" smd roundrect
		(at 1.8875 -0.5)
		(size 0.975 0.25)
		(layers "F.Cu" "F.Mask" "F.Paste")
		(roundrect_rratio 0.25)
	)
	(pad "15" smd roundrect
		(at 1.8875 -1)
		(size 0.975 0.25)
		(layers "F.Cu" "F.Mask" "F.Paste")
		(roundrect_rratio 0.25)
	)
	(pad "16" smd roundrect
		(at 1 -1.8875)
		(size 0.25 0.975)
		(layers "F.Cu" "F.Mask" "F.Paste")
		(roundrect_rratio 0.25)
	)
	(pad "17" smd roundrect
		(at 0.5 -1.8875)
		(size 0.25 0.975)
		(layers "F.Cu" "F.Mask" "F.Paste")
		(roundrect_rratio 0.25)
	)
	(pad "18" smd roundrect
		(at 0 -1.8875)
		(size 0.25 0.975)
		(layers "F.Cu" "F.Mask" "F.Paste")
		(roundrect_rratio 0.25)
	)
	(pad "19" smd roundrect
		(at -0.5 -1.8875)
		(size 0.25 0.975)
		(layers "F.Cu" "F.Mask" "F.Paste")
		(roundrect_rratio 0.25)
	)
	(pad "20" smd roundrect
		(at -1 -1.8875)
		(size 0.25 0.975)
		(layers "F.Cu" "F.Mask" "F.Paste")
		(roundrect_rratio 0.25)
	)
	(pad "21" thru_hole circle
		(at -0.95 -0.95)
		(size 0.5 0.5)
		(drill 0.2)
		(property pad_prop_heatsink)
		(layers "*.Cu")
		(remove_unused_layers no)
	)
	(pad "21" thru_hole circle
		(at -0.95 0)
		(size 0.5 0.5)
		(drill 0.2)
		(property pad_prop_heatsink)
		(layers "*.Cu")
		(remove_unused_layers no)
	)
	(pad "21" thru_hole circle
		(at -0.95 0.95)
		(size 0.5 0.5)
		(drill 0.2)
		(property pad_prop_heatsink)
		(layers "*.Cu")
		(remove_unused_layers no)
	)
	(pad "21" thru_hole circle
		(at 0 -0.95)
		(size 0.5 0.5)
		(drill 0.2)
		(property pad_prop_heatsink)
		(layers "*.Cu")
		(remove_unused_layers no)
	)
	(pad "21" thru_hole circle
		(at 0 0)
		(size 0.5 0.5)
		(drill 0.2)
		(property pad_prop_heatsink)
		(layers "*.Cu")
		(remove_unused_layers no)
	)
	(pad "21" smd rect
		(at 0 0)
		(size 2.4 2.4)
		(property pad_prop_heatsink)
		(layers "F.Cu" "F.Mask")
		(zone_connect 2)
	)
	(pad "21" smd rect
		(at 0 0)
		(size 2.4 2.4)
		(property pad_prop_heatsink)
		(layers "B.Cu")
		(zone_connect 2)
	)
	(pad "21" thru_hole circle
		(at 0 0.95)
		(size 0.5 0.5)
		(drill 0.2)
		(property pad_prop_heatsink)
		(layers "*.Cu")
		(remove_unused_layers no)
	)
	(pad "21" thru_hole circle
		(at 0.95 -0.95)
		(size 0.5 0.5)
		(drill 0.2)
		(property pad_prop_heatsink)
		(layers "*.Cu")
		(remove_unused_layers no)
	)
	(pad "21" thru_hole circle
		(at 0.95 0)
		(size 0.5 0.5)
		(drill 0.2)
		(property pad_prop_heatsink)
		(layers "*.Cu")
		(remove_unused_layers no)
	)
	(pad "21" thru_hole circle
		(at 0.95 0.95)
		(size 0.5 0.5)
		(drill 0.2)
		(property pad_prop_heatsink)
		(layers "*.Cu")
		(remove_unused_layers no)
	)
	(embedded_fonts no)
	(model "${KICAD9_3DMODEL_DIR}/Package_DFN_QFN.3dshapes/Texas_RGP0020H_VQFN-20-1EP_4x4mm_P0.5mm_EP2.4x2.4mm.wrl"
		(offset
			(xyz 0 0 0)
		)
		(scale
			(xyz 1 1 1)
		)
		(rotate
			(xyz 0 0 0)
		)
	)
)
