(footprint "UQFN-48-1EP_6x6mm_P0.4mm_EP4.45x4.45mm_ThermalVias"
	(version 20241229)
	(generator "kicad-footprint-generator")
	(layer "F.Cu")
	(descr "UQFN, 48 Pin (http://ww1.microchip.com/downloads/en/PackagingSpec/00000049BQ.pdf#page=347), generated with kicad-footprint-generator ipc_noLead_generator.py")
	(tags "UQFN NoLead")
	(property "Reference" "REF**"
		(at 0 -4.3 0)
		(layer "F.SilkS")
		(effects
			(font
				(size 1 1)
				(thickness 0.15)
			)
		)
	)
	(property "Value" "UQFN-48-1EP_6x6mm_P0.4mm_EP4.45x4.45mm_ThermalVias"
		(at 0 4.3 0)
		(layer "F.Fab")
		(effects
			(font
				(size 1 1)
				(thickness 0.15)
			)
		)
	)
	(attr smd)
	(fp_line
		(start -3.11 -2.56)
		(end -3.11 -2.87)
		(stroke
			(width 0.12)
			(type solid)
		)
		(layer "F.SilkS")
	)
	(fp_line
		(start -3.11 3.11)
		(end -3.11 2.56)
		(stroke
			(width 0.12)
			(type solid)
		)
		(layer "F.SilkS")
	)
	(fp_line
		(start -2.56 -3.11)
		(end -2.81 -3.11)
		(stroke
			(width 0.12)
			(type solid)
		)
		(layer "F.SilkS")
	)
	(fp_line
		(start -2.56 3.11)
		(end -3.11 3.11)
		(stroke
			(width 0.12)
			(type solid)
		)
		(layer "F.SilkS")
	)
	(fp_line
		(start 2.56 -3.11)
		(end 3.11 -3.11)
		(stroke
			(width 0.12)
			(type solid)
		)
		(layer "F.SilkS")
	)
	(fp_line
		(start 2.56 3.11)
		(end 3.11 3.11)
		(stroke
			(width 0.12)
			(type solid)
		)
		(layer "F.SilkS")
	)
	(fp_line
		(start 3.11 -3.11)
		(end 3.11 -2.56)
		(stroke
			(width 0.12)
			(type solid)
		)
		(layer "F.SilkS")
	)
	(fp_line
		(start 3.11 3.11)
		(end 3.11 2.56)
		(stroke
			(width 0.12)
			(type solid)
		)
		(layer "F.SilkS")
	)
	(fp_poly
		(pts
			(xy -3.11 -3.11)
			(xy -3.35 -3.44)
			(xy -2.87 -3.44)
		)
		(stroke
			(width 0.12)
			(type solid)
		)
		(fill yes)
		(layer "F.SilkS")
	)
	(fp_rect
		(start -3.6 -3.6)
		(end 3.6 3.6)
		(stroke
			(width 0.05)
			(type solid)
		)
		(fill no)
		(layer "F.CrtYd")
	)
	(fp_poly
		(pts
			(xy -3 -2)
			(xy -3 3)
			(xy 3 3)
			(xy 3 -3)
			(xy -2 -3)
		)
		(stroke
			(width 0.1)
			(type solid)
		)
		(fill no)
		(layer "F.Fab")
	)
	(fp_text user "${REFERENCE}"
		(at 0 0 0)
		(layer "F.Fab")
		(effects
			(font
				(size 1 1)
				(thickness 0.15)
			)
		)
	)
	(pad "" smd custom
		(at -1.8125 -1.8125)
		(size 0.578177 0.578177)
		(layers "F.Paste")
		(options
			(clearance outline)
			(anchor circle)
		)
		(primitives
			(gr_poly
				(pts
					(xy -0.245609 -0.245609)
					(xy 0.245609 -0.245609)
					(xy 0.245609 0.173569)
					(xy 0.173569 0.245609)
					(xy -0.245609 0.245609)
				)
				(width 0.173919)
				(fill yes)
			)
		)
	)
	(pad "" smd roundrect
		(at -1.8125 -0.7)
		(size 0.665136 1.128716)
		(layers "F.Paste")
		(roundrect_rratio 0.25)
	)
	(pad "" smd roundrect
		(at -1.8125 0.7)
		(size 0.665136 1.128716)
		(layers "F.Paste")
		(roundrect_rratio 0.25)
	)
	(pad "" smd custom
		(at -1.8125 1.8125)
		(size 0.578177 0.578177)
		(layers "F.Paste")
		(options
			(clearance outline)
			(anchor circle)
		)
		(primitives
			(gr_poly
				(pts
					(xy -0.245609 -0.245609)
					(xy 0.173569 -0.245609)
					(xy 0.245609 -0.173569)
					(xy 0.245609 0.245609)
					(xy -0.245609 0.245609)
				)
				(width 0.173919)
				(fill yes)
			)
		)
	)
	(pad "" smd roundrect
		(at -0.7 -1.8125)
		(size 1.128716 0.665136)
		(layers "F.Paste")
		(roundrect_rratio 0.25)
	)
	(pad "" smd roundrect
		(at -0.7 -0.7)
		(size 1.128716 1.128716)
		(layers "F.Paste")
		(roundrect_rratio 0.221491)
	)
	(pad "" smd roundrect
		(at -0.7 0.7)
		(size 1.128716 1.128716)
		(layers "F.Paste")
		(roundrect_rratio 0.221491)
	)
	(pad "" smd roundrect
		(at -0.7 1.8125)
		(size 1.128716 0.665136)
		(layers "F.Paste")
		(roundrect_rratio 0.25)
	)
	(pad "" smd roundrect
		(at 0.7 -1.8125)
		(size 1.128716 0.665136)
		(layers "F.Paste")
		(roundrect_rratio 0.25)
	)
	(pad "" smd roundrect
		(at 0.7 -0.7)
		(size 1.128716 1.128716)
		(layers "F.Paste")
		(roundrect_rratio 0.221491)
	)
	(pad "" smd roundrect
		(at 0.7 0.7)
		(size 1.128716 1.128716)
		(layers "F.Paste")
		(roundrect_rratio 0.221491)
	)
	(pad "" smd roundrect
		(at 0.7 1.8125)
		(size 1.128716 0.665136)
		(layers "F.Paste")
		(roundrect_rratio 0.25)
	)
	(pad "" smd custom
		(at 1.8125 -1.8125)
		(size 0.578177 0.578177)
		(layers "F.Paste")
		(options
			(clearance outline)
			(anchor circle)
		)
		(primitives
			(gr_poly
				(pts
					(xy -0.245609 -0.245609)
					(xy 0.245609 -0.245609)
					(xy 0.245609 0.245609)
					(xy -0.173569 0.245609)
					(xy -0.245609 0.173569)
				)
				(width 0.173919)
				(fill yes)
			)
		)
	)
	(pad "" smd roundrect
		(at 1.8125 -0.7)
		(size 0.665136 1.128716)
		(layers "F.Paste")
		(roundrect_rratio 0.25)
	)
	(pad "" smd roundrect
		(at 1.8125 0.7)
		(size 0.665136 1.128716)
		(layers "F.Paste")
		(roundrect_rratio 0.25)
	)
	(pad "" smd custom
		(at 1.8125 1.8125)
		(size 0.578177 0.578177)
		(layers "F.Paste")
		(options
			(clearance outline)
			(anchor circle)
		)
		(primitives
			(gr_poly
				(pts
					(xy -0.245609 -0.173569)
					(xy -0.173569 -0.245609)
					(xy 0.245609 -0.245609)
					(xy 0.245609 0.245609)
					(xy -0.245609 0.245609)
				)
				(width 0.173919)
				(fill yes)
			)
		)
	)
	(pad "1" smd roundrect
		(at -2.9375 -2.2)
		(size 0.825 0.2)
		(layers "F.Cu" "F.Mask" "F.Paste")
		(roundrect_rratio 0.25)
	)
	(pad "2" smd roundrect
		(at -2.9375 -1.8)
		(size 0.825 0.2)
		(layers "F.Cu" "F.Mask" "F.Paste")
		(roundrect_rratio 0.25)
	)
	(pad "3" smd roundrect
		(at -2.9375 -1.4)
		(size 0.825 0.2)
		(layers "F.Cu" "F.Mask" "F.Paste")
		(roundrect_rratio 0.25)
	)
	(pad "4" smd roundrect
		(at -2.9375 -1)
		(size 0.825 0.2)
		(layers "F.Cu" "F.Mask" "F.Paste")
		(roundrect_rratio 0.25)
	)
	(pad "5" smd roundrect
		(at -2.9375 -0.6)
		(size 0.825 0.2)
		(layers "F.Cu" "F.Mask" "F.Paste")
		(roundrect_rratio 0.25)
	)
	(pad "6" smd roundrect
		(at -2.9375 -0.2)
		(size 0.825 0.2)
		(layers "F.Cu" "F.Mask" "F.Paste")
		(roundrect_rratio 0.25)
	)
	(pad "7" smd roundrect
		(at -2.9375 0.2)
		(size 0.825 0.2)
		(layers "F.Cu" "F.Mask" "F.Paste")
		(roundrect_rratio 0.25)
	)
	(pad "8" smd roundrect
		(at -2.9375 0.6)
		(size 0.825 0.2)
		(layers "F.Cu" "F.Mask" "F.Paste")
		(roundrect_rratio 0.25)
	)
	(pad "9" smd roundrect
		(at -2.9375 1)
		(size 0.825 0.2)
		(layers "F.Cu" "F.Mask" "F.Paste")
		(roundrect_rratio 0.25)
	)
	(pad "10" smd roundrect
		(at -2.9375 1.4)
		(size 0.825 0.2)
		(layers "F.Cu" "F.Mask" "F.Paste")
		(roundrect_rratio 0.25)
	)
	(pad "11" smd roundrect
		(at -2.9375 1.8)
		(size 0.825 0.2)
		(layers "F.Cu" "F.Mask" "F.Paste")
		(roundrect_rratio 0.25)
	)
	(pad "12" smd roundrect
		(at -2.9375 2.2)
		(size 0.825 0.2)
		(layers "F.Cu" "F.Mask" "F.Paste")
		(roundrect_rratio 0.25)
	)
	(pad "13" smd roundrect
		(at -2.2 2.9375)
		(size 0.2 0.825)
		(layers "F.Cu" "F.Mask" "F.Paste")
		(roundrect_rratio 0.25)
	)
	(pad "14" smd roundrect
		(at -1.8 2.9375)
		(size 0.2 0.825)
		(layers "F.Cu" "F.Mask" "F.Paste")
		(roundrect_rratio 0.25)
	)
	(pad "15" smd roundrect
		(at -1.4 2.9375)
		(size 0.2 0.825)
		(layers "F.Cu" "F.Mask" "F.Paste")
		(roundrect_rratio 0.25)
	)
	(pad "16" smd roundrect
		(at -1 2.9375)
		(size 0.2 0.825)
		(layers "F.Cu" "F.Mask" "F.Paste")
		(roundrect_rratio 0.25)
	)
	(pad "17" smd roundrect
		(at -0.6 2.9375)
		(size 0.2 0.825)
		(layers "F.Cu" "F.Mask" "F.Paste")
		(roundrect_rratio 0.25)
	)
	(pad "18" smd roundrect
		(at -0.2 2.9375)
		(size 0.2 0.825)
		(layers "F.Cu" "F.Mask" "F.Paste")
		(roundrect_rratio 0.25)
	)
	(pad "19" smd roundrect
		(at 0.2 2.9375)
		(size 0.2 0.825)
		(layers "F.Cu" "F.Mask" "F.Paste")
		(roundrect_rratio 0.25)
	)
	(pad "20" smd roundrect
		(at 0.6 2.9375)
		(size 0.2 0.825)
		(layers "F.Cu" "F.Mask" "F.Paste")
		(roundrect_rratio 0.25)
	)
	(pad "21" smd roundrect
		(at 1 2.9375)
		(size 0.2 0.825)
		(layers "F.Cu" "F.Mask" "F.Paste")
		(roundrect_rratio 0.25)
	)
	(pad "22" smd roundrect
		(at 1.4 2.9375)
		(size 0.2 0.825)
		(layers "F.Cu" "F.Mask" "F.Paste")
		(roundrect_rratio 0.25)
	)
	(pad "23" smd roundrect
		(at 1.8 2.9375)
		(size 0.2 0.825)
		(layers "F.Cu" "F.Mask" "F.Paste")
		(roundrect_rratio 0.25)
	)
	(pad "24" smd roundrect
		(at 2.2 2.9375)
		(size 0.2 0.825)
		(layers "F.Cu" "F.Mask" "F.Paste")
		(roundrect_rratio 0.25)
	)
	(pad "25" smd roundrect
		(at 2.9375 2.2)
		(size 0.825 0.2)
		(layers "F.Cu" "F.Mask" "F.Paste")
		(roundrect_rratio 0.25)
	)
	(pad "26" smd roundrect
		(at 2.9375 1.8)
		(size 0.825 0.2)
		(layers "F.Cu" "F.Mask" "F.Paste")
		(roundrect_rratio 0.25)
	)
	(pad "27" smd roundrect
		(at 2.9375 1.4)
		(size 0.825 0.2)
		(layers "F.Cu" "F.Mask" "F.Paste")
		(roundrect_rratio 0.25)
	)
	(pad "28" smd roundrect
		(at 2.9375 1)
		(size 0.825 0.2)
		(layers "F.Cu" "F.Mask" "F.Paste")
		(roundrect_rratio 0.25)
	)
	(pad "29" smd roundrect
		(at 2.9375 0.6)
		(size 0.825 0.2)
		(layers "F.Cu" "F.Mask" "F.Paste")
		(roundrect_rratio 0.25)
	)
	(pad "30" smd roundrect
		(at 2.9375 0.2)
		(size 0.825 0.2)
		(layers "F.Cu" "F.Mask" "F.Paste")
		(roundrect_rratio 0.25)
	)
	(pad "31" smd roundrect
		(at 2.9375 -0.2)
		(size 0.825 0.2)
		(layers "F.Cu" "F.Mask" "F.Paste")
		(roundrect_rratio 0.25)
	)
	(pad "32" smd roundrect
		(at 2.9375 -0.6)
		(size 0.825 0.2)
		(layers "F.Cu" "F.Mask" "F.Paste")
		(roundrect_rratio 0.25)
	)
	(pad "33" smd roundrect
		(at 2.9375 -1)
		(size 0.825 0.2)
		(layers "F.Cu" "F.Mask" "F.Paste")
		(roundrect_rratio 0.25)
	)
	(pad "34" smd roundrect
		(at 2.9375 -1.4)
		(size 0.825 0.2)
		(layers "F.Cu" "F.Mask" "F.Paste")
		(roundrect_rratio 0.25)
	)
	(pad "35" smd roundrect
		(at 2.9375 -1.8)
		(size 0.825 0.2)
		(layers "F.Cu" "F.Mask" "F.Paste")
		(roundrect_rratio 0.25)
	)
	(pad "36" smd roundrect
		(at 2.9375 -2.2)
		(size 0.825 0.2)
		(layers "F.Cu" "F.Mask" "F.Paste")
		(roundrect_rratio 0.25)
	)
	(pad "37" smd roundrect
		(at 2.2 -2.9375)
		(size 0.2 0.825)
		(layers "F.Cu" "F.Mask" "F.Paste")
		(roundrect_rratio 0.25)
	)
	(pad "38" smd roundrect
		(at 1.8 -2.9375)
		(size 0.2 0.825)
		(layers "F.Cu" "F.Mask" "F.Paste")
		(roundrect_rratio 0.25)
	)
	(pad "39" smd roundrect
		(at 1.4 -2.9375)
		(size 0.2 0.825)
		(layers "F.Cu" "F.Mask" "F.Paste")
		(roundrect_rratio 0.25)
	)
	(pad "40" smd roundrect
		(at 1 -2.9375)
		(size 0.2 0.825)
		(layers "F.Cu" "F.Mask" "F.Paste")
		(roundrect_rratio 0.25)
	)
	(pad "41" smd roundrect
		(at 0.6 -2.9375)
		(size 0.2 0.825)
		(layers "F.Cu" "F.Mask" "F.Paste")
		(roundrect_rratio 0.25)
	)
	(pad "42" smd roundrect
		(at 0.2 -2.9375)
		(size 0.2 0.825)
		(layers "F.Cu" "F.Mask" "F.Paste")
		(roundrect_rratio 0.25)
	)
	(pad "43" smd roundrect
		(at -0.2 -2.9375)
		(size 0.2 0.825)
		(layers "F.Cu" "F.Mask" "F.Paste")
		(roundrect_rratio 0.25)
	)
	(pad "44" smd roundrect
		(at -0.6 -2.9375)
		(size 0.2 0.825)
		(layers "F.Cu" "F.Mask" "F.Paste")
		(roundrect_rratio 0.25)
	)
	(pad "45" smd roundrect
		(at -1 -2.9375)
		(size 0.2 0.825)
		(layers "F.Cu" "F.Mask" "F.Paste")
		(roundrect_rratio 0.25)
	)
	(pad "46" smd roundrect
		(at -1.4 -2.9375)
		(size 0.2 0.825)
		(layers "F.Cu" "F.Mask" "F.Paste")
		(roundrect_rratio 0.25)
	)
	(pad "47" smd roundrect
		(at -1.8 -2.9375)
		(size 0.2 0.825)
		(layers "F.Cu" "F.Mask" "F.Paste")
		(roundrect_rratio 0.25)
	)
	(pad "48" smd roundrect
		(at -2.2 -2.9375)
		(size 0.2 0.825)
		(layers "F.Cu" "F.Mask" "F.Paste")
		(roundrect_rratio 0.25)
	)
	(pad "49" thru_hole circle
		(at -1.4 -1.4)
		(size 0.5 0.5)
		(drill 0.2)
		(property pad_prop_heatsink)
		(layers "*.Cu")
		(remove_unused_layers no)
	)
	(pad "49" thru_hole circle
		(at -1.4 0)
		(size 0.5 0.5)
		(drill 0.2)
		(property pad_prop_heatsink)
		(layers "*.Cu")
		(remove_unused_layers no)
	)
	(pad "49" thru_hole circle
		(at -1.4 1.4)
		(size 0.5 0.5)
		(drill 0.2)
		(property pad_prop_heatsink)
		(layers "*.Cu")
		(remove_unused_layers no)
	)
	(pad "49" thru_hole circle
		(at 0 -1.4)
		(size 0.5 0.5)
		(drill 0.2)
		(property pad_prop_heatsink)
		(layers "*.Cu")
		(remove_unused_layers no)
	)
	(pad "49" thru_hole circle
		(at 0 0)
		(size 0.5 0.5)
		(drill 0.2)
		(property pad_prop_heatsink)
		(layers "*.Cu")
		(remove_unused_layers no)
	)
	(pad "49" smd rect
		(at 0 0)
		(size 3.3 3.3)
		(property pad_prop_heatsink)
		(layers "B.Cu")
		(zone_connect 2)
	)
	(pad "49" smd rect
		(at 0 0)
		(size 4.45 4.45)
		(property pad_prop_heatsink)
		(layers "F.Cu" "F.Mask")
		(zone_connect 2)
	)
	(pad "49" thru_hole circle
		(at 0 1.4)
		(size 0.5 0.5)
		(drill 0.2)
		(property pad_prop_heatsink)
		(layers "*.Cu")
		(remove_unused_layers no)
	)
	(pad "49" thru_hole circle
		(at 1.4 -1.4)
		(size 0.5 0.5)
		(drill 0.2)
		(property pad_prop_heatsink)
		(layers "*.Cu")
		(remove_unused_layers no)
	)
	(pad "49" thru_hole circle
		(at 1.4 0)
		(size 0.5 0.5)
		(drill 0.2)
		(property pad_prop_heatsink)
		(layers "*.Cu")
		(remove_unused_layers no)
	)
	(pad "49" thru_hole circle
		(at 1.4 1.4)
		(size 0.5 0.5)
		(drill 0.2)
		(property pad_prop_heatsink)
		(layers "*.Cu")
		(remove_unused_layers no)
	)
	(embedded_fonts no)
	(model "${KICAD9_3DMODEL_DIR}/Package_DFN_QFN.3dshapes/UQFN-48-1EP_6x6mm_P0.4mm_EP4.45x4.45mm.wrl"
		(offset
			(xyz 0 0 0)
		)
		(scale
			(xyz 1 1 1)
		)
		(rotate
			(xyz 0 0 0)
		)
	)
)
