(footprint "LFCSP-40-1EP_6x6mm_P0.5mm_EP4.6x4.6mm_ThermalVias"
	(version 20241229)
	(generator "kicad-footprint-generator")
	(layer "F.Cu")
	(descr "LFCSP, 40 Pin (https://www.analog.com/media/en/package-pcb-resources/package/pkg_pdf/lfcspcp/cp-40/CP_40_15.pdf), generated with kicad-footprint-generator ipc_noLead_generator.py")
	(tags "LFCSP NoLead")
	(property "Reference" "REF**"
		(at 0 -4.33 0)
		(layer "F.SilkS")
		(effects
			(font
				(size 1 1)
				(thickness 0.15)
			)
		)
	)
	(property "Value" "LFCSP-40-1EP_6x6mm_P0.5mm_EP4.6x4.6mm_ThermalVias"
		(at 0 4.33 0)
		(layer "F.Fab")
		(effects
			(font
				(size 1 1)
				(thickness 0.15)
			)
		)
	)
	(attr smd)
	(fp_line
		(start -3.11 -2.635)
		(end -3.11 -2.87)
		(stroke
			(width 0.12)
			(type solid)
		)
		(layer "F.SilkS")
	)
	(fp_line
		(start -3.11 3.11)
		(end -3.11 2.635)
		(stroke
			(width 0.12)
			(type solid)
		)
		(layer "F.SilkS")
	)
	(fp_line
		(start -2.635 -3.11)
		(end -2.81 -3.11)
		(stroke
			(width 0.12)
			(type solid)
		)
		(layer "F.SilkS")
	)
	(fp_line
		(start -2.635 3.11)
		(end -3.11 3.11)
		(stroke
			(width 0.12)
			(type solid)
		)
		(layer "F.SilkS")
	)
	(fp_line
		(start 2.635 -3.11)
		(end 3.11 -3.11)
		(stroke
			(width 0.12)
			(type solid)
		)
		(layer "F.SilkS")
	)
	(fp_line
		(start 2.635 3.11)
		(end 3.11 3.11)
		(stroke
			(width 0.12)
			(type solid)
		)
		(layer "F.SilkS")
	)
	(fp_line
		(start 3.11 -3.11)
		(end 3.11 -2.635)
		(stroke
			(width 0.12)
			(type solid)
		)
		(layer "F.SilkS")
	)
	(fp_line
		(start 3.11 3.11)
		(end 3.11 2.635)
		(stroke
			(width 0.12)
			(type solid)
		)
		(layer "F.SilkS")
	)
	(fp_poly
		(pts
			(xy -3.11 -3.11)
			(xy -3.35 -3.44)
			(xy -2.87 -3.44)
		)
		(stroke
			(width 0.12)
			(type solid)
		)
		(fill yes)
		(layer "F.SilkS")
	)
	(fp_rect
		(start -3.63 -3.63)
		(end 3.63 3.63)
		(stroke
			(width 0.05)
			(type solid)
		)
		(fill no)
		(layer "F.CrtYd")
	)
	(fp_poly
		(pts
			(xy -3 -2)
			(xy -3 3)
			(xy 3 3)
			(xy 3 -3)
			(xy -2 -3)
		)
		(stroke
			(width 0.1)
			(type solid)
		)
		(fill no)
		(layer "F.Fab")
	)
	(fp_text user "${REFERENCE}"
		(at 0 0 0)
		(layer "F.Fab")
		(effects
			(font
				(size 1 1)
				(thickness 0.15)
			)
		)
	)
	(pad "" smd custom
		(at -1 -1)
		(size 1.727833 1.727833)
		(layers "F.Paste")
		(options
			(clearance outline)
			(anchor circle)
		)
		(primitives
			(gr_poly
				(pts
					(xy -0.765674 -0.602901)
					(xy -0.602901 -0.765674)
					(xy 0.602901 -0.765674)
					(xy 0.765674 -0.602901)
					(xy 0.765674 0.602901)
					(xy 0.602901 0.765674)
					(xy -0.602901 0.765674)
					(xy -0.765674 0.602901)
				)
				(width 0.39297)
				(fill yes)
			)
		)
	)
	(pad "" smd custom
		(at -1 1)
		(size 1.727833 1.727833)
		(layers "F.Paste")
		(options
			(clearance outline)
			(anchor circle)
		)
		(primitives
			(gr_poly
				(pts
					(xy -0.765674 -0.602901)
					(xy -0.602901 -0.765674)
					(xy 0.602901 -0.765674)
					(xy 0.765674 -0.602901)
					(xy 0.765674 0.602901)
					(xy 0.602901 0.765674)
					(xy -0.602901 0.765674)
					(xy -0.765674 0.602901)
				)
				(width 0.39297)
				(fill yes)
			)
		)
	)
	(pad "" smd custom
		(at 1 -1)
		(size 1.727833 1.727833)
		(layers "F.Paste")
		(options
			(clearance outline)
			(anchor circle)
		)
		(primitives
			(gr_poly
				(pts
					(xy -0.765674 -0.602901)
					(xy -0.602901 -0.765674)
					(xy 0.602901 -0.765674)
					(xy 0.765674 -0.602901)
					(xy 0.765674 0.602901)
					(xy 0.602901 0.765674)
					(xy -0.602901 0.765674)
					(xy -0.765674 0.602901)
				)
				(width 0.39297)
				(fill yes)
			)
		)
	)
	(pad "" smd custom
		(at 1 1)
		(size 1.727833 1.727833)
		(layers "F.Paste")
		(options
			(clearance outline)
			(anchor circle)
		)
		(primitives
			(gr_poly
				(pts
					(xy -0.765674 -0.602901)
					(xy -0.602901 -0.765674)
					(xy 0.602901 -0.765674)
					(xy 0.765674 -0.602901)
					(xy 0.765674 0.602901)
					(xy 0.602901 0.765674)
					(xy -0.602901 0.765674)
					(xy -0.765674 0.602901)
				)
				(width 0.39297)
				(fill yes)
			)
		)
	)
	(pad "1" smd roundrect
		(at -2.95 -2.25)
		(size 0.85 0.25)
		(layers "F.Cu" "F.Mask" "F.Paste")
		(roundrect_rratio 0.25)
	)
	(pad "2" smd roundrect
		(at -2.95 -1.75)
		(size 0.85 0.25)
		(layers "F.Cu" "F.Mask" "F.Paste")
		(roundrect_rratio 0.25)
	)
	(pad "3" smd roundrect
		(at -2.95 -1.25)
		(size 0.85 0.25)
		(layers "F.Cu" "F.Mask" "F.Paste")
		(roundrect_rratio 0.25)
	)
	(pad "4" smd roundrect
		(at -2.95 -0.75)
		(size 0.85 0.25)
		(layers "F.Cu" "F.Mask" "F.Paste")
		(roundrect_rratio 0.25)
	)
	(pad "5" smd roundrect
		(at -2.95 -0.25)
		(size 0.85 0.25)
		(layers "F.Cu" "F.Mask" "F.Paste")
		(roundrect_rratio 0.25)
	)
	(pad "6" smd roundrect
		(at -2.95 0.25)
		(size 0.85 0.25)
		(layers "F.Cu" "F.Mask" "F.Paste")
		(roundrect_rratio 0.25)
	)
	(pad "7" smd roundrect
		(at -2.95 0.75)
		(size 0.85 0.25)
		(layers "F.Cu" "F.Mask" "F.Paste")
		(roundrect_rratio 0.25)
	)
	(pad "8" smd roundrect
		(at -2.95 1.25)
		(size 0.85 0.25)
		(layers "F.Cu" "F.Mask" "F.Paste")
		(roundrect_rratio 0.25)
	)
	(pad "9" smd roundrect
		(at -2.95 1.75)
		(size 0.85 0.25)
		(layers "F.Cu" "F.Mask" "F.Paste")
		(roundrect_rratio 0.25)
	)
	(pad "10" smd roundrect
		(at -2.95 2.25)
		(size 0.85 0.25)
		(layers "F.Cu" "F.Mask" "F.Paste")
		(roundrect_rratio 0.25)
	)
	(pad "11" smd roundrect
		(at -2.25 2.95)
		(size 0.25 0.85)
		(layers "F.Cu" "F.Mask" "F.Paste")
		(roundrect_rratio 0.25)
	)
	(pad "12" smd roundrect
		(at -1.75 2.95)
		(size 0.25 0.85)
		(layers "F.Cu" "F.Mask" "F.Paste")
		(roundrect_rratio 0.25)
	)
	(pad "13" smd roundrect
		(at -1.25 2.95)
		(size 0.25 0.85)
		(layers "F.Cu" "F.Mask" "F.Paste")
		(roundrect_rratio 0.25)
	)
	(pad "14" smd roundrect
		(at -0.75 2.95)
		(size 0.25 0.85)
		(layers "F.Cu" "F.Mask" "F.Paste")
		(roundrect_rratio 0.25)
	)
	(pad "15" smd roundrect
		(at -0.25 2.95)
		(size 0.25 0.85)
		(layers "F.Cu" "F.Mask" "F.Paste")
		(roundrect_rratio 0.25)
	)
	(pad "16" smd roundrect
		(at 0.25 2.95)
		(size 0.25 0.85)
		(layers "F.Cu" "F.Mask" "F.Paste")
		(roundrect_rratio 0.25)
	)
	(pad "17" smd roundrect
		(at 0.75 2.95)
		(size 0.25 0.85)
		(layers "F.Cu" "F.Mask" "F.Paste")
		(roundrect_rratio 0.25)
	)
	(pad "18" smd roundrect
		(at 1.25 2.95)
		(size 0.25 0.85)
		(layers "F.Cu" "F.Mask" "F.Paste")
		(roundrect_rratio 0.25)
	)
	(pad "19" smd roundrect
		(at 1.75 2.95)
		(size 0.25 0.85)
		(layers "F.Cu" "F.Mask" "F.Paste")
		(roundrect_rratio 0.25)
	)
	(pad "20" smd roundrect
		(at 2.25 2.95)
		(size 0.25 0.85)
		(layers "F.Cu" "F.Mask" "F.Paste")
		(roundrect_rratio 0.25)
	)
	(pad "21" smd roundrect
		(at 2.95 2.25)
		(size 0.85 0.25)
		(layers "F.Cu" "F.Mask" "F.Paste")
		(roundrect_rratio 0.25)
	)
	(pad "22" smd roundrect
		(at 2.95 1.75)
		(size 0.85 0.25)
		(layers "F.Cu" "F.Mask" "F.Paste")
		(roundrect_rratio 0.25)
	)
	(pad "23" smd roundrect
		(at 2.95 1.25)
		(size 0.85 0.25)
		(layers "F.Cu" "F.Mask" "F.Paste")
		(roundrect_rratio 0.25)
	)
	(pad "24" smd roundrect
		(at 2.95 0.75)
		(size 0.85 0.25)
		(layers "F.Cu" "F.Mask" "F.Paste")
		(roundrect_rratio 0.25)
	)
	(pad "25" smd roundrect
		(at 2.95 0.25)
		(size 0.85 0.25)
		(layers "F.Cu" "F.Mask" "F.Paste")
		(roundrect_rratio 0.25)
	)
	(pad "26" smd roundrect
		(at 2.95 -0.25)
		(size 0.85 0.25)
		(layers "F.Cu" "F.Mask" "F.Paste")
		(roundrect_rratio 0.25)
	)
	(pad "27" smd roundrect
		(at 2.95 -0.75)
		(size 0.85 0.25)
		(layers "F.Cu" "F.Mask" "F.Paste")
		(roundrect_rratio 0.25)
	)
	(pad "28" smd roundrect
		(at 2.95 -1.25)
		(size 0.85 0.25)
		(layers "F.Cu" "F.Mask" "F.Paste")
		(roundrect_rratio 0.25)
	)
	(pad "29" smd roundrect
		(at 2.95 -1.75)
		(size 0.85 0.25)
		(layers "F.Cu" "F.Mask" "F.Paste")
		(roundrect_rratio 0.25)
	)
	(pad "30" smd roundrect
		(at 2.95 -2.25)
		(size 0.85 0.25)
		(layers "F.Cu" "F.Mask" "F.Paste")
		(roundrect_rratio 0.25)
	)
	(pad "31" smd roundrect
		(at 2.25 -2.95)
		(size 0.25 0.85)
		(layers "F.Cu" "F.Mask" "F.Paste")
		(roundrect_rratio 0.25)
	)
	(pad "32" smd roundrect
		(at 1.75 -2.95)
		(size 0.25 0.85)
		(layers "F.Cu" "F.Mask" "F.Paste")
		(roundrect_rratio 0.25)
	)
	(pad "33" smd roundrect
		(at 1.25 -2.95)
		(size 0.25 0.85)
		(layers "F.Cu" "F.Mask" "F.Paste")
		(roundrect_rratio 0.25)
	)
	(pad "34" smd roundrect
		(at 0.75 -2.95)
		(size 0.25 0.85)
		(layers "F.Cu" "F.Mask" "F.Paste")
		(roundrect_rratio 0.25)
	)
	(pad "35" smd roundrect
		(at 0.25 -2.95)
		(size 0.25 0.85)
		(layers "F.Cu" "F.Mask" "F.Paste")
		(roundrect_rratio 0.25)
	)
	(pad "36" smd roundrect
		(at -0.25 -2.95)
		(size 0.25 0.85)
		(layers "F.Cu" "F.Mask" "F.Paste")
		(roundrect_rratio 0.25)
	)
	(pad "37" smd roundrect
		(at -0.75 -2.95)
		(size 0.25 0.85)
		(layers "F.Cu" "F.Mask" "F.Paste")
		(roundrect_rratio 0.25)
	)
	(pad "38" smd roundrect
		(at -1.25 -2.95)
		(size 0.25 0.85)
		(layers "F.Cu" "F.Mask" "F.Paste")
		(roundrect_rratio 0.25)
	)
	(pad "39" smd roundrect
		(at -1.75 -2.95)
		(size 0.25 0.85)
		(layers "F.Cu" "F.Mask" "F.Paste")
		(roundrect_rratio 0.25)
	)
	(pad "40" smd roundrect
		(at -2.25 -2.95)
		(size 0.25 0.85)
		(layers "F.Cu" "F.Mask" "F.Paste")
		(roundrect_rratio 0.25)
	)
	(pad "41" thru_hole circle
		(at -2 -2)
		(size 0.6 0.6)
		(drill 0.3)
		(property pad_prop_heatsink)
		(layers "*.Cu")
		(remove_unused_layers no)
	)
	(pad "41" thru_hole circle
		(at -2 0)
		(size 0.6 0.6)
		(drill 0.3)
		(property pad_prop_heatsink)
		(layers "*.Cu")
		(remove_unused_layers no)
	)
	(pad "41" thru_hole circle
		(at -2 2)
		(size 0.6 0.6)
		(drill 0.3)
		(property pad_prop_heatsink)
		(layers "*.Cu")
		(remove_unused_layers no)
	)
	(pad "41" thru_hole circle
		(at 0 -2)
		(size 0.6 0.6)
		(drill 0.3)
		(property pad_prop_heatsink)
		(layers "*.Cu")
		(remove_unused_layers no)
	)
	(pad "41" thru_hole circle
		(at 0 0)
		(size 0.6 0.6)
		(drill 0.3)
		(property pad_prop_heatsink)
		(layers "*.Cu")
		(remove_unused_layers no)
	)
	(pad "41" smd rect
		(at 0 0)
		(size 4.6 4.6)
		(property pad_prop_heatsink)
		(layers "F.Cu" "F.Mask")
		(zone_connect 2)
	)
	(pad "41" smd rect
		(at 0 0)
		(size 4.6 4.6)
		(property pad_prop_heatsink)
		(layers "B.Cu")
		(zone_connect 2)
	)
	(pad "41" thru_hole circle
		(at 0 2)
		(size 0.6 0.6)
		(drill 0.3)
		(property pad_prop_heatsink)
		(layers "*.Cu")
		(remove_unused_layers no)
	)
	(pad "41" thru_hole circle
		(at 2 -2)
		(size 0.6 0.6)
		(drill 0.3)
		(property pad_prop_heatsink)
		(layers "*.Cu")
		(remove_unused_layers no)
	)
	(pad "41" thru_hole circle
		(at 2 0)
		(size 0.6 0.6)
		(drill 0.3)
		(property pad_prop_heatsink)
		(layers "*.Cu")
		(remove_unused_layers no)
	)
	(pad "41" thru_hole circle
		(at 2 2)
		(size 0.6 0.6)
		(drill 0.3)
		(property pad_prop_heatsink)
		(layers "*.Cu")
		(remove_unused_layers no)
	)
	(embedded_fonts no)
	(model "${KICAD9_3DMODEL_DIR}/Package_CSP.3dshapes/LFCSP-40-1EP_6x6mm_P0.5mm_EP4.6x4.6mm.wrl"
		(offset
			(xyz 0 0 0)
		)
		(scale
			(xyz 1 1 1)
		)
		(rotate
			(xyz 0 0 0)
		)
	)
)
