(footprint "LFCSP-56-1EP_8x8mm_P0.5mm_EP6.6x6.6mm_ThermalVias"
	(version 20241229)
	(generator "kicad-footprint-generator")
	(layer "F.Cu")
	(descr "LFCSP, 56 Pin (https://www.analog.com/media/en/package-pcb-resources/package/pkg_pdf/lfcspcp/cp-56/CP_56_9.pdf), generated with kicad-footprint-generator ipc_noLead_generator.py")
	(tags "LFCSP NoLead Analog-LFCSP_WQ-CP-56-9")
	(property "Reference" "REF**"
		(at 0 -5.33 0)
		(layer "F.SilkS")
		(effects
			(font
				(size 1 1)
				(thickness 0.15)
			)
		)
	)
	(property "Value" "LFCSP-56-1EP_8x8mm_P0.5mm_EP6.6x6.6mm_ThermalVias"
		(at 0 5.33 0)
		(layer "F.Fab")
		(effects
			(font
				(size 1 1)
				(thickness 0.15)
			)
		)
	)
	(attr smd)
	(fp_line
		(start -4.11 -3.635)
		(end -4.11 -3.87)
		(stroke
			(width 0.12)
			(type solid)
		)
		(layer "F.SilkS")
	)
	(fp_line
		(start -4.11 4.11)
		(end -4.11 3.635)
		(stroke
			(width 0.12)
			(type solid)
		)
		(layer "F.SilkS")
	)
	(fp_line
		(start -3.635 -4.11)
		(end -3.81 -4.11)
		(stroke
			(width 0.12)
			(type solid)
		)
		(layer "F.SilkS")
	)
	(fp_line
		(start -3.635 4.11)
		(end -4.11 4.11)
		(stroke
			(width 0.12)
			(type solid)
		)
		(layer "F.SilkS")
	)
	(fp_line
		(start 3.635 -4.11)
		(end 4.11 -4.11)
		(stroke
			(width 0.12)
			(type solid)
		)
		(layer "F.SilkS")
	)
	(fp_line
		(start 3.635 4.11)
		(end 4.11 4.11)
		(stroke
			(width 0.12)
			(type solid)
		)
		(layer "F.SilkS")
	)
	(fp_line
		(start 4.11 -4.11)
		(end 4.11 -3.635)
		(stroke
			(width 0.12)
			(type solid)
		)
		(layer "F.SilkS")
	)
	(fp_line
		(start 4.11 4.11)
		(end 4.11 3.635)
		(stroke
			(width 0.12)
			(type solid)
		)
		(layer "F.SilkS")
	)
	(fp_poly
		(pts
			(xy -4.11 -4.11)
			(xy -4.35 -4.44)
			(xy -3.87 -4.44)
		)
		(stroke
			(width 0.12)
			(type solid)
		)
		(fill yes)
		(layer "F.SilkS")
	)
	(fp_rect
		(start -4.63 -4.63)
		(end 4.63 4.63)
		(stroke
			(width 0.05)
			(type solid)
		)
		(fill no)
		(layer "F.CrtYd")
	)
	(fp_poly
		(pts
			(xy -4 -3)
			(xy -4 4)
			(xy 4 4)
			(xy 4 -4)
			(xy -3 -4)
		)
		(stroke
			(width 0.1)
			(type solid)
		)
		(fill no)
		(layer "F.Fab")
	)
	(fp_text user "${REFERENCE}"
		(at 0 0 0)
		(layer "F.Fab")
		(effects
			(font
				(size 1 1)
				(thickness 0.15)
			)
		)
	)
	(pad "" smd custom
		(at -1.5 -1.5)
		(size 2.708375 2.708375)
		(layers "F.Paste")
		(options
			(clearance outline)
			(anchor circle)
		)
		(primitives
			(gr_poly
				(pts
					(xy -1.279433 -1.155576)
					(xy -1.155576 -1.279433)
					(xy 1.155576 -1.279433)
					(xy 1.279433 -1.155576)
					(xy 1.279433 1.155576)
					(xy 1.155576 1.279433)
					(xy -1.155576 1.279433)
					(xy -1.279433 1.155576)
				)
				(width 0.299017)
				(fill yes)
			)
		)
	)
	(pad "" smd custom
		(at -1.5 1.5)
		(size 2.708375 2.708375)
		(layers "F.Paste")
		(options
			(clearance outline)
			(anchor circle)
		)
		(primitives
			(gr_poly
				(pts
					(xy -1.279433 -1.155576)
					(xy -1.155576 -1.279433)
					(xy 1.155576 -1.279433)
					(xy 1.279433 -1.155576)
					(xy 1.279433 1.155576)
					(xy 1.155576 1.279433)
					(xy -1.155576 1.279433)
					(xy -1.279433 1.155576)
				)
				(width 0.299017)
				(fill yes)
			)
		)
	)
	(pad "" smd custom
		(at 1.5 -1.5)
		(size 2.708375 2.708375)
		(layers "F.Paste")
		(options
			(clearance outline)
			(anchor circle)
		)
		(primitives
			(gr_poly
				(pts
					(xy -1.279433 -1.155576)
					(xy -1.155576 -1.279433)
					(xy 1.155576 -1.279433)
					(xy 1.279433 -1.155576)
					(xy 1.279433 1.155576)
					(xy 1.155576 1.279433)
					(xy -1.155576 1.279433)
					(xy -1.279433 1.155576)
				)
				(width 0.299017)
				(fill yes)
			)
		)
	)
	(pad "" smd custom
		(at 1.5 1.5)
		(size 2.708375 2.708375)
		(layers "F.Paste")
		(options
			(clearance outline)
			(anchor circle)
		)
		(primitives
			(gr_poly
				(pts
					(xy -1.279433 -1.155576)
					(xy -1.155576 -1.279433)
					(xy 1.155576 -1.279433)
					(xy 1.279433 -1.155576)
					(xy 1.279433 1.155576)
					(xy 1.155576 1.279433)
					(xy -1.155576 1.279433)
					(xy -1.279433 1.155576)
				)
				(width 0.299017)
				(fill yes)
			)
		)
	)
	(pad "1" smd roundrect
		(at -3.95 -3.25)
		(size 0.85 0.25)
		(layers "F.Cu" "F.Mask" "F.Paste")
		(roundrect_rratio 0.25)
	)
	(pad "2" smd roundrect
		(at -3.95 -2.75)
		(size 0.85 0.25)
		(layers "F.Cu" "F.Mask" "F.Paste")
		(roundrect_rratio 0.25)
	)
	(pad "3" smd roundrect
		(at -3.95 -2.25)
		(size 0.85 0.25)
		(layers "F.Cu" "F.Mask" "F.Paste")
		(roundrect_rratio 0.25)
	)
	(pad "4" smd roundrect
		(at -3.95 -1.75)
		(size 0.85 0.25)
		(layers "F.Cu" "F.Mask" "F.Paste")
		(roundrect_rratio 0.25)
	)
	(pad "5" smd roundrect
		(at -3.95 -1.25)
		(size 0.85 0.25)
		(layers "F.Cu" "F.Mask" "F.Paste")
		(roundrect_rratio 0.25)
	)
	(pad "6" smd roundrect
		(at -3.95 -0.75)
		(size 0.85 0.25)
		(layers "F.Cu" "F.Mask" "F.Paste")
		(roundrect_rratio 0.25)
	)
	(pad "7" smd roundrect
		(at -3.95 -0.25)
		(size 0.85 0.25)
		(layers "F.Cu" "F.Mask" "F.Paste")
		(roundrect_rratio 0.25)
	)
	(pad "8" smd roundrect
		(at -3.95 0.25)
		(size 0.85 0.25)
		(layers "F.Cu" "F.Mask" "F.Paste")
		(roundrect_rratio 0.25)
	)
	(pad "9" smd roundrect
		(at -3.95 0.75)
		(size 0.85 0.25)
		(layers "F.Cu" "F.Mask" "F.Paste")
		(roundrect_rratio 0.25)
	)
	(pad "10" smd roundrect
		(at -3.95 1.25)
		(size 0.85 0.25)
		(layers "F.Cu" "F.Mask" "F.Paste")
		(roundrect_rratio 0.25)
	)
	(pad "11" smd roundrect
		(at -3.95 1.75)
		(size 0.85 0.25)
		(layers "F.Cu" "F.Mask" "F.Paste")
		(roundrect_rratio 0.25)
	)
	(pad "12" smd roundrect
		(at -3.95 2.25)
		(size 0.85 0.25)
		(layers "F.Cu" "F.Mask" "F.Paste")
		(roundrect_rratio 0.25)
	)
	(pad "13" smd roundrect
		(at -3.95 2.75)
		(size 0.85 0.25)
		(layers "F.Cu" "F.Mask" "F.Paste")
		(roundrect_rratio 0.25)
	)
	(pad "14" smd roundrect
		(at -3.95 3.25)
		(size 0.85 0.25)
		(layers "F.Cu" "F.Mask" "F.Paste")
		(roundrect_rratio 0.25)
	)
	(pad "15" smd roundrect
		(at -3.25 3.95)
		(size 0.25 0.85)
		(layers "F.Cu" "F.Mask" "F.Paste")
		(roundrect_rratio 0.25)
	)
	(pad "16" smd roundrect
		(at -2.75 3.95)
		(size 0.25 0.85)
		(layers "F.Cu" "F.Mask" "F.Paste")
		(roundrect_rratio 0.25)
	)
	(pad "17" smd roundrect
		(at -2.25 3.95)
		(size 0.25 0.85)
		(layers "F.Cu" "F.Mask" "F.Paste")
		(roundrect_rratio 0.25)
	)
	(pad "18" smd roundrect
		(at -1.75 3.95)
		(size 0.25 0.85)
		(layers "F.Cu" "F.Mask" "F.Paste")
		(roundrect_rratio 0.25)
	)
	(pad "19" smd roundrect
		(at -1.25 3.95)
		(size 0.25 0.85)
		(layers "F.Cu" "F.Mask" "F.Paste")
		(roundrect_rratio 0.25)
	)
	(pad "20" smd roundrect
		(at -0.75 3.95)
		(size 0.25 0.85)
		(layers "F.Cu" "F.Mask" "F.Paste")
		(roundrect_rratio 0.25)
	)
	(pad "21" smd roundrect
		(at -0.25 3.95)
		(size 0.25 0.85)
		(layers "F.Cu" "F.Mask" "F.Paste")
		(roundrect_rratio 0.25)
	)
	(pad "22" smd roundrect
		(at 0.25 3.95)
		(size 0.25 0.85)
		(layers "F.Cu" "F.Mask" "F.Paste")
		(roundrect_rratio 0.25)
	)
	(pad "23" smd roundrect
		(at 0.75 3.95)
		(size 0.25 0.85)
		(layers "F.Cu" "F.Mask" "F.Paste")
		(roundrect_rratio 0.25)
	)
	(pad "24" smd roundrect
		(at 1.25 3.95)
		(size 0.25 0.85)
		(layers "F.Cu" "F.Mask" "F.Paste")
		(roundrect_rratio 0.25)
	)
	(pad "25" smd roundrect
		(at 1.75 3.95)
		(size 0.25 0.85)
		(layers "F.Cu" "F.Mask" "F.Paste")
		(roundrect_rratio 0.25)
	)
	(pad "26" smd roundrect
		(at 2.25 3.95)
		(size 0.25 0.85)
		(layers "F.Cu" "F.Mask" "F.Paste")
		(roundrect_rratio 0.25)
	)
	(pad "27" smd roundrect
		(at 2.75 3.95)
		(size 0.25 0.85)
		(layers "F.Cu" "F.Mask" "F.Paste")
		(roundrect_rratio 0.25)
	)
	(pad "28" smd roundrect
		(at 3.25 3.95)
		(size 0.25 0.85)
		(layers "F.Cu" "F.Mask" "F.Paste")
		(roundrect_rratio 0.25)
	)
	(pad "29" smd roundrect
		(at 3.95 3.25)
		(size 0.85 0.25)
		(layers "F.Cu" "F.Mask" "F.Paste")
		(roundrect_rratio 0.25)
	)
	(pad "30" smd roundrect
		(at 3.95 2.75)
		(size 0.85 0.25)
		(layers "F.Cu" "F.Mask" "F.Paste")
		(roundrect_rratio 0.25)
	)
	(pad "31" smd roundrect
		(at 3.95 2.25)
		(size 0.85 0.25)
		(layers "F.Cu" "F.Mask" "F.Paste")
		(roundrect_rratio 0.25)
	)
	(pad "32" smd roundrect
		(at 3.95 1.75)
		(size 0.85 0.25)
		(layers "F.Cu" "F.Mask" "F.Paste")
		(roundrect_rratio 0.25)
	)
	(pad "33" smd roundrect
		(at 3.95 1.25)
		(size 0.85 0.25)
		(layers "F.Cu" "F.Mask" "F.Paste")
		(roundrect_rratio 0.25)
	)
	(pad "34" smd roundrect
		(at 3.95 0.75)
		(size 0.85 0.25)
		(layers "F.Cu" "F.Mask" "F.Paste")
		(roundrect_rratio 0.25)
	)
	(pad "35" smd roundrect
		(at 3.95 0.25)
		(size 0.85 0.25)
		(layers "F.Cu" "F.Mask" "F.Paste")
		(roundrect_rratio 0.25)
	)
	(pad "36" smd roundrect
		(at 3.95 -0.25)
		(size 0.85 0.25)
		(layers "F.Cu" "F.Mask" "F.Paste")
		(roundrect_rratio 0.25)
	)
	(pad "37" smd roundrect
		(at 3.95 -0.75)
		(size 0.85 0.25)
		(layers "F.Cu" "F.Mask" "F.Paste")
		(roundrect_rratio 0.25)
	)
	(pad "38" smd roundrect
		(at 3.95 -1.25)
		(size 0.85 0.25)
		(layers "F.Cu" "F.Mask" "F.Paste")
		(roundrect_rratio 0.25)
	)
	(pad "39" smd roundrect
		(at 3.95 -1.75)
		(size 0.85 0.25)
		(layers "F.Cu" "F.Mask" "F.Paste")
		(roundrect_rratio 0.25)
	)
	(pad "40" smd roundrect
		(at 3.95 -2.25)
		(size 0.85 0.25)
		(layers "F.Cu" "F.Mask" "F.Paste")
		(roundrect_rratio 0.25)
	)
	(pad "41" smd roundrect
		(at 3.95 -2.75)
		(size 0.85 0.25)
		(layers "F.Cu" "F.Mask" "F.Paste")
		(roundrect_rratio 0.25)
	)
	(pad "42" smd roundrect
		(at 3.95 -3.25)
		(size 0.85 0.25)
		(layers "F.Cu" "F.Mask" "F.Paste")
		(roundrect_rratio 0.25)
	)
	(pad "43" smd roundrect
		(at 3.25 -3.95)
		(size 0.25 0.85)
		(layers "F.Cu" "F.Mask" "F.Paste")
		(roundrect_rratio 0.25)
	)
	(pad "44" smd roundrect
		(at 2.75 -3.95)
		(size 0.25 0.85)
		(layers "F.Cu" "F.Mask" "F.Paste")
		(roundrect_rratio 0.25)
	)
	(pad "45" smd roundrect
		(at 2.25 -3.95)
		(size 0.25 0.85)
		(layers "F.Cu" "F.Mask" "F.Paste")
		(roundrect_rratio 0.25)
	)
	(pad "46" smd roundrect
		(at 1.75 -3.95)
		(size 0.25 0.85)
		(layers "F.Cu" "F.Mask" "F.Paste")
		(roundrect_rratio 0.25)
	)
	(pad "47" smd roundrect
		(at 1.25 -3.95)
		(size 0.25 0.85)
		(layers "F.Cu" "F.Mask" "F.Paste")
		(roundrect_rratio 0.25)
	)
	(pad "48" smd roundrect
		(at 0.75 -3.95)
		(size 0.25 0.85)
		(layers "F.Cu" "F.Mask" "F.Paste")
		(roundrect_rratio 0.25)
	)
	(pad "49" smd roundrect
		(at 0.25 -3.95)
		(size 0.25 0.85)
		(layers "F.Cu" "F.Mask" "F.Paste")
		(roundrect_rratio 0.25)
	)
	(pad "50" smd roundrect
		(at -0.25 -3.95)
		(size 0.25 0.85)
		(layers "F.Cu" "F.Mask" "F.Paste")
		(roundrect_rratio 0.25)
	)
	(pad "51" smd roundrect
		(at -0.75 -3.95)
		(size 0.25 0.85)
		(layers "F.Cu" "F.Mask" "F.Paste")
		(roundrect_rratio 0.25)
	)
	(pad "52" smd roundrect
		(at -1.25 -3.95)
		(size 0.25 0.85)
		(layers "F.Cu" "F.Mask" "F.Paste")
		(roundrect_rratio 0.25)
	)
	(pad "53" smd roundrect
		(at -1.75 -3.95)
		(size 0.25 0.85)
		(layers "F.Cu" "F.Mask" "F.Paste")
		(roundrect_rratio 0.25)
	)
	(pad "54" smd roundrect
		(at -2.25 -3.95)
		(size 0.25 0.85)
		(layers "F.Cu" "F.Mask" "F.Paste")
		(roundrect_rratio 0.25)
	)
	(pad "55" smd roundrect
		(at -2.75 -3.95)
		(size 0.25 0.85)
		(layers "F.Cu" "F.Mask" "F.Paste")
		(roundrect_rratio 0.25)
	)
	(pad "56" smd roundrect
		(at -3.25 -3.95)
		(size 0.25 0.85)
		(layers "F.Cu" "F.Mask" "F.Paste")
		(roundrect_rratio 0.25)
	)
	(pad "57" thru_hole circle
		(at -3 -3)
		(size 0.6 0.6)
		(drill 0.3)
		(property pad_prop_heatsink)
		(layers "*.Cu")
		(remove_unused_layers no)
	)
	(pad "57" thru_hole circle
		(at -3 0)
		(size 0.6 0.6)
		(drill 0.3)
		(property pad_prop_heatsink)
		(layers "*.Cu")
		(remove_unused_layers no)
	)
	(pad "57" thru_hole circle
		(at -3 3)
		(size 0.6 0.6)
		(drill 0.3)
		(property pad_prop_heatsink)
		(layers "*.Cu")
		(remove_unused_layers no)
	)
	(pad "57" thru_hole circle
		(at 0 -3)
		(size 0.6 0.6)
		(drill 0.3)
		(property pad_prop_heatsink)
		(layers "*.Cu")
		(remove_unused_layers no)
	)
	(pad "57" thru_hole circle
		(at 0 0)
		(size 0.6 0.6)
		(drill 0.3)
		(property pad_prop_heatsink)
		(layers "*.Cu")
		(remove_unused_layers no)
	)
	(pad "57" smd rect
		(at 0 0)
		(size 6.6 6.6)
		(property pad_prop_heatsink)
		(layers "F.Cu" "F.Mask")
		(zone_connect 2)
	)
	(pad "57" smd rect
		(at 0 0)
		(size 6.6 6.6)
		(property pad_prop_heatsink)
		(layers "B.Cu")
		(zone_connect 2)
	)
	(pad "57" thru_hole circle
		(at 0 3)
		(size 0.6 0.6)
		(drill 0.3)
		(property pad_prop_heatsink)
		(layers "*.Cu")
		(remove_unused_layers no)
	)
	(pad "57" thru_hole circle
		(at 3 -3)
		(size 0.6 0.6)
		(drill 0.3)
		(property pad_prop_heatsink)
		(layers "*.Cu")
		(remove_unused_layers no)
	)
	(pad "57" thru_hole circle
		(at 3 0)
		(size 0.6 0.6)
		(drill 0.3)
		(property pad_prop_heatsink)
		(layers "*.Cu")
		(remove_unused_layers no)
	)
	(pad "57" thru_hole circle
		(at 3 3)
		(size 0.6 0.6)
		(drill 0.3)
		(property pad_prop_heatsink)
		(layers "*.Cu")
		(remove_unused_layers no)
	)
	(embedded_fonts no)
	(model "${KICAD9_3DMODEL_DIR}/Package_CSP.3dshapes/LFCSP-56-1EP_8x8mm_P0.5mm_EP6.6x6.6mm.wrl"
		(offset
			(xyz 0 0 0)
		)
		(scale
			(xyz 1 1 1)
		)
		(rotate
			(xyz 0 0 0)
		)
	)
)
