(footprint "LFCSP-32-1EP_5x5mm_P0.5mm_EP3.1x3.1mm_ThermalVias"
	(version 20241229)
	(generator "kicad-footprint-generator")
	(layer "F.Cu")
	(descr "LFCSP, 32 Pin (https://www.analog.com/media/en/package-pcb-resources/package/414143737956480539664569cp_32_2.pdf), generated with kicad-footprint-generator ipc_noLead_generator.py")
	(tags "LFCSP NoLead")
	(property "Reference" "REF**"
		(at 0 -3.8 0)
		(layer "F.SilkS")
		(effects
			(font
				(size 1 1)
				(thickness 0.15)
			)
		)
	)
	(property "Value" "LFCSP-32-1EP_5x5mm_P0.5mm_EP3.1x3.1mm_ThermalVias"
		(at 0 3.8 0)
		(layer "F.Fab")
		(effects
			(font
				(size 1 1)
				(thickness 0.15)
			)
		)
	)
	(attr smd)
	(fp_line
		(start -2.61 -2.135)
		(end -2.61 -2.37)
		(stroke
			(width 0.12)
			(type solid)
		)
		(layer "F.SilkS")
	)
	(fp_line
		(start -2.61 2.61)
		(end -2.61 2.135)
		(stroke
			(width 0.12)
			(type solid)
		)
		(layer "F.SilkS")
	)
	(fp_line
		(start -2.135 -2.61)
		(end -2.31 -2.61)
		(stroke
			(width 0.12)
			(type solid)
		)
		(layer "F.SilkS")
	)
	(fp_line
		(start -2.135 2.61)
		(end -2.61 2.61)
		(stroke
			(width 0.12)
			(type solid)
		)
		(layer "F.SilkS")
	)
	(fp_line
		(start 2.135 -2.61)
		(end 2.61 -2.61)
		(stroke
			(width 0.12)
			(type solid)
		)
		(layer "F.SilkS")
	)
	(fp_line
		(start 2.135 2.61)
		(end 2.61 2.61)
		(stroke
			(width 0.12)
			(type solid)
		)
		(layer "F.SilkS")
	)
	(fp_line
		(start 2.61 -2.61)
		(end 2.61 -2.135)
		(stroke
			(width 0.12)
			(type solid)
		)
		(layer "F.SilkS")
	)
	(fp_line
		(start 2.61 2.61)
		(end 2.61 2.135)
		(stroke
			(width 0.12)
			(type solid)
		)
		(layer "F.SilkS")
	)
	(fp_poly
		(pts
			(xy -2.61 -2.61)
			(xy -2.85 -2.94)
			(xy -2.37 -2.94)
		)
		(stroke
			(width 0.12)
			(type solid)
		)
		(fill yes)
		(layer "F.SilkS")
	)
	(fp_rect
		(start -3.1 -3.1)
		(end 3.1 3.1)
		(stroke
			(width 0.05)
			(type solid)
		)
		(fill no)
		(layer "F.CrtYd")
	)
	(fp_poly
		(pts
			(xy -2.5 -1.5)
			(xy -2.5 2.5)
			(xy 2.5 2.5)
			(xy 2.5 -2.5)
			(xy -1.5 -2.5)
		)
		(stroke
			(width 0.1)
			(type solid)
		)
		(fill no)
		(layer "F.Fab")
	)
	(fp_text user "${REFERENCE}"
		(at 0 0 0)
		(layer "F.Fab")
		(effects
			(font
				(size 1 1)
				(thickness 0.15)
			)
		)
	)
	(pad "" smd custom
		(at -0.866667 -0.866667)
		(size 0.656835 0.656835)
		(layers "F.Paste")
		(options
			(clearance outline)
			(anchor circle)
		)
		(primitives
			(gr_poly
				(pts
					(xy -0.240285 -0.094263)
					(xy -0.094263 -0.240285)
					(xy 0.094263 -0.240285)
					(xy 0.240285 -0.094263)
					(xy 0.240285 0.094263)
					(xy 0.094263 0.240285)
					(xy -0.094263 0.240285)
					(xy -0.240285 0.094263)
				)
				(width 0.35253)
				(fill yes)
			)
		)
	)
	(pad "" smd custom
		(at -0.866667 0)
		(size 0.656835 0.656835)
		(layers "F.Paste")
		(options
			(clearance outline)
			(anchor circle)
		)
		(primitives
			(gr_poly
				(pts
					(xy -0.240285 -0.094263)
					(xy -0.094263 -0.240285)
					(xy 0.094263 -0.240285)
					(xy 0.240285 -0.094263)
					(xy 0.240285 0.094263)
					(xy 0.094263 0.240285)
					(xy -0.094263 0.240285)
					(xy -0.240285 0.094263)
				)
				(width 0.35253)
				(fill yes)
			)
		)
	)
	(pad "" smd custom
		(at -0.866667 0.866667)
		(size 0.656835 0.656835)
		(layers "F.Paste")
		(options
			(clearance outline)
			(anchor circle)
		)
		(primitives
			(gr_poly
				(pts
					(xy -0.240285 -0.094263)
					(xy -0.094263 -0.240285)
					(xy 0.094263 -0.240285)
					(xy 0.240285 -0.094263)
					(xy 0.240285 0.094263)
					(xy 0.094263 0.240285)
					(xy -0.094263 0.240285)
					(xy -0.240285 0.094263)
				)
				(width 0.35253)
				(fill yes)
			)
		)
	)
	(pad "" smd custom
		(at 0 -0.866667)
		(size 0.656835 0.656835)
		(layers "F.Paste")
		(options
			(clearance outline)
			(anchor circle)
		)
		(primitives
			(gr_poly
				(pts
					(xy -0.240285 -0.094263)
					(xy -0.094263 -0.240285)
					(xy 0.094263 -0.240285)
					(xy 0.240285 -0.094263)
					(xy 0.240285 0.094263)
					(xy 0.094263 0.240285)
					(xy -0.094263 0.240285)
					(xy -0.240285 0.094263)
				)
				(width 0.35253)
				(fill yes)
			)
		)
	)
	(pad "" smd custom
		(at 0 0)
		(size 0.656835 0.656835)
		(layers "F.Paste")
		(options
			(clearance outline)
			(anchor circle)
		)
		(primitives
			(gr_poly
				(pts
					(xy -0.240285 -0.094263)
					(xy -0.094263 -0.240285)
					(xy 0.094263 -0.240285)
					(xy 0.240285 -0.094263)
					(xy 0.240285 0.094263)
					(xy 0.094263 0.240285)
					(xy -0.094263 0.240285)
					(xy -0.240285 0.094263)
				)
				(width 0.35253)
				(fill yes)
			)
		)
	)
	(pad "" smd custom
		(at 0 0.866667)
		(size 0.656835 0.656835)
		(layers "F.Paste")
		(options
			(clearance outline)
			(anchor circle)
		)
		(primitives
			(gr_poly
				(pts
					(xy -0.240285 -0.094263)
					(xy -0.094263 -0.240285)
					(xy 0.094263 -0.240285)
					(xy 0.240285 -0.094263)
					(xy 0.240285 0.094263)
					(xy 0.094263 0.240285)
					(xy -0.094263 0.240285)
					(xy -0.240285 0.094263)
				)
				(width 0.35253)
				(fill yes)
			)
		)
	)
	(pad "" smd custom
		(at 0.866667 -0.866667)
		(size 0.656835 0.656835)
		(layers "F.Paste")
		(options
			(clearance outline)
			(anchor circle)
		)
		(primitives
			(gr_poly
				(pts
					(xy -0.240285 -0.094263)
					(xy -0.094263 -0.240285)
					(xy 0.094263 -0.240285)
					(xy 0.240285 -0.094263)
					(xy 0.240285 0.094263)
					(xy 0.094263 0.240285)
					(xy -0.094263 0.240285)
					(xy -0.240285 0.094263)
				)
				(width 0.35253)
				(fill yes)
			)
		)
	)
	(pad "" smd custom
		(at 0.866667 0)
		(size 0.656835 0.656835)
		(layers "F.Paste")
		(options
			(clearance outline)
			(anchor circle)
		)
		(primitives
			(gr_poly
				(pts
					(xy -0.240285 -0.094263)
					(xy -0.094263 -0.240285)
					(xy 0.094263 -0.240285)
					(xy 0.240285 -0.094263)
					(xy 0.240285 0.094263)
					(xy 0.094263 0.240285)
					(xy -0.094263 0.240285)
					(xy -0.240285 0.094263)
				)
				(width 0.35253)
				(fill yes)
			)
		)
	)
	(pad "" smd custom
		(at 0.866667 0.866667)
		(size 0.656835 0.656835)
		(layers "F.Paste")
		(options
			(clearance outline)
			(anchor circle)
		)
		(primitives
			(gr_poly
				(pts
					(xy -0.240285 -0.094263)
					(xy -0.094263 -0.240285)
					(xy 0.094263 -0.240285)
					(xy 0.240285 -0.094263)
					(xy 0.240285 0.094263)
					(xy 0.094263 0.240285)
					(xy -0.094263 0.240285)
					(xy -0.240285 0.094263)
				)
				(width 0.35253)
				(fill yes)
			)
		)
	)
	(pad "1" smd roundrect
		(at -2.4375 -1.75)
		(size 0.825 0.25)
		(layers "F.Cu" "F.Mask" "F.Paste")
		(roundrect_rratio 0.25)
	)
	(pad "2" smd roundrect
		(at -2.4375 -1.25)
		(size 0.825 0.25)
		(layers "F.Cu" "F.Mask" "F.Paste")
		(roundrect_rratio 0.25)
	)
	(pad "3" smd roundrect
		(at -2.4375 -0.75)
		(size 0.825 0.25)
		(layers "F.Cu" "F.Mask" "F.Paste")
		(roundrect_rratio 0.25)
	)
	(pad "4" smd roundrect
		(at -2.4375 -0.25)
		(size 0.825 0.25)
		(layers "F.Cu" "F.Mask" "F.Paste")
		(roundrect_rratio 0.25)
	)
	(pad "5" smd roundrect
		(at -2.4375 0.25)
		(size 0.825 0.25)
		(layers "F.Cu" "F.Mask" "F.Paste")
		(roundrect_rratio 0.25)
	)
	(pad "6" smd roundrect
		(at -2.4375 0.75)
		(size 0.825 0.25)
		(layers "F.Cu" "F.Mask" "F.Paste")
		(roundrect_rratio 0.25)
	)
	(pad "7" smd roundrect
		(at -2.4375 1.25)
		(size 0.825 0.25)
		(layers "F.Cu" "F.Mask" "F.Paste")
		(roundrect_rratio 0.25)
	)
	(pad "8" smd roundrect
		(at -2.4375 1.75)
		(size 0.825 0.25)
		(layers "F.Cu" "F.Mask" "F.Paste")
		(roundrect_rratio 0.25)
	)
	(pad "9" smd roundrect
		(at -1.75 2.4375)
		(size 0.25 0.825)
		(layers "F.Cu" "F.Mask" "F.Paste")
		(roundrect_rratio 0.25)
	)
	(pad "10" smd roundrect
		(at -1.25 2.4375)
		(size 0.25 0.825)
		(layers "F.Cu" "F.Mask" "F.Paste")
		(roundrect_rratio 0.25)
	)
	(pad "11" smd roundrect
		(at -0.75 2.4375)
		(size 0.25 0.825)
		(layers "F.Cu" "F.Mask" "F.Paste")
		(roundrect_rratio 0.25)
	)
	(pad "12" smd roundrect
		(at -0.25 2.4375)
		(size 0.25 0.825)
		(layers "F.Cu" "F.Mask" "F.Paste")
		(roundrect_rratio 0.25)
	)
	(pad "13" smd roundrect
		(at 0.25 2.4375)
		(size 0.25 0.825)
		(layers "F.Cu" "F.Mask" "F.Paste")
		(roundrect_rratio 0.25)
	)
	(pad "14" smd roundrect
		(at 0.75 2.4375)
		(size 0.25 0.825)
		(layers "F.Cu" "F.Mask" "F.Paste")
		(roundrect_rratio 0.25)
	)
	(pad "15" smd roundrect
		(at 1.25 2.4375)
		(size 0.25 0.825)
		(layers "F.Cu" "F.Mask" "F.Paste")
		(roundrect_rratio 0.25)
	)
	(pad "16" smd roundrect
		(at 1.75 2.4375)
		(size 0.25 0.825)
		(layers "F.Cu" "F.Mask" "F.Paste")
		(roundrect_rratio 0.25)
	)
	(pad "17" smd roundrect
		(at 2.4375 1.75)
		(size 0.825 0.25)
		(layers "F.Cu" "F.Mask" "F.Paste")
		(roundrect_rratio 0.25)
	)
	(pad "18" smd roundrect
		(at 2.4375 1.25)
		(size 0.825 0.25)
		(layers "F.Cu" "F.Mask" "F.Paste")
		(roundrect_rratio 0.25)
	)
	(pad "19" smd roundrect
		(at 2.4375 0.75)
		(size 0.825 0.25)
		(layers "F.Cu" "F.Mask" "F.Paste")
		(roundrect_rratio 0.25)
	)
	(pad "20" smd roundrect
		(at 2.4375 0.25)
		(size 0.825 0.25)
		(layers "F.Cu" "F.Mask" "F.Paste")
		(roundrect_rratio 0.25)
	)
	(pad "21" smd roundrect
		(at 2.4375 -0.25)
		(size 0.825 0.25)
		(layers "F.Cu" "F.Mask" "F.Paste")
		(roundrect_rratio 0.25)
	)
	(pad "22" smd roundrect
		(at 2.4375 -0.75)
		(size 0.825 0.25)
		(layers "F.Cu" "F.Mask" "F.Paste")
		(roundrect_rratio 0.25)
	)
	(pad "23" smd roundrect
		(at 2.4375 -1.25)
		(size 0.825 0.25)
		(layers "F.Cu" "F.Mask" "F.Paste")
		(roundrect_rratio 0.25)
	)
	(pad "24" smd roundrect
		(at 2.4375 -1.75)
		(size 0.825 0.25)
		(layers "F.Cu" "F.Mask" "F.Paste")
		(roundrect_rratio 0.25)
	)
	(pad "25" smd roundrect
		(at 1.75 -2.4375)
		(size 0.25 0.825)
		(layers "F.Cu" "F.Mask" "F.Paste")
		(roundrect_rratio 0.25)
	)
	(pad "26" smd roundrect
		(at 1.25 -2.4375)
		(size 0.25 0.825)
		(layers "F.Cu" "F.Mask" "F.Paste")
		(roundrect_rratio 0.25)
	)
	(pad "27" smd roundrect
		(at 0.75 -2.4375)
		(size 0.25 0.825)
		(layers "F.Cu" "F.Mask" "F.Paste")
		(roundrect_rratio 0.25)
	)
	(pad "28" smd roundrect
		(at 0.25 -2.4375)
		(size 0.25 0.825)
		(layers "F.Cu" "F.Mask" "F.Paste")
		(roundrect_rratio 0.25)
	)
	(pad "29" smd roundrect
		(at -0.25 -2.4375)
		(size 0.25 0.825)
		(layers "F.Cu" "F.Mask" "F.Paste")
		(roundrect_rratio 0.25)
	)
	(pad "30" smd roundrect
		(at -0.75 -2.4375)
		(size 0.25 0.825)
		(layers "F.Cu" "F.Mask" "F.Paste")
		(roundrect_rratio 0.25)
	)
	(pad "31" smd roundrect
		(at -1.25 -2.4375)
		(size 0.25 0.825)
		(layers "F.Cu" "F.Mask" "F.Paste")
		(roundrect_rratio 0.25)
	)
	(pad "32" smd roundrect
		(at -1.75 -2.4375)
		(size 0.25 0.825)
		(layers "F.Cu" "F.Mask" "F.Paste")
		(roundrect_rratio 0.25)
	)
	(pad "33" thru_hole circle
		(at -1.3 -1.3)
		(size 0.5 0.5)
		(drill 0.2)
		(property pad_prop_heatsink)
		(layers "*.Cu")
		(remove_unused_layers no)
	)
	(pad "33" thru_hole circle
		(at -1.3 -0.433333)
		(size 0.5 0.5)
		(drill 0.2)
		(property pad_prop_heatsink)
		(layers "*.Cu")
		(remove_unused_layers no)
	)
	(pad "33" thru_hole circle
		(at -1.3 0.433333)
		(size 0.5 0.5)
		(drill 0.2)
		(property pad_prop_heatsink)
		(layers "*.Cu")
		(remove_unused_layers no)
	)
	(pad "33" thru_hole circle
		(at -1.3 1.3)
		(size 0.5 0.5)
		(drill 0.2)
		(property pad_prop_heatsink)
		(layers "*.Cu")
		(remove_unused_layers no)
	)
	(pad "33" thru_hole circle
		(at -0.433333 -1.3)
		(size 0.5 0.5)
		(drill 0.2)
		(property pad_prop_heatsink)
		(layers "*.Cu")
		(remove_unused_layers no)
	)
	(pad "33" thru_hole circle
		(at -0.433333 -0.433333)
		(size 0.5 0.5)
		(drill 0.2)
		(property pad_prop_heatsink)
		(layers "*.Cu")
		(remove_unused_layers no)
	)
	(pad "33" thru_hole circle
		(at -0.433333 0.433333)
		(size 0.5 0.5)
		(drill 0.2)
		(property pad_prop_heatsink)
		(layers "*.Cu")
		(remove_unused_layers no)
	)
	(pad "33" thru_hole circle
		(at -0.433333 1.3)
		(size 0.5 0.5)
		(drill 0.2)
		(property pad_prop_heatsink)
		(layers "*.Cu")
		(remove_unused_layers no)
	)
	(pad "33" smd rect
		(at 0 0)
		(size 3.1 3.1)
		(property pad_prop_heatsink)
		(layers "F.Cu" "F.Mask")
		(zone_connect 2)
	)
	(pad "33" smd rect
		(at 0 0)
		(size 3.1 3.1)
		(property pad_prop_heatsink)
		(layers "B.Cu")
		(zone_connect 2)
	)
	(pad "33" thru_hole circle
		(at 0.433333 -1.3)
		(size 0.5 0.5)
		(drill 0.2)
		(property pad_prop_heatsink)
		(layers "*.Cu")
		(remove_unused_layers no)
	)
	(pad "33" thru_hole circle
		(at 0.433333 -0.433333)
		(size 0.5 0.5)
		(drill 0.2)
		(property pad_prop_heatsink)
		(layers "*.Cu")
		(remove_unused_layers no)
	)
	(pad "33" thru_hole circle
		(at 0.433333 0.433333)
		(size 0.5 0.5)
		(drill 0.2)
		(property pad_prop_heatsink)
		(layers "*.Cu")
		(remove_unused_layers no)
	)
	(pad "33" thru_hole circle
		(at 0.433333 1.3)
		(size 0.5 0.5)
		(drill 0.2)
		(property pad_prop_heatsink)
		(layers "*.Cu")
		(remove_unused_layers no)
	)
	(pad "33" thru_hole circle
		(at 1.3 -1.3)
		(size 0.5 0.5)
		(drill 0.2)
		(property pad_prop_heatsink)
		(layers "*.Cu")
		(remove_unused_layers no)
	)
	(pad "33" thru_hole circle
		(at 1.3 -0.433333)
		(size 0.5 0.5)
		(drill 0.2)
		(property pad_prop_heatsink)
		(layers "*.Cu")
		(remove_unused_layers no)
	)
	(pad "33" thru_hole circle
		(at 1.3 0.433333)
		(size 0.5 0.5)
		(drill 0.2)
		(property pad_prop_heatsink)
		(layers "*.Cu")
		(remove_unused_layers no)
	)
	(pad "33" thru_hole circle
		(at 1.3 1.3)
		(size 0.5 0.5)
		(drill 0.2)
		(property pad_prop_heatsink)
		(layers "*.Cu")
		(remove_unused_layers no)
	)
	(embedded_fonts no)
	(model "${KICAD9_3DMODEL_DIR}/Package_CSP.3dshapes/LFCSP-32-1EP_5x5mm_P0.5mm_EP3.1x3.1mm.wrl"
		(offset
			(xyz 0 0 0)
		)
		(scale
			(xyz 1 1 1)
		)
		(rotate
			(xyz 0 0 0)
		)
	)
)
